# Blender v2.82 (sub 7) OBJ File: ''
# www.blender.org
mtllib Terminal-Fixed.mtl
o Object020_Меш
v -0.117791 0.306135 -0.476479
v -0.117791 -0.321568 -0.476479
v -0.117791 -0.321568 -0.368428
v -0.145191 -0.321568 -0.512837
v -0.145191 -0.829536 -0.512837
v -0.145191 -0.321568 -0.368428
v -0.145191 0.066666 0.533397
v -0.145191 0.333585 0.288806
v -0.145191 0.333585 0.132144
v -0.145191 -0.074424 0.533397
v -0.145191 -0.829537 0.533397
v -0.117791 0.306135 0.111116
v -0.093392 -0.543348 0.518985
v -0.148585 -0.543348 0.518985
v -0.148585 -0.451800 0.518985
v -0.093392 -0.451800 0.518985
v -0.093392 -0.543348 0.536118
v -0.148585 -0.543348 0.536118
v -0.148585 -0.451800 0.536118
v -0.093392 -0.451800 0.536118
v -0.008633 0.267869 -0.455882
v -0.011987 0.280383 -0.455882
v -0.011987 0.280383 -0.138381
v -0.008633 0.267869 -0.138381
v -0.021148 0.289545 -0.455882
v -0.021148 0.289545 -0.138381
v -0.033663 0.292898 -0.455882
v -0.033663 0.292898 -0.138381
v -0.046177 0.289545 -0.455882
v -0.046177 0.289545 -0.138381
v -0.055339 0.280383 -0.455882
v -0.055339 0.280383 -0.138381
v -0.058692 0.267869 -0.455882
v -0.058692 0.267869 -0.138381
v -0.055339 0.255354 -0.455882
v -0.055339 0.255354 -0.138381
v -0.046177 0.246193 -0.455882
v -0.046177 0.246193 -0.138381
v -0.033663 0.242840 -0.455882
v -0.033663 0.242840 -0.138381
v -0.021148 0.246193 -0.455882
v -0.021148 0.246193 -0.138381
v -0.011987 0.255354 -0.455882
v -0.011987 0.255354 -0.138381
v 0.117400 0.306135 -0.476479
v 0.117400 -0.321568 -0.368428
v 0.117400 -0.321568 -0.476479
v 0.144800 -0.321568 -0.512837
v 0.144800 -0.321568 -0.368428
v 0.144800 -0.829536 -0.512837
v 0.144800 0.066666 0.533397
v 0.144800 -0.074424 0.533397
v 0.144800 0.333585 0.132144
v 0.144800 0.333585 0.288806
v 0.144800 -0.829537 0.533397
v 0.117400 0.306135 0.111116
v 0.093001 -0.543348 0.518985
v 0.093001 -0.451800 0.518985
v 0.148194 -0.451800 0.518985
v 0.148194 -0.543348 0.518985
v 0.148194 -0.543348 0.536118
v 0.093001 -0.543348 0.536118
v 0.148194 -0.451800 0.536118
v 0.093001 -0.451800 0.536118
v 0.008242 0.267869 -0.455882
v 0.008242 0.267869 -0.138381
v 0.011596 0.280383 -0.138381
v 0.011596 0.280383 -0.455882
v 0.020757 0.289545 -0.138381
v 0.020757 0.289545 -0.455882
v 0.033272 0.292898 -0.138381
v 0.033272 0.292898 -0.455882
v 0.045786 0.289545 -0.138381
v 0.045786 0.289545 -0.455882
v 0.054948 0.280383 -0.138381
v 0.054948 0.280383 -0.455882
v 0.058301 0.267869 -0.138381
v 0.058301 0.267869 -0.455882
v 0.054948 0.255354 -0.138381
v 0.054948 0.255354 -0.455882
v 0.045786 0.246193 -0.138381
v 0.045786 0.246193 -0.455882
v 0.033272 0.242840 -0.138381
v 0.033272 0.242840 -0.455882
v 0.020757 0.246193 -0.138381
v 0.020757 0.246193 -0.455882
v 0.011596 0.255354 -0.138381
v 0.011596 0.255354 -0.455882
v 0.144801 -0.321568 -0.512837
v 0.117400 -0.321568 -0.476479
v 0.117400 0.306135 -0.476479
v 0.117400 0.306135 0.111116
v 0.144801 0.333585 0.132144
v 0.144801 0.333585 0.288806
v -0.066350 0.237518 -0.443664
v -0.066350 0.237518 -0.042428
v 0.065960 0.237518 -0.042428
v 0.065960 0.237518 -0.443664
v 0.144801 -0.829536 -0.512837
v 0.144801 -0.829537 0.533397
v -0.079850 0.306135 -0.457774
v 0.079460 0.306135 -0.457774
v -0.079850 0.306135 -0.016362
v 0.079460 0.306135 -0.016362
v 0.144801 -0.074424 0.533397
v 0.144801 0.066666 0.533397
v 0.086178 0.066666 0.533397
v 0.086178 -0.019753 0.533397
v 0.086178 0.291790 0.327105
v -0.086569 0.291790 0.327105
v -0.086569 0.066666 0.533397
v -0.086569 -0.019753 0.533397
v 0.086178 0.053272 0.498954
v 0.086178 -0.019753 0.496441
v 0.086178 0.266822 0.299858
v -0.086569 0.266822 0.299858
v -0.086569 0.053272 0.498954
v -0.086569 -0.019753 0.496441
v -0.068514 0.296501 -0.084742
v 0.068035 0.296501 -0.084742
v 0.068035 0.296501 -0.141900
v -0.068514 0.296501 -0.141900
v -0.068514 0.231968 -0.055317
v 0.068035 0.231968 -0.055317
v 0.068035 0.267076 -0.055317
v -0.068514 0.267076 -0.055317
v 0.068035 0.231968 -0.141900
v 0.068035 0.289145 -0.062673
v -0.068514 0.231968 -0.141900
v -0.068514 0.289145 -0.062673
v 0.067011 -0.829044 0.532851
v 0.067011 -0.712750 0.532851
v 0.067011 -0.712750 0.543782
v 0.067011 -0.829044 0.543782
v -0.060039 -0.712750 0.532851
v -0.060039 -0.712750 0.543782
v -0.060039 -0.829044 0.532851
v -0.060039 -0.829044 0.543782
vt 0.017346 0.612972
vt 0.018960 0.283098
vt 0.074006 0.283466
vt 0.002000 0.269139
vt 0.004160 0.004024
vt 0.079856 0.271931
vt 0.556284 0.472744
vt 0.429396 0.614544
vt 0.347099 0.615478
vt 0.555371 0.398632
vt 0.553399 0.002000
vt 0.325732 0.611324
vt 0.229151 0.917881
vt 0.229191 0.946872
vt 0.181103 0.946939
vt 0.181063 0.917947
vt 0.238243 0.984850
vt 0.229243 0.984863
vt 0.229203 0.955872
vt 0.238202 0.955859
vt 0.181116 0.955938
vt 0.172116 0.955950
vt 0.181156 0.984930
vt 0.172157 0.984942
vt 0.181168 0.993929
vt 0.229256 0.993862
vt 0.935482 0.002092
vt 0.942287 0.002123
vt 0.941528 0.168891
vt 0.934722 0.168860
vt 0.949093 0.002153
vt 0.948334 0.168921
vt 0.955899 0.002184
vt 0.955140 0.168952
vt 0.962704 0.002214
vt 0.961946 0.168982
vt 0.969509 0.002245
vt 0.968752 0.169013
vt 0.976315 0.002275
vt 0.975558 0.169043
vt 0.983121 0.002306
vt 0.982364 0.169074
vt 0.989926 0.002337
vt 0.989169 0.169105
vt 0.996731 0.002367
vt 0.995974 0.169135
vt 0.915066 0.002000
vt 0.921871 0.002031
vt 0.921111 0.168799
vt 0.914306 0.168768
vt 0.928677 0.002062
vt 0.927917 0.168830
vt 0.017346 0.612972
vt 0.074006 0.283466
vt 0.018960 0.283098
vt 0.002000 0.269139
vt 0.079856 0.271931
vt 0.004160 0.004024
vt 0.556284 0.472744
vt 0.555371 0.398632
vt 0.347099 0.615478
vt 0.429396 0.614544
vt 0.553399 0.002000
vt 0.325732 0.611324
vt 0.229151 0.917881
vt 0.181063 0.917947
vt 0.181103 0.946939
vt 0.229191 0.946872
vt 0.238243 0.984850
vt 0.238202 0.955859
vt 0.229203 0.955872
vt 0.229243 0.984863
vt 0.181116 0.955938
vt 0.172116 0.955950
vt 0.172157 0.984942
vt 0.181156 0.984930
vt 0.181168 0.993929
vt 0.229256 0.993862
vt 0.935482 0.002092
vt 0.934722 0.168860
vt 0.941528 0.168891
vt 0.942287 0.002123
vt 0.948334 0.168921
vt 0.949093 0.002153
vt 0.955140 0.168952
vt 0.955899 0.002184
vt 0.961946 0.168982
vt 0.962704 0.002214
vt 0.968752 0.169013
vt 0.969509 0.002245
vt 0.975558 0.169043
vt 0.976315 0.002275
vt 0.982364 0.169074
vt 0.983121 0.002306
vt 0.989169 0.169105
vt 0.989926 0.002337
vt 0.995974 0.169135
vt 0.996731 0.002367
vt 0.915066 0.002000
vt 0.914306 0.168768
vt 0.921111 0.168799
vt 0.921871 0.002031
vt 0.927917 0.168830
vt 0.928677 0.002062
vt 0.574075 0.002000
vt 0.726399 0.002391
vt 0.711957 0.021451
vt 0.588418 0.021135
vt 0.587573 0.350852
vt 0.711111 0.351161
vt 0.139932 0.998000
vt 0.016393 0.998000
vt 0.002000 0.979837
vt 0.154324 0.979837
vt 0.154325 0.897547
vt 0.002001 0.897547
vt 0.610968 0.926961
vt 0.610819 0.716203
vt 0.680318 0.716154
vt 0.680467 0.926911
vt 0.172116 0.633268
vt 0.324441 0.633268
vt 0.324441 0.900090
vt 0.172116 0.900090
vt 0.744190 0.002000
vt 0.896515 0.002000
vt 0.896515 0.551556
vt 0.744190 0.551556
vt 0.691159 0.360937
vt 0.607478 0.360725
vt 0.710428 0.659802
vt 0.690653 0.592795
vt 0.586889 0.659503
vt 0.606972 0.592589
vt 0.687584 0.963703
vt 0.603903 0.963762
vt 0.574240 0.934398
vt 0.574075 0.702537
vt 0.603701 0.677652
vt 0.687382 0.677593
vt 0.717042 0.702436
vt 0.717206 0.934297
vt 0.154326 0.633269
vt 0.154325 0.707379
vt 0.123533 0.707379
vt 0.123533 0.661986
vt 0.123533 0.867769
vt 0.032793 0.867769
vt 0.002001 0.707379
vt 0.032793 0.707379
vt 0.002001 0.633268
vt 0.032794 0.661985
vt 0.469493 0.650789
vt 0.472680 0.692175
vt 0.453438 0.692796
vt 0.451905 0.653132
vt 0.469993 0.847702
vt 0.451162 0.846563
vt 0.451232 0.865811
vt 0.361269 0.865187
vt 0.361606 0.845943
vt 0.342761 0.846820
vt 0.342232 0.691270
vt 0.361463 0.692158
vt 0.345992 0.649933
vt 0.363546 0.652520
vt 0.362877 0.633268
vt 0.452840 0.633892
vt 0.744190 0.965986
vt 0.744190 0.569347
vt 0.896515 0.569347
vt 0.896515 0.965986
vt 0.376214 0.926481
vt 0.447939 0.926684
vt 0.447853 0.956707
vt 0.376129 0.956504
vt 0.376335 0.883602
vt 0.448060 0.883804
vt 0.448008 0.902246
vt 0.376283 0.902043
vt 0.481880 0.911325
vt 0.481750 0.956804
vt 0.451836 0.915103
vt 0.463439 0.911272
vt 0.447758 0.990604
vt 0.376033 0.990401
vt 0.342359 0.910930
vt 0.360801 0.910982
vt 0.372382 0.914878
vt 0.342232 0.956409
vt 0.447973 0.914465
vt 0.376248 0.914262
vt 0.992525 0.575089
vt 0.992525 0.636175
vt 0.986783 0.636175
vt 0.986783 0.575089
vt 0.986784 0.641917
vt 0.920047 0.641917
vt 0.920047 0.636175
vt 0.914306 0.636175
vt 0.914306 0.575089
vt 0.920048 0.575089
vt 0.920047 0.569347
vt 0.986784 0.569347
vn -1.0000 0.0000 0.0000
vn -0.0005 0.6075 -0.7944
vn 0.0000 0.6071 -0.7946
vn -0.0010 0.6071 -0.7946
vn -0.0007 0.6077 -0.7942
vn 0.0000 1.0000 0.0000
vn 0.0000 0.0000 -1.0000
vn 0.0000 -1.0000 0.0000
vn 1.0000 0.0000 0.0000
vn 0.0000 -0.0000 1.0000
vn 0.8660 0.5000 -0.0000
vn 0.5000 0.8660 -0.0000
vn -0.5000 0.8660 -0.0000
vn -0.8660 0.5000 0.0000
vn -0.8660 -0.5000 0.0000
vn -0.5000 -0.8660 -0.0000
vn 0.5000 -0.8660 0.0000
vn 0.8660 -0.5000 -0.0000
vn 0.0016 0.6071 -0.7946
vn 0.0000 0.6081 -0.7938
vn 0.0000 0.2014 0.9795
vn 0.9812 0.1930 0.0000
vn 0.0000 0.3551 -0.9348
vn -0.9812 0.1930 0.0000
vn -0.0000 0.6756 0.7373
vn 0.0000 -0.7373 0.6756
vn 0.0000 0.6819 0.7314
vn 0.0000 -0.0344 0.9994
vn -0.0000 0.9871 0.1602
vn 0.0000 0.1602 0.9871
vn 0.0000 0.9487 0.3162
vn 0.0000 0.3162 0.9487
usemtl Default_OBJ
s 1
f 1/1/1 2/2/1 3/3/1
f 4/4/1 5/5/1 6/6/1
f 7/7/1 8/8/1 9/9/1
f 9/9/1 10/10/1 7/7/1
f 11/11/1 10/10/1 6/6/1
f 6/6/1 5/5/1 11/11/1
f 6/6/1 10/10/1 9/9/1
f 12/12/2 3/3/3 6/6/4
f 6/6/4 9/9/5 12/12/2
f 3/3/6 2/2/6 4/4/6
f 4/4/6 6/6/6 3/3/6
f 3/3/1 12/12/1 1/1/1
f 13/13/7 14/14/7 15/15/7
f 15/15/7 16/16/7 13/13/7
f 13/17/8 17/18/8 18/19/8
f 18/19/8 14/20/8 13/17/8
f 14/14/1 18/19/1 19/21/1
f 19/21/1 15/15/1 14/14/1
f 15/22/6 19/21/6 20/23/6
f 20/23/6 16/24/6 15/22/6
f 16/25/9 20/23/9 17/18/9
f 17/18/9 13/26/9 16/25/9
f 19/21/10 18/19/10 17/18/10
f 17/18/10 20/23/10 19/21/10
f 21/27/9 22/28/11 23/29/11
f 23/29/11 24/30/9 21/27/9
f 22/28/11 25/31/12 26/32/12
f 26/32/12 23/29/11 22/28/11
f 25/31/12 27/33/6 28/34/6
f 28/34/6 26/32/12 25/31/12
f 27/33/6 29/35/13 30/36/13
f 30/36/13 28/34/6 27/33/6
f 29/35/13 31/37/14 32/38/14
f 32/38/14 30/36/13 29/35/13
f 31/37/14 33/39/1 34/40/1
f 34/40/1 32/38/14 31/37/14
f 33/39/1 35/41/15 36/42/15
f 36/42/15 34/40/1 33/39/1
f 35/41/15 37/43/16 38/44/16
f 38/44/16 36/42/15 35/41/15
f 37/43/16 39/45/8 40/46/8
f 40/46/8 38/44/16 37/43/16
f 39/47/8 41/48/17 42/49/17
f 42/49/17 40/50/8 39/47/8
f 41/48/17 43/51/18 44/52/18
f 44/52/18 42/49/17 41/48/17
f 43/51/18 21/27/9 24/30/9
f 24/30/9 44/52/18 43/51/18
f 45/53/9 46/54/9 47/55/9
f 48/56/9 49/57/9 50/58/9
f 51/59/9 52/60/9 53/61/9
f 53/61/9 54/62/9 51/59/9
f 55/63/9 50/58/9 49/57/9
f 49/57/9 52/60/9 55/63/9
f 49/57/9 53/61/9 52/60/9
f 56/64/19 53/61/19 49/57/3
f 49/57/3 46/54/3 56/64/19
f 46/54/6 49/57/6 48/56/6
f 48/56/6 47/55/6 46/54/6
f 46/54/9 45/53/9 56/64/9
f 57/65/7 58/66/7 59/67/7
f 59/67/7 60/68/7 57/65/7
f 57/69/8 60/70/8 61/71/8
f 61/71/8 62/72/8 57/69/8
f 60/68/9 59/67/9 63/73/9
f 63/73/9 61/71/9 60/68/9
f 59/74/6 58/75/6 64/76/6
f 64/76/6 63/73/6 59/74/6
f 58/77/1 57/78/1 62/72/1
f 62/72/1 64/76/1 58/77/1
f 63/73/10 64/76/10 62/72/10
f 62/72/10 61/71/10 63/73/10
f 65/79/1 66/80/1 67/81/14
f 67/81/14 68/82/14 65/79/1
f 68/82/14 67/81/14 69/83/13
f 69/83/13 70/84/13 68/82/14
f 70/84/13 69/83/13 71/85/6
f 71/85/6 72/86/6 70/84/13
f 72/86/6 71/85/6 73/87/12
f 73/87/12 74/88/12 72/86/6
f 74/88/12 73/87/12 75/89/11
f 75/89/11 76/90/11 74/88/12
f 76/90/11 75/89/11 77/91/9
f 77/91/9 78/92/9 76/90/11
f 78/92/9 77/91/9 79/93/18
f 79/93/18 80/94/18 78/92/9
f 80/94/18 79/93/18 81/95/17
f 81/95/17 82/96/17 80/94/18
f 82/96/17 81/95/17 83/97/8
f 83/97/8 84/98/8 82/96/17
f 84/99/8 83/100/8 85/101/16
f 85/101/16 86/102/16 84/99/8
f 86/102/16 85/101/16 87/103/15
f 87/103/15 88/104/15 86/102/16
f 88/104/15 87/103/15 66/80/1
f 66/80/1 65/79/1 88/104/15
f 89/105/6 4/106/6 2/107/6
f 2/107/6 90/108/6 89/105/6
f 91/109/7 90/108/7 2/107/7
f 2/107/7 1/110/7 91/109/7
f 92/111/20 12/112/2 9/113/5
f 9/113/20 93/114/20 92/111/20
f 94/115/6 93/114/6 9/113/6
f 9/113/6 8/116/6 94/115/6
f 95/117/6 96/118/6 97/119/6
f 97/119/6 98/120/6 95/117/6
f 99/121/7 5/122/7 4/123/7
f 4/123/7 89/124/7 99/121/7
f 100/125/8 11/126/8 5/127/8
f 5/127/8 99/128/8 100/125/8
f 91/109/6 1/110/6 101/129/6
f 101/129/6 102/130/6 91/109/6
f 1/110/6 12/131/6 103/132/6
f 103/132/6 101/129/6 1/110/6
f 12/131/6 92/133/6 104/134/6
f 104/134/6 103/132/6 12/131/6
f 92/133/6 91/109/6 102/130/6
f 102/130/6 104/134/6 92/133/6
f 102/135/21 101/136/21 95/117/21
f 95/117/21 98/120/21 102/135/21
f 101/137/22 103/138/22 96/118/22
f 96/118/22 95/117/22 101/137/22
f 103/139/23 104/140/23 97/119/23
f 97/119/23 96/118/23 103/139/23
f 104/141/24 102/142/24 98/120/24
f 98/120/24 97/119/24 104/141/24
f 105/143/10 106/144/10 107/145/10
f 107/145/10 108/146/10 105/143/10
f 106/144/25 94/115/25 109/147/25
f 109/147/25 107/145/25 106/144/25
f 94/115/25 8/116/25 110/148/25
f 110/148/25 109/147/25 94/115/25
f 8/116/25 7/149/25 111/150/25
f 111/150/25 110/148/25 8/116/25
f 7/149/10 10/151/10 112/152/10
f 112/152/10 111/150/10 7/149/10
f 10/151/10 105/143/10 108/146/10
f 108/146/10 112/152/10 10/151/10
f 108/153/1 107/154/1 113/155/1
f 113/155/1 114/156/1 108/153/1
f 107/154/1 109/157/1 115/158/1
f 115/158/1 113/155/1 107/154/1
f 109/159/26 110/160/26 116/161/26
f 116/161/26 115/158/26 109/159/26
f 110/162/9 111/163/9 117/164/9
f 117/164/9 116/161/9 110/162/9
f 111/163/9 112/165/9 118/166/9
f 118/166/9 117/164/9 111/163/9
f 112/167/6 108/168/6 114/156/6
f 114/156/6 118/166/6 112/167/6
f 115/158/27 116/161/27 117/164/27
f 117/164/27 113/155/27 115/158/27
f 118/166/28 114/156/28 113/155/28
f 113/155/28 117/164/28 118/166/28
f 10/169/10 11/170/10 100/171/10
f 100/171/10 105/172/10 10/169/10
f 119/173/29 120/174/29 121/175/6
f 121/175/6 122/176/6 119/173/29
f 123/177/10 124/178/10 125/179/30
f 125/179/30 126/180/30 123/177/10
f 124/181/9 127/182/9 121/175/9
f 121/175/9 120/174/9 128/183/9
f 121/175/9 128/183/9 125/184/9
f 124/181/9 121/175/9 125/184/9
f 127/185/7 129/186/7 122/176/7
f 122/176/7 121/175/7 127/185/7
f 123/187/1 126/188/1 130/189/1
f 123/187/1 130/189/1 119/173/1
f 129/190/1 123/187/1 119/173/1
f 129/190/1 119/173/1 122/176/1
f 128/191/31 120/174/29 119/173/29
f 119/173/29 130/192/31 128/191/31
f 125/179/30 128/191/32 130/192/32
f 130/192/32 126/180/30 125/179/30
f 131/193/9 132/194/9 133/195/9
f 133/195/9 134/196/9 131/193/9
f 132/197/6 135/198/6 136/199/6
f 136/199/6 133/195/6 132/197/6
f 135/200/1 137/201/1 138/202/1
f 138/202/1 136/199/1 135/200/1
f 138/202/8 137/203/8 131/204/8
f 131/204/8 134/196/8 138/202/8
f 136/199/10 138/202/10 134/196/10
f 134/196/10 133/195/10 136/199/10
