# Blender v2.83.0 OBJ File: ''
# www.blender.org
mtllib barrel_1.mtl
v 0.279161 0.994630 -0.101606
v 0.297077 0.994630 0.000000
v 0.297077 0.707693 0.000000
v 0.279161 0.707693 -0.101606
v 0.227574 0.994630 -0.190957
v 0.227574 0.707693 -0.190957
v 0.148538 0.994630 -0.257276
v 0.148538 0.707693 -0.257276
v 0.051586 0.994630 -0.292563
v 0.051586 0.707693 -0.292563
v -0.051586 0.994630 -0.292563
v -0.051586 0.707693 -0.292563
v -0.148538 0.994630 -0.257276
v -0.148538 0.707693 -0.257276
v -0.227574 0.994630 -0.190957
v -0.227574 0.707693 -0.190957
v -0.279161 0.994630 -0.101606
v -0.279161 0.707693 -0.101606
v -0.297077 0.994630 0.000000
v -0.297077 0.707693 0.000000
v -0.279161 0.994630 0.101606
v -0.279161 0.707693 0.101606
v -0.227574 0.994630 0.190957
v -0.227574 0.707693 0.190957
v -0.148538 0.994630 0.257276
v -0.148538 0.707693 0.257276
v -0.051586 0.994630 0.292563
v -0.051586 0.707693 0.292563
v 0.051586 0.994630 0.292563
v 0.051586 0.707693 0.292563
v 0.148538 0.994630 0.257276
v 0.148538 0.707693 0.257276
v 0.227574 0.994630 0.190957
v 0.227574 0.707693 0.190957
v 0.279161 0.994630 0.101606
v 0.279161 0.707693 0.101606
v 0.287343 0.689988 -0.104584
v 0.305783 0.689988 0.000000
v 0.305783 0.670558 0.000000
v 0.287343 0.670558 -0.104584
v 0.234243 0.670558 -0.196554
v 0.234243 0.689988 -0.196554
v 0.152891 0.670558 -0.264816
v 0.152891 0.689988 -0.264816
v 0.053098 0.670558 -0.301138
v 0.053098 0.689988 -0.301138
v -0.053098 0.670558 -0.301138
v -0.053098 0.689988 -0.301138
v -0.152891 0.670558 -0.264816
v -0.152891 0.689988 -0.264816
v -0.234243 0.670558 -0.196554
v -0.234243 0.689988 -0.196554
v -0.287343 0.670558 -0.104584
v -0.287343 0.689988 -0.104584
v -0.305783 0.670558 0.000000
v -0.305783 0.689988 0.000000
v -0.287343 0.670558 0.104584
v -0.287343 0.689988 0.104584
v -0.234244 0.670558 0.196554
v -0.234243 0.689988 0.196554
v -0.152891 0.670558 0.264816
v -0.152891 0.689988 0.264816
v -0.053099 0.670558 0.301138
v -0.053099 0.689988 0.301138
v 0.053098 0.670558 0.301138
v 0.053098 0.689988 0.301138
v 0.152891 0.670558 0.264816
v 0.152891 0.689988 0.264816
v 0.234243 0.670558 0.196554
v 0.234243 0.689988 0.196554
v 0.287343 0.670558 0.104584
v 0.287343 0.689988 0.104584
v 0.274680 1.022044 -0.099975
v 0.292309 1.022044 0.000000
v 0.302663 1.001361 0.000000
v 0.284410 1.001361 -0.103517
v 0.223922 1.022044 -0.187892
v 0.231853 1.001361 -0.194548
v 0.146155 1.022044 -0.253146
v 0.151331 1.001361 -0.262114
v 0.050759 1.022044 -0.287869
v 0.052557 1.001361 -0.298065
v -0.050759 1.022044 -0.287869
v -0.052557 1.001361 -0.298065
v -0.146154 1.022044 -0.253146
v -0.151331 1.001361 -0.262114
v -0.223921 1.022044 -0.187892
v -0.231853 1.001361 -0.194548
v -0.274681 1.022044 -0.099975
v -0.284410 1.001361 -0.103517
v -0.292309 1.022044 0.000000
v -0.302663 1.001361 0.000000
v -0.274681 1.022044 0.099976
v -0.284410 1.001361 0.103517
v -0.223921 1.022044 0.187892
v -0.231853 1.001361 0.194548
v -0.146155 1.022044 0.253147
v -0.151331 1.001361 0.262114
v -0.050759 1.022044 0.287869
v -0.052557 1.001361 0.298065
v 0.050759 1.022044 0.287869
v 0.052557 1.001361 0.298065
v 0.146155 1.022044 0.253147
v 0.151331 1.001361 0.262114
v 0.223922 1.022044 0.187894
v 0.231853 1.001361 0.194548
v 0.274680 1.022044 0.099976
v 0.284410 1.001361 0.103517
v 0.265819 1.023085 -0.096750
v 0.282878 1.023085 0.000000
v 0.216697 1.023085 -0.181830
v 0.141439 1.023085 -0.244979
v 0.049121 1.023085 -0.278580
v -0.049121 1.023085 -0.278580
v -0.141439 1.023085 -0.244979
v -0.216697 1.023085 -0.181830
v -0.265819 1.023085 -0.096750
v -0.282878 1.023085 0.000000
v -0.265819 1.023085 0.096750
v -0.216697 1.023085 0.181831
v -0.141439 1.023085 0.244979
v -0.049121 1.023085 0.278580
v 0.049121 1.023085 0.278580
v 0.141439 1.023085 0.244979
v 0.216697 1.023085 0.181831
v 0.265819 1.023085 0.096750
v 0.266184 1.004393 -0.096884
v 0.283268 1.004393 0.000000
v 0.216996 1.004393 -0.182081
v 0.141633 1.004393 -0.245318
v 0.049188 1.004393 -0.278964
v -0.049188 1.004393 -0.278964
v -0.141633 1.004393 -0.245318
v -0.216996 1.004393 -0.182081
v -0.266184 1.004393 -0.096884
v -0.283268 1.004393 0.000000
v -0.266184 1.004393 0.096884
v -0.216996 1.004393 0.182081
v -0.141633 1.004393 0.245318
v -0.049190 1.004393 0.278965
v 0.049188 1.004393 0.278965
v 0.141633 1.004393 0.245318
v 0.216996 1.004393 0.182081
v 0.266184 1.004393 0.096884
v 0.279161 0.652853 -0.101606
v 0.279161 0.367556 -0.101606
v 0.227574 0.367556 -0.190957
v 0.227574 0.652853 -0.190957
v 0.148538 0.367556 -0.257276
v 0.148538 0.652853 -0.257276
v 0.051586 0.367556 -0.292563
v 0.051586 0.652853 -0.292563
v -0.051586 0.367556 -0.292563
v -0.051586 0.652853 -0.292563
v -0.148538 0.367556 -0.257276
v -0.148538 0.652853 -0.257276
v -0.227574 0.652853 -0.190957
v -0.227574 0.367556 -0.190957
v -0.279161 0.367556 -0.101606
v -0.279161 0.652853 -0.101606
v -0.297077 0.367556 0.000000
v -0.297077 0.652853 0.000000
v -0.279161 0.367556 0.101606
v -0.279161 0.652853 0.101606
v -0.227574 0.367556 0.190957
v -0.227574 0.652853 0.190957
v -0.148538 0.367556 0.257276
v -0.148538 0.652853 0.257276
v -0.051586 0.367556 0.292563
v -0.051586 0.652853 0.292563
v 0.051586 0.367556 0.292563
v 0.051586 0.652853 0.292563
v 0.148538 0.367556 0.257276
v 0.148538 0.652853 0.257276
v 0.227574 0.652853 0.190957
v 0.227574 0.367556 0.190957
v 0.279161 0.367556 0.101606
v 0.279161 0.652853 0.101606
v 0.297077 0.367556 0.000000
v 0.297077 0.652853 0.000000
v 0.297077 0.312717 0.000000
v 0.297077 0.025780 0.000000
v 0.279161 0.025781 -0.101606
v 0.279161 0.312717 -0.101606
v 0.227574 0.025781 -0.190957
v 0.227574 0.312717 -0.190957
v 0.148538 0.025781 -0.257276
v 0.148538 0.312717 -0.257276
v 0.051586 0.025781 -0.292563
v 0.051586 0.312717 -0.292563
v -0.051586 0.025781 -0.292563
v -0.051586 0.312717 -0.292563
v -0.148538 0.025781 -0.257276
v -0.148538 0.312717 -0.257276
v -0.227574 0.025781 -0.190957
v -0.227574 0.312717 -0.190957
v -0.279161 0.025781 -0.101606
v -0.279161 0.312717 -0.101606
v -0.297077 0.025780 0.000000
v -0.297077 0.312717 0.000000
v -0.279161 0.025780 0.101606
v -0.279161 0.312717 0.101606
v -0.227574 0.025780 0.190957
v -0.227574 0.312717 0.190957
v -0.148538 0.025780 0.257276
v -0.148538 0.312717 0.257276
v -0.051586 0.025780 0.292563
v -0.051586 0.312717 0.292563
v 0.051586 0.025780 0.292563
v 0.051586 0.312717 0.292563
v 0.148538 0.025780 0.257276
v 0.148538 0.312717 0.257276
v 0.227574 0.025780 0.190957
v 0.227574 0.312717 0.190957
v 0.279161 0.025780 0.101606
v 0.279161 0.312717 0.101606
v 0.287343 0.349851 -0.104584
v 0.305783 0.349851 0.000000
v 0.305783 0.330422 0.000000
v 0.287343 0.330423 -0.104584
v 0.234243 0.349851 -0.196554
v 0.234243 0.330423 -0.196554
v 0.152891 0.349851 -0.264816
v 0.152891 0.330423 -0.264816
v 0.053098 0.349851 -0.301138
v 0.053098 0.330423 -0.301138
v -0.053098 0.349851 -0.301138
v -0.053098 0.330423 -0.301138
v -0.152891 0.349851 -0.264816
v -0.152891 0.330423 -0.264816
v -0.234243 0.349851 -0.196554
v -0.234243 0.330423 -0.196554
v -0.287343 0.349851 -0.104584
v -0.287343 0.330423 -0.104584
v -0.305783 0.349851 0.000000
v -0.305783 0.330422 0.000000
v -0.287343 0.349851 0.104584
v -0.287343 0.330422 0.104584
v -0.234244 0.349851 0.196554
v -0.234243 0.330422 0.196554
v -0.152891 0.349851 0.264816
v -0.152891 0.330422 0.264816
v -0.053099 0.349851 0.301138
v -0.053099 0.330422 0.301138
v 0.053098 0.349851 0.301138
v 0.053098 0.330422 0.301138
v 0.152891 0.349851 0.264816
v 0.152891 0.330422 0.264816
v 0.234243 0.349851 0.196554
v 0.234243 0.330422 0.196554
v 0.287343 0.330422 0.104584
v 0.287343 0.349851 0.104584
v 0.284410 0.019048 -0.103517
v 0.302663 0.019048 0.000000
v 0.292309 -0.001634 -0.000000
v 0.274680 -0.001634 -0.099975
v 0.231853 0.019048 -0.194548
v 0.223922 -0.001634 -0.187892
v 0.151331 0.019048 -0.262114
v 0.146155 -0.001633 -0.253147
v 0.052557 0.019048 -0.298065
v 0.050759 -0.001633 -0.287869
v -0.052557 0.019048 -0.298065
v -0.050759 -0.001633 -0.287869
v -0.151331 0.019048 -0.262114
v -0.146154 -0.001633 -0.253147
v -0.231853 0.019048 -0.194548
v -0.223921 -0.001634 -0.187892
v -0.284410 0.019048 -0.103517
v -0.274681 -0.001634 -0.099975
v -0.302663 0.019048 0.000000
v -0.292309 -0.001634 -0.000000
v -0.284410 0.019048 0.103517
v -0.274681 -0.001634 0.099975
v -0.231853 0.019048 0.194548
v -0.223921 -0.001634 0.187892
v -0.151331 0.019048 0.262114
v -0.146155 -0.001634 0.253147
v -0.052557 0.019048 0.298065
v -0.050759 -0.001634 0.287869
v 0.052557 0.019048 0.298065
v 0.050759 -0.001634 0.287869
v 0.151331 0.019048 0.262114
v 0.146155 -0.001634 0.253147
v 0.231853 0.019048 0.194548
v 0.223922 -0.001634 0.187893
v 0.284410 0.019048 0.103517
v 0.274680 -0.001634 0.099975
v 0.282878 -0.002675 -0.000000
v 0.265819 -0.002675 -0.096750
v 0.216697 -0.002675 -0.181831
v 0.141439 -0.002675 -0.244979
v 0.049121 -0.002675 -0.278580
v -0.049121 -0.002675 -0.278580
v -0.141439 -0.002675 -0.244979
v -0.216697 -0.002675 -0.181831
v -0.265819 -0.002675 -0.096750
v -0.282878 -0.002675 -0.000000
v -0.265819 -0.002675 0.096750
v -0.216697 -0.002675 0.181831
v -0.141439 -0.002675 0.244979
v -0.049121 -0.002675 0.278580
v 0.049121 -0.002675 0.278580
v 0.141439 -0.002675 0.244979
v 0.216697 -0.002675 0.181831
v 0.265819 -0.002675 0.096750
v 0.283268 0.016015 0.000000
v 0.266184 0.016015 -0.096884
v 0.216996 0.016015 -0.182081
v 0.141633 0.016015 -0.245318
v 0.049188 0.016015 -0.278965
v -0.049188 0.016015 -0.278965
v -0.141633 0.016015 -0.245318
v -0.216996 0.016015 -0.182081
v -0.266184 0.016015 -0.096884
v -0.283268 0.016015 0.000000
v -0.266184 0.016015 0.096884
v -0.216996 0.016015 0.182081
v -0.141633 0.016015 0.245318
v -0.049190 0.016015 0.278965
v 0.049188 0.016015 0.278965
v 0.141633 0.016015 0.245318
v 0.216996 0.016015 0.182081
v 0.266184 0.016015 0.096884
vt 0.077500 0.953700
vt 0.126500 0.801800
vt 0.126500 0.953700
vt 0.175200 0.801800
vt 0.175200 0.953700
vt 0.223400 0.801800
vt 0.223400 0.953700
vt 0.271100 0.801800
vt 0.271100 0.953700
vt 0.318700 0.801800
vt 0.318700 0.953700
vt 0.366500 0.801800
vt 0.366500 0.953700
vt 0.414600 0.801800
vt 0.414600 0.953700
vt 0.463300 0.801800
vt 0.463300 0.953700
vt 0.512300 0.801800
vt 0.512300 0.953700
vt 0.561300 0.801800
vt 0.561300 0.953700
vt 0.610000 0.801800
vt 0.610000 0.953700
vt 0.658100 0.801800
vt 0.658100 0.953700
vt 0.705900 0.801800
vt 0.705900 0.953700
vt 0.753500 0.801800
vt 0.753500 0.953700
vt 0.801200 0.801800
vt 0.801200 0.953700
vt 0.849400 0.801800
vt 0.849400 0.953700
vt 0.898100 0.801800
vt 0.898100 0.953700
vt 0.947100 0.801800
vt 0.947100 0.953700
vt 0.077500 0.792400
vt 0.126500 0.782100
vt 0.126500 0.792400
vt 0.175200 0.792400
vt 0.175200 0.782100
vt 0.223400 0.792400
vt 0.223400 0.782100
vt 0.271100 0.792400
vt 0.271100 0.782100
vt 0.318700 0.792400
vt 0.318700 0.782100
vt 0.366500 0.792400
vt 0.366500 0.782100
vt 0.414600 0.792400
vt 0.414600 0.782100
vt 0.463300 0.792400
vt 0.463300 0.782100
vt 0.512300 0.792400
vt 0.512300 0.782100
vt 0.561300 0.792400
vt 0.561300 0.782100
vt 0.610000 0.782100
vt 0.658100 0.782100
vt 0.610000 0.792400
vt 0.705900 0.792400
vt 0.705900 0.782100
vt 0.753500 0.792400
vt 0.753500 0.782100
vt 0.801200 0.792400
vt 0.801200 0.782100
vt 0.849400 0.792400
vt 0.849400 0.782100
vt 0.898100 0.792400
vt 0.898100 0.782100
vt 0.947100 0.792400
vt 0.947100 0.782100
vt 0.126500 0.968200
vt 0.077500 0.957300
vt 0.126500 0.957300
vt 0.175200 0.968200
vt 0.175200 0.957300
vt 0.223400 0.968200
vt 0.223400 0.957300
vt 0.271100 0.968200
vt 0.271100 0.957300
vt 0.318700 0.957300
vt 0.318700 0.968200
vt 0.366500 0.968200
vt 0.366500 0.957300
vt 0.414600 0.968200
vt 0.414600 0.957300
vt 0.463300 0.957300
vt 0.463300 0.968200
vt 0.512300 0.957300
vt 0.512300 0.968200
vt 0.561300 0.968200
vt 0.561300 0.957300
vt 0.610000 0.968200
vt 0.610000 0.957300
vt 0.658100 0.968200
vt 0.658100 0.957300
vt 0.705900 0.968200
vt 0.705900 0.957300
vt 0.753500 0.957300
vt 0.753500 0.968200
vt 0.801200 0.957300
vt 0.801200 0.968200
vt 0.849400 0.957300
vt 0.849400 0.968200
vt 0.898100 0.968200
vt 0.898100 0.957300
vt 0.947100 0.957300
vt 0.947100 0.968200
vt 0.126500 0.971500
vt 0.077500 0.968200
vt 0.175200 0.971500
vt 0.271100 0.971500
vt 0.318700 0.971500
vt 0.366500 0.971500
vt 0.463300 0.971500
vt 0.512300 0.971500
vt 0.561300 0.971500
vt 0.610000 0.971500
vt 0.705900 0.971500
vt 0.753500 0.971500
vt 0.849400 0.971500
vt 0.898100 0.971500
vt 0.077500 0.982800
vt 0.077500 0.971500
vt 0.126500 0.982800
vt 0.223400 0.971500
vt 0.175200 0.982800
vt 0.223400 0.982800
vt 0.318700 0.982800
vt 0.366500 0.982800
vt 0.414600 0.982800
vt 0.414600 0.971500
vt 0.463300 0.982800
vt 0.512300 0.982800
vt 0.561300 0.982800
vt 0.658100 0.971500
vt 0.610000 0.982800
vt 0.658100 0.982800
vt 0.753500 0.982800
vt 0.801200 0.982800
vt 0.801200 0.971500
vt 0.849400 0.982800
vt 0.898100 0.982800
vt 0.947100 0.982800
vt 0.947100 0.971500
vt 0.187900 0.132600
vt 0.187900 0.241300
vt 0.178500 0.186900
vt 0.256700 0.324500
vt 0.215100 0.289100
vt 0.215100 0.084800
vt 0.307800 0.343400
vt 0.307800 0.030400
vt 0.256700 0.049300
vt 0.362100 0.030400
vt 0.362100 0.343400
vt 0.454800 0.289100
vt 0.413200 0.324500
vt 0.413200 0.049300
vt 0.482000 0.241300
vt 0.482000 0.132600
vt 0.454800 0.084800
vt 0.126500 0.621700
vt 0.175200 0.772800
vt 0.126500 0.772800
vt 0.175200 0.621700
vt 0.223400 0.772800
vt 0.223400 0.621700
vt 0.271100 0.772800
vt 0.271100 0.621700
vt 0.318700 0.772800
vt 0.318700 0.621700
vt 0.366500 0.772800
vt 0.414600 0.621700
vt 0.463300 0.772800
vt 0.414600 0.772800
vt 0.463300 0.621700
vt 0.512300 0.772800
vt 0.512300 0.621700
vt 0.561300 0.772800
vt 0.561300 0.621700
vt 0.610000 0.772800
vt 0.610000 0.621700
vt 0.658100 0.772800
vt 0.658100 0.621700
vt 0.705900 0.772800
vt 0.705900 0.621700
vt 0.753500 0.772800
vt 0.753500 0.621700
vt 0.801200 0.772800
vt 0.849400 0.621700
vt 0.898100 0.772800
vt 0.849400 0.772800
vt 0.898100 0.621700
vt 0.947100 0.772800
vt 0.801200 0.621700
vt 0.077500 0.440700
vt 0.126500 0.592700
vt 0.077500 0.592700
vt 0.126500 0.440700
vt 0.175200 0.592700
vt 0.175200 0.440700
vt 0.223400 0.592700
vt 0.223400 0.440700
vt 0.271100 0.592700
vt 0.271100 0.440700
vt 0.318700 0.592700
vt 0.318700 0.440700
vt 0.366500 0.592700
vt 0.366500 0.440700
vt 0.414600 0.592700
vt 0.414600 0.440700
vt 0.463300 0.592700
vt 0.463300 0.440700
vt 0.512300 0.592700
vt 0.512300 0.440700
vt 0.561300 0.592700
vt 0.561300 0.440700
vt 0.610000 0.592700
vt 0.610000 0.440700
vt 0.658100 0.592700
vt 0.658100 0.440700
vt 0.705900 0.592700
vt 0.705900 0.440700
vt 0.753500 0.592700
vt 0.753500 0.440700
vt 0.801200 0.592700
vt 0.801200 0.440700
vt 0.849400 0.592700
vt 0.849400 0.440700
vt 0.898100 0.592700
vt 0.947100 0.440700
vt 0.947100 0.592700
vt 0.077500 0.612300
vt 0.126500 0.602000
vt 0.126500 0.612300
vt 0.175200 0.602000
vt 0.175200 0.612300
vt 0.223400 0.602000
vt 0.223400 0.612300
vt 0.271100 0.602000
vt 0.271100 0.612300
vt 0.318700 0.602000
vt 0.318700 0.612300
vt 0.366500 0.602000
vt 0.366500 0.612300
vt 0.414600 0.602000
vt 0.414600 0.612300
vt 0.463300 0.602000
vt 0.463300 0.612300
vt 0.512300 0.602000
vt 0.512300 0.612300
vt 0.561300 0.602000
vt 0.561300 0.612300
vt 0.610000 0.612300
vt 0.610000 0.602000
vt 0.658100 0.612300
vt 0.658100 0.602000
vt 0.705900 0.602000
vt 0.705900 0.612300
vt 0.753500 0.602000
vt 0.753500 0.612300
vt 0.801200 0.602000
vt 0.801200 0.612300
vt 0.849400 0.602000
vt 0.849400 0.612300
vt 0.898100 0.612300
vt 0.947100 0.602000
vt 0.947100 0.612300
vt 0.077500 0.437200
vt 0.126500 0.426200
vt 0.126500 0.437200
vt 0.175200 0.426200
vt 0.175200 0.437200
vt 0.223400 0.426200
vt 0.223400 0.437200
vt 0.271100 0.426200
vt 0.271100 0.437200
vt 0.318700 0.426200
vt 0.318700 0.437200
vt 0.366500 0.426200
vt 0.366500 0.437200
vt 0.414600 0.426200
vt 0.414600 0.437200
vt 0.463300 0.437200
vt 0.463300 0.426200
vt 0.512300 0.437200
vt 0.512300 0.426200
vt 0.561300 0.426200
vt 0.561300 0.437200
vt 0.610000 0.426200
vt 0.610000 0.437200
vt 0.658100 0.426200
vt 0.658100 0.437200
vt 0.705900 0.426200
vt 0.705900 0.437200
vt 0.753500 0.426200
vt 0.753500 0.437200
vt 0.801200 0.437200
vt 0.801200 0.426200
vt 0.849400 0.437200
vt 0.849400 0.426200
vt 0.898100 0.426200
vt 0.898100 0.437200
vt 0.947100 0.437200
vt 0.947100 0.426200
vt 0.126500 0.423000
vt 0.077500 0.426200
vt 0.077500 0.423000
vt 0.175200 0.423000
vt 0.271100 0.423000
vt 0.223400 0.423000
vt 0.318700 0.423000
vt 0.366500 0.423000
vt 0.463300 0.423000
vt 0.414600 0.423000
vt 0.512300 0.423000
vt 0.561300 0.423000
vt 0.610000 0.423000
vt 0.705900 0.423000
vt 0.658100 0.423000
vt 0.753500 0.423000
vt 0.849400 0.423000
vt 0.801200 0.423000
vt 0.898100 0.423000
vt 0.077500 0.411600
vt 0.126500 0.411600
vt 0.175200 0.411600
vt 0.223400 0.411600
vt 0.318700 0.411600
vt 0.271100 0.411600
vt 0.366500 0.411600
vt 0.414600 0.411600
vt 0.463300 0.411600
vt 0.512300 0.411600
vt 0.561300 0.411600
vt 0.610000 0.411600
vt 0.658100 0.411600
vt 0.753500 0.411600
vt 0.705900 0.411600
vt 0.801200 0.411600
vt 0.849400 0.411600
vt 0.898100 0.411600
vt 0.947100 0.411600
vt 0.727400 0.338400
vt 0.621900 0.319600
vt 0.673000 0.338400
vt 0.778400 0.319600
vt 0.580300 0.284100
vt 0.820100 0.284100
vt 0.553100 0.236300
vt 0.847200 0.236300
vt 0.543700 0.181900
vt 0.727400 0.025400
vt 0.621900 0.044300
vt 0.778400 0.044300
vt 0.820100 0.079800
vt 0.580300 0.079800
vt 0.847200 0.127600
vt 0.553100 0.127600
vt 0.898100 0.440700
vt 0.366500 0.621700
vt 0.077500 0.621700
vt 0.077500 0.772800
vt 0.077500 0.801800
vt 0.658100 0.792400
vt 0.077500 0.782100
vt 0.947100 0.621700
vt 0.077500 0.602000
vt 0.898100 0.602000
vt 0.271100 0.982800
vt 0.705900 0.982800
vt 0.491500 0.186900
vt 0.947100 0.423000
vt 0.856700 0.181900
vt 0.673000 0.025400
vn 1.0000 0.0000 0.0000
vn 0.9397 -0.0000 -0.3420
vn 0.7660 0.0000 -0.6428
vn 0.5000 0.0000 -0.8660
vn 0.1736 0.0000 -0.9848
vn -0.1736 0.0000 -0.9848
vn -0.5000 0.0000 -0.8660
vn -0.7660 0.0000 -0.6428
vn -0.9397 0.0000 -0.3420
vn -1.0000 0.0000 -0.0000
vn -0.9397 -0.0000 0.3420
vn -0.7660 -0.0000 0.6428
vn -0.5000 -0.0000 0.8660
vn -0.1736 -0.0000 0.9848
vn 0.1736 -0.0000 0.9848
vn 0.5000 -0.0000 0.8660
vn 0.7660 -0.0000 0.6428
vn 0.9397 -0.0000 0.3420
vn 0.9782 0.2077 -0.0000
vn 0.9192 -0.2078 -0.3346
vn 0.9192 0.2077 -0.3346
vn 0.7493 0.2078 -0.6288
vn 0.7493 -0.2077 -0.6288
vn 0.4891 0.2077 -0.8471
vn 0.4891 -0.2077 -0.8471
vn 0.1699 0.2077 -0.9633
vn 0.1699 -0.2077 -0.9633
vn -0.1699 0.2077 -0.9633
vn -0.1699 -0.2077 -0.9633
vn -0.4891 0.2078 -0.8471
vn -0.4891 -0.2077 -0.8471
vn -0.7493 0.2077 -0.6288
vn -0.7493 -0.2077 -0.6288
vn -0.9192 0.2077 -0.3346
vn -0.9192 -0.2077 -0.3346
vn -0.9782 0.2076 -0.0000
vn -0.9782 -0.2077 0.0000
vn -0.9192 0.2077 0.3346
vn -0.9192 -0.2077 0.3346
vn -0.7493 -0.2077 0.6288
vn -0.4891 -0.2078 0.8471
vn -0.7493 0.2077 0.6288
vn -0.1699 0.2077 0.9633
vn -0.1699 -0.2077 0.9633
vn 0.1699 0.2077 0.9633
vn 0.1699 -0.2077 0.9633
vn 0.4891 0.2078 0.8471
vn 0.4891 -0.2077 0.8471
vn 0.7493 0.2077 0.6288
vn 0.7493 -0.2077 0.6288
vn 0.9192 0.2077 0.3346
vn 0.9192 -0.2077 0.3346
vn 0.9782 -0.2076 0.0000
vn 0.5827 0.7845 -0.2121
vn 0.9945 -0.1046 0.0000
vn 0.9345 -0.1046 -0.3401
vn 0.4751 0.7845 -0.3986
vn 0.7618 -0.1046 -0.6393
vn 0.3101 0.7845 -0.5371
vn 0.4973 -0.1046 -0.8613
vn 0.1077 0.7845 -0.6107
vn 0.1727 -0.1046 -0.9794
vn -0.1727 -0.1046 -0.9794
vn -0.1077 0.7845 -0.6107
vn -0.3101 0.7845 -0.5371
vn -0.4973 -0.1046 -0.8613
vn -0.4751 0.7845 -0.3986
vn -0.7618 -0.1048 -0.6393
vn -0.9345 -0.1047 -0.3401
vn -0.5827 0.7845 -0.2121
vn -0.9945 -0.1046 0.0000
vn -0.6201 0.7845 -0.0000
vn -0.5827 0.7845 0.2121
vn -0.9345 -0.1047 0.3401
vn -0.4751 0.7845 0.3986
vn -0.7618 -0.1046 0.6393
vn -0.3101 0.7845 0.5371
vn -0.4973 -0.1046 0.8613
vn -0.1077 0.7845 0.6107
vn -0.1727 -0.1046 0.9794
vn 0.1727 -0.1046 0.9794
vn 0.1077 0.7845 0.6107
vn 0.4973 -0.1047 0.8613
vn 0.3101 0.7845 0.5371
vn 0.7618 -0.1047 0.6393
vn 0.4751 0.7845 0.3986
vn 0.5827 0.7845 0.2121
vn 0.9345 -0.1046 0.3401
vn 0.6201 0.7845 0.0000
vn 0.1110 0.9930 -0.0404
vn 0.0905 0.9930 -0.0760
vn 0.0205 0.9930 -0.1164
vn -0.0205 0.9930 -0.1164
vn -0.0591 0.9930 -0.1023
vn -0.1110 0.9930 -0.0404
vn -0.1182 0.9930 0.0000
vn -0.1110 0.9930 0.0404
vn -0.0905 0.9930 0.0760
vn -0.0205 0.9930 0.1164
vn 0.0205 0.9930 0.1164
vn 0.0905 0.9930 0.0760
vn 0.1110 0.9930 0.0404
vn -0.9395 -0.0195 0.3420
vn -0.9998 -0.0195 0.0000
vn -0.7659 -0.0193 0.6427
vn -0.9395 -0.0194 0.3420
vn -0.4999 -0.0193 0.8659
vn -0.1736 -0.0192 0.9846
vn 0.1736 -0.0194 0.9846
vn 0.1736 -0.0193 0.9846
vn 0.4999 -0.0197 0.8659
vn 0.4999 -0.0194 0.8659
vn 0.7659 -0.0194 0.6427
vn 0.7659 -0.0193 0.6427
vn 0.9395 -0.0193 0.3420
vn 0.9395 -0.0192 0.3420
vn 0.9998 -0.0194 -0.0000
vn 0.9998 -0.0193 -0.0000
vn 0.9395 -0.0193 -0.3420
vn 0.7659 -0.0193 -0.6427
vn 0.4999 -0.0195 -0.8659
vn 0.7659 -0.0194 -0.6427
vn 0.1736 -0.0194 -0.9846
vn 0.4999 -0.0196 -0.8659
vn -0.1736 -0.0194 -0.9846
vn -0.1736 -0.0193 -0.9846
vn -0.4999 -0.0197 -0.8659
vn -0.4999 -0.0194 -0.8659
vn -0.7659 -0.0193 -0.6427
vn -0.9395 -0.0195 -0.3420
vn -0.9395 -0.0194 -0.3420
vn 0.0000 1.0000 0.0000
vn 0.7446 -0.6101 -0.2710
vn 0.6070 -0.6101 -0.5093
vn 0.3962 -0.6101 -0.6862
vn 0.1376 -0.6101 -0.7803
vn -0.1376 -0.6101 -0.7803
vn -0.3962 -0.6101 -0.6862
vn -0.6070 -0.6101 -0.5093
vn -0.7445 -0.6102 -0.2710
vn -0.7923 -0.6101 0.0000
vn -0.7445 -0.6101 0.2710
vn -0.6070 -0.6101 0.5093
vn -0.3962 -0.6101 0.6862
vn -0.1376 -0.6101 0.7803
vn 0.1376 -0.6101 0.7803
vn 0.3962 -0.6101 0.6862
vn 0.6070 -0.6101 0.5093
vn 0.7445 -0.6101 0.2710
vn 0.7923 -0.6101 -0.0000
vn 0.9782 0.2076 -0.0000
vn 0.9192 -0.2077 -0.3346
vn 0.9192 0.2078 -0.3346
vn 0.7493 0.2077 -0.6288
vn 0.4891 -0.2078 -0.8471
vn -0.4891 0.2077 -0.8471
vn -0.9192 -0.2078 -0.3346
vn -0.9192 0.2078 -0.3346
vn -0.9782 -0.2076 -0.0000
vn -0.7493 0.2078 0.6288
vn -0.4891 0.2078 0.8471
vn -0.4891 -0.2077 0.8471
vn 0.4891 0.2077 0.8471
vn 0.7493 -0.2078 0.6288
vn 0.9192 0.2078 0.3346
vn 0.9945 0.1045 -0.0000
vn 0.5827 -0.7845 -0.2121
vn 0.9345 0.1046 -0.3401
vn 0.4751 -0.7845 -0.3986
vn 0.7618 0.1046 -0.6393
vn 0.3101 -0.7845 -0.5371
vn 0.4973 0.1046 -0.8613
vn 0.1077 -0.7845 -0.6107
vn 0.1727 0.1046 -0.9794
vn -0.1077 -0.7845 -0.6107
vn -0.1727 0.1047 -0.9794
vn -0.3101 -0.7845 -0.5371
vn -0.4973 0.1046 -0.8613
vn -0.4751 -0.7845 -0.3986
vn -0.7618 0.1046 -0.6393
vn -0.9345 0.1046 -0.3401
vn -0.5827 -0.7845 -0.2121
vn -0.9945 0.1045 -0.0000
vn -0.6201 -0.7845 -0.0000
vn -0.5827 -0.7845 0.2121
vn -0.9345 0.1046 0.3401
vn -0.4751 -0.7845 0.3986
vn -0.7618 0.1046 0.6393
vn -0.3101 -0.7845 0.5371
vn -0.4973 0.1046 0.8613
vn -0.1077 -0.7845 0.6107
vn -0.1727 0.1046 0.9794
vn 0.1077 -0.7845 0.6107
vn 0.1727 0.1046 0.9794
vn 0.4973 0.1046 0.8613
vn 0.3101 -0.7845 0.5371
vn 0.7618 0.1047 0.6393
vn 0.4751 -0.7845 0.3986
vn 0.5827 -0.7845 0.2121
vn 0.9345 0.1047 0.3401
vn 0.6201 -0.7845 -0.0000
vn 0.1110 -0.9930 -0.0404
vn 0.1182 -0.9930 -0.0000
vn 0.0905 -0.9930 -0.0760
vn 0.0205 -0.9930 -0.1164
vn 0.0591 -0.9930 -0.1023
vn -0.0205 -0.9930 -0.1164
vn -0.0591 -0.9930 -0.1023
vn -0.1110 -0.9930 -0.0404
vn -0.0905 -0.9930 -0.0760
vn -0.1182 -0.9930 0.0000
vn -0.1110 -0.9930 0.0404
vn -0.0905 -0.9930 0.0760
vn -0.0205 -0.9930 0.1164
vn -0.0591 -0.9930 0.1023
vn 0.0205 -0.9930 0.1164
vn 0.0905 -0.9930 0.0760
vn 0.0591 -0.9930 0.1023
vn 0.1109 -0.9930 0.0404
vn -0.9998 0.0195 -0.0000
vn -0.9395 0.0193 0.3420
vn -0.9395 0.0197 0.3420
vn -0.7659 0.0193 0.6427
vn -0.7659 0.0194 0.6427
vn -0.4999 0.0193 0.8659
vn -0.1736 0.0193 0.9846
vn 0.1736 0.0194 0.9846
vn 0.4999 0.0194 0.8659
vn 0.1736 0.0193 0.9846
vn 0.7659 0.0196 0.6427
vn 0.9395 0.0195 0.3420
vn 0.7659 0.0193 0.6427
vn 0.9998 0.0194 0.0000
vn 0.9395 0.0193 0.3420
vn 0.9395 0.0193 -0.3420
vn 0.9395 0.0195 -0.3420
vn 0.7659 0.0193 -0.6427
vn 0.7659 0.0196 -0.6427
vn 0.4999 0.0193 -0.8659
vn 0.1736 0.0194 -0.9846
vn -0.1736 0.0194 -0.9846
vn 0.1736 0.0193 -0.9846
vn -0.4999 0.0194 -0.8659
vn -0.1736 0.0193 -0.9846
vn -0.7659 0.0194 -0.6427
vn -0.9395 0.0197 -0.3420
vn -0.7659 0.0192 -0.6427
vn -0.9395 0.0193 -0.3420
vn 0.0000 -1.0000 -0.0000
vn 0.7446 0.6100 -0.2710
vn 0.6070 0.6100 -0.5093
vn 0.3962 0.6101 -0.6862
vn -0.1376 0.6101 -0.7803
vn -0.3962 0.6101 -0.6862
vn -0.6070 0.6100 -0.5093
vn -0.7445 0.6101 -0.2710
vn -0.7445 0.6101 0.2710
vn -0.6070 0.6100 0.5093
vn -0.3962 0.6101 0.6862
vn 0.1376 0.6101 0.7803
vn 0.3962 0.6101 0.6862
vn 0.6070 0.6100 0.5093
vn 0.7446 0.6101 0.2710
vn 0.8549 0.4151 -0.3112
vn 0.9098 0.4151 -0.0000
vn 0.6969 0.4151 -0.5848
vn 0.4549 0.4151 -0.7879
vn 0.1580 0.4151 -0.8959
vn -0.1580 0.4151 -0.8960
vn -0.4549 0.4151 -0.7879
vn -0.6969 0.4151 -0.5848
vn -0.8549 0.4151 -0.3112
vn -0.8549 0.4151 0.3112
vn -0.9098 0.4151 0.0000
vn -0.6969 0.4151 0.5848
vn -0.4549 0.4151 0.7879
vn -0.4891 0.2077 0.8471
vn -0.1580 0.4151 0.8960
vn 0.1580 0.4151 0.8960
vn 0.4549 0.4151 0.7879
vn 0.6969 0.4151 0.5848
vn 0.8549 0.4151 0.3112
vn 0.8549 -0.4151 -0.3112
vn 0.6969 -0.4151 -0.5848
vn 0.4549 -0.4151 -0.7879
vn 0.1580 -0.4151 -0.8960
vn -0.1580 -0.4151 -0.8959
vn -0.4549 -0.4151 -0.7879
vn -0.6969 -0.4151 -0.5848
vn -0.8549 -0.4151 -0.3112
vn -0.9098 -0.4151 -0.0000
vn -0.8549 -0.4151 0.3112
vn -0.6969 -0.4151 0.5848
vn -0.4549 -0.4151 0.7879
vn -0.1580 -0.4151 0.8960
vn 0.1580 -0.4151 0.8960
vn 0.4549 -0.4151 0.7879
vn 0.6969 -0.4151 0.5848
vn 0.8549 -0.4151 0.3112
vn 0.9098 -0.4151 0.0000
vn 0.1580 0.4151 -0.8960
vn -0.1580 0.4151 -0.8959
vn 0.1580 -0.4151 -0.8959
vn -0.1580 -0.4151 -0.8960
vn 0.1182 0.9930 0.0000
vn 0.0591 0.9930 -0.1023
vn -0.0905 0.9930 -0.0760
vn -0.0591 0.9930 0.1023
vn 0.0591 0.9930 0.1023
vn -0.1736 -0.0193 0.9846
vn 0.1736 -0.0193 -0.9846
vn 0.7923 0.6101 0.0000
vn 0.1376 0.6101 -0.7803
vn -0.7923 0.6101 -0.0000
vn -0.1376 0.6101 0.7803
usemtl Default_OBJ.001
s 1
f 2/1/1 4/2/2 1/3/2
f 1/3/2 6/4/3 5/5/3
f 5/5/3 8/6/4 7/7/4
f 7/7/4 10/8/5 9/9/5
f 9/9/5 12/10/6 11/11/6
f 11/11/6 14/12/7 13/13/7
f 13/13/7 16/14/8 15/15/8
f 15/15/8 18/16/9 17/17/9
f 17/17/9 20/18/10 19/19/10
f 19/19/10 22/20/11 21/21/11
f 21/21/11 24/22/12 23/23/12
f 23/23/12 26/24/13 25/25/13
f 25/25/13 28/26/14 27/27/14
f 27/27/14 30/28/15 29/29/15
f 29/29/15 32/30/16 31/31/16
f 31/31/16 34/32/17 33/33/17
f 33/33/17 36/34/18 35/35/18
f 35/35/18 3/36/1 2/37/1
f 38/38/19 40/39/20 37/40/21
f 42/41/22 40/39/20 41/42/23
f 44/43/24 41/42/23 43/44/25
f 46/45/26 43/44/25 45/46/27
f 48/47/28 45/46/27 47/48/29
f 50/49/30 47/48/29 49/50/31
f 52/51/32 49/50/31 51/52/33
f 54/53/34 51/52/33 53/54/35
f 56/55/36 53/54/35 55/56/37
f 58/57/38 55/56/37 57/58/39
f 59/59/40 58/57/38 57/58/39
f 61/60/41 60/61/42 59/59/40
f 64/62/43 61/60/41 63/63/44
f 66/64/45 63/63/44 65/65/46
f 68/66/47 65/65/46 67/67/48
f 70/68/49 67/67/48 69/69/50
f 72/70/51 69/69/50 71/71/52
f 38/72/19 71/71/52 39/73/53
f 73/74/54 75/75/55 76/76/56
f 77/77/57 76/76/56 78/78/58
f 79/79/59 78/78/58 80/80/60
f 81/81/61 80/80/60 82/82/62
f 81/81/61 84/83/63 83/84/64
f 85/85/65 84/83/63 86/86/66
f 87/87/67 86/86/66 88/88/68
f 87/87/67 90/89/69 89/90/70
f 89/90/70 92/91/71 91/92/72
f 93/93/73 92/91/71 94/94/74
f 95/95/75 94/94/74 96/96/76
f 97/97/77 96/96/76 98/98/78
f 99/99/79 98/98/78 100/100/80
f 99/99/79 102/101/81 101/102/82
f 101/102/82 104/103/83 103/104/84
f 103/104/84 106/105/85 105/106/86
f 107/107/87 106/105/85 108/108/88
f 107/107/87 75/109/55 74/110/89
f 109/111/90 74/112/89 73/74/54
f 77/77/57 109/111/90 73/74/54
f 79/79/59 111/113/91 77/77/57
f 113/114/92 79/79/59 81/81/61
f 114/115/93 81/81/61 83/84/64
f 85/85/65 114/115/93 83/84/64
f 87/87/67 115/116/94 85/85/65
f 117/117/95 87/87/67 89/90/70
f 118/118/96 89/90/70 91/92/72
f 93/93/73 118/118/96 91/92/72
f 95/95/75 119/119/97 93/93/73
f 97/97/77 120/120/98 95/95/75
f 122/121/99 97/97/77 99/99/79
f 123/122/100 99/99/79 101/102/82
f 103/104/84 123/122/100 101/102/82
f 125/123/101 103/104/84 105/106/86
f 107/107/87 125/123/101 105/106/86
f 74/110/89 126/124/102 107/107/87
f 109/111/103 128/125/104 110/126/104
f 111/113/105 127/127/106 109/111/103
f 112/128/107 129/129/105 111/113/105
f 113/114/108 130/130/107 112/128/107
f 132/131/109 113/114/108 114/115/110
f 133/132/111 114/115/110 115/116/112
f 134/133/113 115/116/112 116/134/114
f 135/135/115 116/134/114 117/117/116
f 136/136/117 117/117/116 118/118/118
f 119/119/119 136/136/117 118/118/118
f 120/120/120 137/137/119 119/119/119
f 121/138/121 138/139/122 120/120/120
f 122/121/123 139/140/124 121/138/121
f 141/141/125 122/121/123 123/122/126
f 142/142/127 123/122/126 124/143/128
f 143/144/129 124/143/128 125/123/129
f 144/145/130 125/123/129 126/124/131
f 128/146/104 126/124/131 110/147/104
f 137/148/132 135/149/132 136/150/132
f 137/148/132 133/151/132 134/152/132
f 138/153/132 132/154/132 133/151/132
f 140/155/132 132/154/132 139/156/132
f 141/157/132 131/158/132 140/155/132
f 141/157/132 129/159/132 130/160/132
f 142/161/132 127/162/132 129/159/132
f 144/163/132 127/162/132 143/164/132
f 75/75/55 1/3/133 76/76/56
f 76/76/56 5/5/134 78/78/58
f 78/78/58 7/7/135 80/80/60
f 82/82/62 7/7/135 9/9/136
f 82/82/62 11/11/137 84/83/63
f 84/83/63 13/13/138 86/86/66
f 88/88/68 13/13/138 15/15/139
f 90/89/69 15/15/139 17/17/140
f 92/91/71 17/17/140 19/19/141
f 92/91/71 21/21/142 94/94/74
f 94/94/74 23/23/143 96/96/76
f 96/96/76 25/25/144 98/98/78
f 100/100/80 25/25/144 27/27/145
f 100/100/80 29/29/146 102/101/81
f 102/101/81 31/31/147 104/103/83
f 106/105/85 31/31/147 33/33/148
f 108/108/88 33/33/148 35/35/149
f 75/109/55 35/35/149 2/37/150
f 146/165/2 148/166/3 145/167/2
f 147/168/3 150/169/4 148/166/3
f 149/170/4 152/171/5 150/169/4
f 151/172/5 154/173/6 152/171/5
f 153/174/6 156/175/7 154/173/6
f 158/176/8 160/177/9 157/178/8
f 159/179/9 162/180/10 160/177/9
f 161/181/10 164/182/11 162/180/10
f 163/183/11 166/184/12 164/182/11
f 165/185/12 168/186/13 166/184/12
f 167/187/13 170/188/14 168/186/13
f 169/189/14 172/190/15 170/188/14
f 171/191/15 174/192/16 172/190/15
f 176/193/17 178/194/18 175/195/17
f 177/196/18 180/197/1 178/194/18
f 173/198/16 175/195/17 174/192/16
f 182/199/1 184/200/2 181/201/1
f 183/202/2 186/203/3 184/200/2
f 185/204/3 188/205/4 186/203/3
f 187/206/4 190/207/5 188/205/4
f 189/208/5 192/209/6 190/207/5
f 191/210/6 194/211/7 192/209/6
f 193/212/7 196/213/8 194/211/7
f 195/214/8 198/215/9 196/213/8
f 197/216/9 200/217/10 198/215/9
f 199/218/10 202/219/11 200/217/10
f 201/220/11 204/221/12 202/219/11
f 203/222/12 206/223/13 204/221/12
f 205/224/13 208/225/14 206/223/13
f 207/226/14 210/227/15 208/225/14
f 209/228/15 212/229/16 210/227/15
f 211/230/16 214/231/17 212/229/16
f 213/232/17 216/233/18 214/231/17
f 216/233/18 182/234/1 181/235/1
f 218/236/151 220/237/152 217/238/153
f 217/238/153 222/239/23 221/240/154
f 221/240/154 224/241/155 223/242/24
f 223/242/24 226/243/27 225/244/26
f 225/244/26 228/245/29 227/246/28
f 227/246/28 230/247/31 229/248/156
f 229/248/156 232/249/33 231/250/32
f 231/250/32 234/251/157 233/252/158
f 233/252/158 236/253/159 235/254/36
f 235/254/36 238/255/39 237/256/38
f 239/257/160 238/255/39 240/258/40
f 241/259/161 240/258/40 242/260/162
f 241/259/161 244/261/44 243/262/43
f 243/262/43 246/263/46 245/264/45
f 245/264/45 248/265/48 247/266/163
f 247/266/163 250/267/164 249/268/49
f 250/267/164 252/269/165 249/268/49
f 252/269/165 219/270/53 218/271/151
f 254/272/166 256/273/167 253/274/168
f 253/274/168 258/275/169 257/276/170
f 257/276/170 260/277/171 259/278/172
f 259/278/172 262/279/173 261/280/174
f 261/280/174 264/281/175 263/282/176
f 263/282/176 266/283/177 265/284/178
f 265/284/178 268/285/179 267/286/180
f 269/287/181 268/285/179 270/288/182
f 271/289/183 270/288/182 272/290/184
f 271/289/183 274/291/185 273/292/186
f 273/292/186 276/293/187 275/294/188
f 275/294/188 278/295/189 277/296/190
f 277/296/190 280/297/191 279/298/192
f 279/298/192 282/299/193 281/300/194
f 283/301/195 282/299/193 284/302/196
f 285/303/197 284/302/196 286/304/198
f 285/303/197 288/305/199 287/306/200
f 254/307/166 288/305/199 255/308/201
f 290/309/202 255/310/201 289/311/203
f 290/309/202 258/275/169 256/273/167
f 291/312/204 260/277/171 258/275/169
f 293/313/205 260/277/171 292/314/206
f 294/315/207 262/279/173 293/313/205
f 294/315/207 266/283/177 264/281/175
f 295/316/208 268/285/179 266/283/177
f 297/317/209 268/285/179 296/318/210
f 298/319/211 270/288/182 297/317/209
f 298/319/211 274/291/185 272/290/184
f 299/320/212 276/293/187 274/291/185
f 300/321/213 278/295/189 276/293/187
f 302/322/214 278/295/189 301/323/215
f 303/324/216 280/297/191 302/322/214
f 303/324/216 284/302/196 282/299/193
f 305/325/217 284/302/196 304/326/218
f 305/325/217 288/305/199 286/304/198
f 306/327/219 255/308/201 288/305/199
f 307/328/220 290/309/221 289/311/220
f 308/329/222 291/312/223 290/309/221
f 309/330/224 292/314/225 291/312/223
f 310/331/225 293/313/226 292/314/225
f 312/332/227 293/313/226 311/333/226
f 313/334/228 294/315/229 312/332/227
f 314/335/230 295/316/228 313/334/228
f 315/336/231 296/318/232 314/335/230
f 316/337/233 297/317/234 315/336/231
f 316/337/233 299/320/235 298/319/233
f 317/338/236 300/321/237 299/320/235
f 318/339/238 301/323/239 300/321/237
f 319/340/239 302/322/240 301/323/239
f 321/341/241 302/322/240 320/342/242
f 322/343/243 303/324/244 321/341/241
f 323/344/245 304/326/243 322/343/243
f 324/345/246 305/325/247 323/344/245
f 307/346/220 306/327/248 324/345/246
f 311/347/249 313/348/249 312/349/249
f 310/350/249 314/351/249 313/348/249
f 309/352/249 315/353/249 314/351/249
f 308/354/249 316/355/249 315/353/249
f 321/356/249 319/357/249 322/358/249
f 319/357/249 323/359/249 322/358/249
f 318/360/249 324/361/249 323/359/249
f 316/355/249 324/361/249 317/362/249
f 183/202/250 254/272/166 253/274/168
f 185/204/251 253/274/168 257/276/170
f 187/206/252 257/276/170 259/278/172
f 261/280/174 187/206/252 259/278/172
f 191/210/253 261/280/174 263/282/176
f 193/212/254 263/282/176 265/284/178
f 267/286/180 193/212/254 265/284/178
f 269/287/181 195/214/255 267/286/180
f 271/289/183 197/216/256 269/287/181
f 201/220/257 271/289/183 273/292/186
f 203/222/258 273/292/186 275/294/188
f 205/224/259 275/294/188 277/296/190
f 279/298/192 205/224/259 277/296/190
f 209/228/260 279/298/192 281/300/194
f 211/230/261 281/300/194 283/301/195
f 285/303/197 211/230/261 283/301/195
f 287/306/200 213/232/262 285/303/197
f 254/307/166 215/363/263 287/306/200
f 155/364/7 157/178/8 156/175/7
f 179/365/1 145/167/2 180/366/1
f 38/38/19 4/2/264 3/367/265
f 37/40/21 6/4/266 4/2/264
f 42/41/22 8/6/267 6/4/266
f 44/43/24 10/8/268 8/6/267
f 48/47/28 10/8/268 46/45/26
f 50/49/30 12/10/269 48/47/28
f 52/51/32 14/12/270 50/49/30
f 54/53/34 16/14/271 52/51/32
f 56/55/36 18/16/272 54/53/34
f 56/55/36 22/20/273 20/18/274
f 58/57/38 24/22/275 22/20/273
f 60/61/42 26/24/276 24/22/275
f 64/62/43 26/24/276 62/368/277
f 66/64/45 28/26/278 64/62/43
f 68/66/47 30/28/279 66/64/45
f 70/68/49 32/30/280 68/66/47
f 72/70/51 34/32/281 70/68/49
f 38/72/19 36/34/282 72/70/51
f 39/369/53 145/167/283 40/39/20
f 40/39/20 148/166/284 41/42/23
f 41/42/23 150/169/285 43/44/25
f 43/44/25 152/171/286 45/46/27
f 45/46/27 154/173/287 47/48/29
f 49/50/31 154/173/287 156/175/288
f 51/52/33 156/175/288 157/178/289
f 53/54/35 157/178/289 160/177/290
f 55/56/37 160/177/290 162/180/291
f 55/56/37 164/182/292 57/58/39
f 59/59/40 164/182/292 166/184/293
f 61/60/41 166/184/293 168/186/294
f 63/63/44 168/186/294 170/188/295
f 65/65/46 170/188/295 172/190/296
f 67/67/48 172/190/296 174/192/297
f 69/69/50 174/192/297 175/195/298
f 71/71/52 175/195/298 178/194/299
f 39/73/53 178/194/299 180/197/300
f 218/236/151 146/165/264 179/365/265
f 217/238/153 147/168/266 146/165/264
f 221/240/154 149/170/267 147/168/266
f 223/242/24 151/172/301 149/170/267
f 225/244/26 153/174/302 151/172/301
f 153/174/302 229/248/156 155/364/270
f 155/364/270 231/250/32 158/176/271
f 158/176/271 233/252/158 159/179/272
f 159/179/272 235/254/36 161/181/274
f 235/254/36 163/183/273 161/181/274
f 163/183/273 239/257/160 165/185/275
f 165/185/275 241/259/161 167/187/276
f 167/187/276 243/262/43 169/189/278
f 169/189/278 245/264/45 171/191/279
f 171/191/279 247/266/163 173/198/280
f 173/198/280 249/268/49 176/193/281
f 176/193/281 252/269/165 177/196/282
f 177/196/282 218/271/151 179/370/265
f 184/200/283 219/371/53 181/201/300
f 186/203/284 220/237/152 184/200/283
f 188/205/285 222/239/23 186/203/284
f 190/207/303 224/241/155 188/205/285
f 228/245/29 190/207/303 192/209/304
f 230/247/31 192/209/304 194/211/288
f 232/249/33 194/211/288 196/213/289
f 234/251/157 196/213/289 198/215/290
f 236/253/159 198/215/290 200/217/291
f 202/219/292 236/253/159 200/217/291
f 204/221/293 238/255/39 202/219/292
f 206/223/294 240/258/40 204/221/293
f 244/261/44 206/223/294 208/225/295
f 246/263/46 208/225/295 210/227/296
f 248/265/48 210/227/296 212/229/297
f 250/267/164 212/229/297 214/231/298
f 251/372/52 214/231/298 216/233/299
f 219/270/53 216/233/299 181/235/300
f 2/1/1 3/367/1 4/2/2
f 1/3/2 4/2/2 6/4/3
f 5/5/3 6/4/3 8/6/4
f 7/7/4 8/6/4 10/8/5
f 9/9/5 10/8/5 12/10/6
f 11/11/6 12/10/6 14/12/7
f 13/13/7 14/12/7 16/14/8
f 15/15/8 16/14/8 18/16/9
f 17/17/9 18/16/9 20/18/10
f 19/19/10 20/18/10 22/20/11
f 21/21/11 22/20/11 24/22/12
f 23/23/12 24/22/12 26/24/13
f 25/25/13 26/24/13 28/26/14
f 27/27/14 28/26/14 30/28/15
f 29/29/15 30/28/15 32/30/16
f 31/31/16 32/30/16 34/32/17
f 33/33/17 34/32/17 36/34/18
f 35/35/18 36/34/18 3/36/1
f 38/38/19 39/369/53 40/39/20
f 42/41/22 37/40/21 40/39/20
f 44/43/24 42/41/22 41/42/23
f 46/45/26 44/43/24 43/44/25
f 48/47/28 46/45/26 45/46/27
f 50/49/30 48/47/28 47/48/29
f 52/51/32 50/49/30 49/50/31
f 54/53/34 52/51/32 51/52/33
f 56/55/36 54/53/34 53/54/35
f 58/57/38 56/55/36 55/56/37
f 59/59/40 60/61/42 58/57/38
f 61/60/41 62/368/277 60/61/42
f 64/62/43 62/368/277 61/60/41
f 66/64/45 64/62/43 63/63/44
f 68/66/47 66/64/45 65/65/46
f 70/68/49 68/66/47 67/67/48
f 72/70/51 70/68/49 69/69/50
f 38/72/19 72/70/51 71/71/52
f 73/74/54 74/112/89 75/75/55
f 77/77/57 73/74/54 76/76/56
f 79/79/59 77/77/57 78/78/58
f 81/81/61 79/79/59 80/80/60
f 81/81/61 82/82/62 84/83/63
f 85/85/65 83/84/64 84/83/63
f 87/87/67 85/85/65 86/86/66
f 87/87/67 88/88/68 90/89/69
f 89/90/70 90/89/69 92/91/71
f 93/93/73 91/92/72 92/91/71
f 95/95/75 93/93/73 94/94/74
f 97/97/77 95/95/75 96/96/76
f 99/99/79 97/97/77 98/98/78
f 99/99/79 100/100/80 102/101/81
f 101/102/82 102/101/81 104/103/83
f 103/104/84 104/103/83 106/105/85
f 107/107/87 105/106/86 106/105/85
f 107/107/87 108/108/88 75/109/55
f 109/111/90 110/126/305 74/112/89
f 77/77/57 111/113/91 109/111/90
f 79/79/59 112/128/306 111/113/91
f 113/114/92 112/128/306 79/79/59
f 114/115/93 113/114/92 81/81/61
f 85/85/65 115/116/94 114/115/93
f 87/87/67 116/134/307 115/116/94
f 117/117/95 116/134/307 87/87/67
f 118/118/96 117/117/95 89/90/70
f 93/93/73 119/119/97 118/118/96
f 95/95/75 120/120/98 119/119/97
f 97/97/77 121/138/308 120/120/98
f 122/121/99 121/138/308 97/97/77
f 123/122/100 122/121/99 99/99/79
f 103/104/84 124/143/309 123/122/100
f 125/123/101 124/143/309 103/104/84
f 107/107/87 126/124/102 125/123/101
f 74/110/89 110/147/305 126/124/102
f 109/111/103 127/127/106 128/125/104
f 111/113/105 129/129/105 127/127/106
f 112/128/107 130/130/107 129/129/105
f 113/114/108 131/373/310 130/130/107
f 132/131/109 131/373/310 113/114/108
f 133/132/111 132/131/109 114/115/110
f 134/133/113 133/132/111 115/116/112
f 135/135/115 134/133/113 116/134/114
f 136/136/117 135/135/115 117/117/116
f 119/119/119 137/137/119 136/136/117
f 120/120/120 138/139/122 137/137/119
f 121/138/121 139/140/124 138/139/122
f 122/121/123 140/374/311 139/140/124
f 141/141/125 140/374/311 122/121/123
f 142/142/127 141/141/125 123/122/126
f 143/144/129 142/142/127 124/143/128
f 144/145/130 143/144/129 125/123/129
f 128/146/104 144/145/130 126/124/131
f 137/148/132 134/152/132 135/149/132
f 137/148/132 138/153/132 133/151/132
f 138/153/132 139/156/132 132/154/132
f 140/155/132 131/158/132 132/154/132
f 141/157/132 130/160/132 131/158/132
f 141/157/132 142/161/132 129/159/132
f 142/161/132 143/164/132 127/162/132
f 144/163/132 128/375/132 127/162/132
f 75/75/55 2/1/150 1/3/133
f 76/76/56 1/3/133 5/5/134
f 78/78/58 5/5/134 7/7/135
f 82/82/62 80/80/60 7/7/135
f 82/82/62 9/9/136 11/11/137
f 84/83/63 11/11/137 13/13/138
f 88/88/68 86/86/66 13/13/138
f 90/89/69 88/88/68 15/15/139
f 92/91/71 90/89/69 17/17/140
f 92/91/71 19/19/141 21/21/142
f 94/94/74 21/21/142 23/23/143
f 96/96/76 23/23/143 25/25/144
f 100/100/80 98/98/78 25/25/144
f 100/100/80 27/27/145 29/29/146
f 102/101/81 29/29/146 31/31/147
f 106/105/85 104/103/83 31/31/147
f 108/108/88 106/105/85 33/33/148
f 75/109/55 108/108/88 35/35/149
f 146/165/2 147/168/3 148/166/3
f 147/168/3 149/170/4 150/169/4
f 149/170/4 151/172/5 152/171/5
f 151/172/5 153/174/6 154/173/6
f 153/174/6 155/364/7 156/175/7
f 158/176/8 159/179/9 160/177/9
f 159/179/9 161/181/10 162/180/10
f 161/181/10 163/183/11 164/182/11
f 163/183/11 165/185/12 166/184/12
f 165/185/12 167/187/13 168/186/13
f 167/187/13 169/189/14 170/188/14
f 169/189/14 171/191/15 172/190/15
f 171/191/15 173/198/16 174/192/16
f 176/193/17 177/196/18 178/194/18
f 177/196/18 179/370/1 180/197/1
f 173/198/16 176/193/17 175/195/17
f 182/199/1 183/202/2 184/200/2
f 183/202/2 185/204/3 186/203/3
f 185/204/3 187/206/4 188/205/4
f 187/206/4 189/208/5 190/207/5
f 189/208/5 191/210/6 192/209/6
f 191/210/6 193/212/7 194/211/7
f 193/212/7 195/214/8 196/213/8
f 195/214/8 197/216/9 198/215/9
f 197/216/9 199/218/10 200/217/10
f 199/218/10 201/220/11 202/219/11
f 201/220/11 203/222/12 204/221/12
f 203/222/12 205/224/13 206/223/13
f 205/224/13 207/226/14 208/225/14
f 207/226/14 209/228/15 210/227/15
f 209/228/15 211/230/16 212/229/16
f 211/230/16 213/232/17 214/231/17
f 213/232/17 215/363/18 216/233/18
f 216/233/18 215/363/18 182/234/1
f 218/236/151 219/371/53 220/237/152
f 217/238/153 220/237/152 222/239/23
f 221/240/154 222/239/23 224/241/155
f 223/242/24 224/241/155 226/243/27
f 225/244/26 226/243/27 228/245/29
f 227/246/28 228/245/29 230/247/31
f 229/248/156 230/247/31 232/249/33
f 231/250/32 232/249/33 234/251/157
f 233/252/158 234/251/157 236/253/159
f 235/254/36 236/253/159 238/255/39
f 239/257/160 237/256/38 238/255/39
f 241/259/161 239/257/160 240/258/40
f 241/259/161 242/260/162 244/261/44
f 243/262/43 244/261/44 246/263/46
f 245/264/45 246/263/46 248/265/48
f 247/266/163 248/265/48 250/267/164
f 250/267/164 251/372/52 252/269/165
f 252/269/165 251/372/52 219/270/53
f 254/272/166 255/310/201 256/273/167
f 253/274/168 256/273/167 258/275/169
f 257/276/170 258/275/169 260/277/171
f 259/278/172 260/277/171 262/279/173
f 261/280/174 262/279/173 264/281/175
f 263/282/176 264/281/175 266/283/177
f 265/284/178 266/283/177 268/285/179
f 269/287/181 267/286/180 268/285/179
f 271/289/183 269/287/181 270/288/182
f 271/289/183 272/290/184 274/291/185
f 273/292/186 274/291/185 276/293/187
f 275/294/188 276/293/187 278/295/189
f 277/296/190 278/295/189 280/297/191
f 279/298/192 280/297/191 282/299/193
f 283/301/195 281/300/194 282/299/193
f 285/303/197 283/301/195 284/302/196
f 285/303/197 286/304/198 288/305/199
f 254/307/166 287/306/200 288/305/199
f 290/309/202 256/273/167 255/310/201
f 290/309/202 291/312/204 258/275/169
f 291/312/204 292/314/206 260/277/171
f 293/313/205 262/279/173 260/277/171
f 294/315/207 264/281/175 262/279/173
f 294/315/207 295/316/208 266/283/177
f 295/316/208 296/318/210 268/285/179
f 297/317/209 270/288/182 268/285/179
f 298/319/211 272/290/184 270/288/182
f 298/319/211 299/320/212 274/291/185
f 299/320/212 300/321/213 276/293/187
f 300/321/213 301/323/215 278/295/189
f 302/322/214 280/297/191 278/295/189
f 303/324/216 282/299/193 280/297/191
f 303/324/216 304/326/218 284/302/196
f 305/325/217 286/304/198 284/302/196
f 305/325/217 306/327/219 288/305/199
f 306/327/219 289/376/203 255/308/201
f 307/328/220 308/329/222 290/309/221
f 308/329/222 309/330/224 291/312/223
f 309/330/224 310/331/225 292/314/225
f 310/331/225 311/333/226 293/313/226
f 312/332/227 294/315/229 293/313/226
f 313/334/228 295/316/228 294/315/229
f 314/335/230 296/318/232 295/316/228
f 315/336/231 297/317/234 296/318/232
f 316/337/233 298/319/233 297/317/234
f 316/337/233 317/338/236 299/320/235
f 317/338/236 318/339/238 300/321/237
f 318/339/238 319/340/239 301/323/239
f 319/340/239 320/342/242 302/322/240
f 321/341/241 303/324/244 302/322/240
f 322/343/243 304/326/243 303/324/244
f 323/344/245 305/325/247 304/326/243
f 324/345/246 306/327/248 305/325/247
f 307/346/220 289/376/220 306/327/248
f 311/347/249 310/350/249 313/348/249
f 310/350/249 309/352/249 314/351/249
f 309/352/249 308/354/249 315/353/249
f 308/354/249 307/377/249 316/355/249
f 321/356/249 320/378/249 319/357/249
f 319/357/249 318/360/249 323/359/249
f 318/360/249 317/362/249 324/361/249
f 316/355/249 307/377/249 324/361/249
f 183/202/250 182/199/312 254/272/166
f 185/204/251 183/202/250 253/274/168
f 187/206/252 185/204/251 257/276/170
f 261/280/174 189/208/313 187/206/252
f 191/210/253 189/208/313 261/280/174
f 193/212/254 191/210/253 263/282/176
f 267/286/180 195/214/255 193/212/254
f 269/287/181 197/216/256 195/214/255
f 271/289/183 199/218/314 197/216/256
f 201/220/257 199/218/314 271/289/183
f 203/222/258 201/220/257 273/292/186
f 205/224/259 203/222/258 275/294/188
f 279/298/192 207/226/315 205/224/259
f 209/228/260 207/226/315 279/298/192
f 211/230/261 209/228/260 281/300/194
f 285/303/197 213/232/262 211/230/261
f 287/306/200 215/363/263 213/232/262
f 254/307/166 182/234/312 215/363/263
f 155/364/7 158/176/8 157/178/8
f 179/365/1 146/165/2 145/167/2
f 38/38/19 37/40/21 4/2/264
f 37/40/21 42/41/22 6/4/266
f 42/41/22 44/43/24 8/6/267
f 44/43/24 46/45/26 10/8/268
f 48/47/28 12/10/269 10/8/268
f 50/49/30 14/12/270 12/10/269
f 52/51/32 16/14/271 14/12/270
f 54/53/34 18/16/272 16/14/271
f 56/55/36 20/18/274 18/16/272
f 56/55/36 58/57/38 22/20/273
f 58/57/38 60/61/42 24/22/275
f 60/61/42 62/368/277 26/24/276
f 64/62/43 28/26/278 26/24/276
f 66/64/45 30/28/279 28/26/278
f 68/66/47 32/30/280 30/28/279
f 70/68/49 34/32/281 32/30/280
f 72/70/51 36/34/282 34/32/281
f 38/72/19 3/36/265 36/34/282
f 39/369/53 180/366/300 145/167/283
f 40/39/20 145/167/283 148/166/284
f 41/42/23 148/166/284 150/169/285
f 43/44/25 150/169/285 152/171/286
f 45/46/27 152/171/286 154/173/287
f 49/50/31 47/48/29 154/173/287
f 51/52/33 49/50/31 156/175/288
f 53/54/35 51/52/33 157/178/289
f 55/56/37 53/54/35 160/177/290
f 55/56/37 162/180/291 164/182/292
f 59/59/40 57/58/39 164/182/292
f 61/60/41 59/59/40 166/184/293
f 63/63/44 61/60/41 168/186/294
f 65/65/46 63/63/44 170/188/295
f 67/67/48 65/65/46 172/190/296
f 69/69/50 67/67/48 174/192/297
f 71/71/52 69/69/50 175/195/298
f 39/73/53 71/71/52 178/194/299
f 218/236/151 217/238/153 146/165/264
f 217/238/153 221/240/154 147/168/266
f 221/240/154 223/242/24 149/170/267
f 223/242/24 225/244/26 151/172/301
f 225/244/26 227/246/28 153/174/302
f 153/174/302 227/246/28 229/248/156
f 155/364/270 229/248/156 231/250/32
f 158/176/271 231/250/32 233/252/158
f 159/179/272 233/252/158 235/254/36
f 235/254/36 237/256/38 163/183/273
f 163/183/273 237/256/38 239/257/160
f 165/185/275 239/257/160 241/259/161
f 167/187/276 241/259/161 243/262/43
f 169/189/278 243/262/43 245/264/45
f 171/191/279 245/264/45 247/266/163
f 173/198/280 247/266/163 249/268/49
f 176/193/281 249/268/49 252/269/165
f 177/196/282 252/269/165 218/271/151
f 184/200/283 220/237/152 219/371/53
f 186/203/284 222/239/23 220/237/152
f 188/205/285 224/241/155 222/239/23
f 190/207/303 226/243/27 224/241/155
f 228/245/29 226/243/27 190/207/303
f 230/247/31 228/245/29 192/209/304
f 232/249/33 230/247/31 194/211/288
f 234/251/157 232/249/33 196/213/289
f 236/253/159 234/251/157 198/215/290
f 202/219/292 238/255/39 236/253/159
f 204/221/293 240/258/40 238/255/39
f 206/223/294 242/260/162 240/258/40
f 244/261/44 242/260/162 206/223/294
f 246/263/46 244/261/44 208/225/295
f 248/265/48 246/263/46 210/227/296
f 250/267/164 248/265/48 212/229/297
f 251/372/52 250/267/164 214/231/298
f 219/270/53 251/372/52 216/233/299
