# Blender v2.82 (sub 7) OBJ File: ''
# www.blender.org
o Doodad02.26_low_Mesh.006
v -0.371858 1.077118 0.617281
v -0.410083 1.058028 0.650398
v 0.348628 1.058029 0.650398
v 0.310404 1.077118 0.617281
v 0.310404 0.888283 0.944872
v 0.348628 0.907372 0.911756
v -0.410083 0.907372 0.911756
v -0.371858 0.888283 0.944872
v -0.371858 1.061984 0.608558
v -0.410083 1.042895 0.641674
v 0.348628 1.042895 0.641674
v 0.310404 1.061985 0.608558
v 0.310404 0.873150 0.936149
v 0.348628 0.892239 0.903032
v -0.410083 0.892239 0.903032
v -0.371858 0.873149 0.936148
v -0.410083 1.067758 0.656006
v -0.371858 1.086847 0.622890
v 0.310404 1.086848 0.622890
v 0.348628 1.067758 0.656006
v -0.371858 0.898013 0.950480
v -0.410083 0.917102 0.917364
v 0.348628 0.917102 0.917364
v 0.310404 0.898013 0.950480
v -0.406810 1.079439 0.578277
v -0.445034 1.060350 0.611394
v 0.383579 1.060350 0.611394
v 0.345355 1.079439 0.578278
v -0.445034 0.874784 0.933313
v -0.406810 0.855695 0.966429
v 0.345355 0.855695 0.966429
v 0.383579 0.874784 0.933313
v -0.445034 1.085213 0.625726
v -0.406810 1.104302 0.592609
v 0.345355 1.104302 0.592610
v 0.383579 1.085213 0.625726
v -0.406810 0.880558 0.980761
v -0.445034 0.899647 0.947645
v 0.383579 0.899647 0.947645
v 0.345355 0.880558 0.980761
v -0.506114 0.125409 0.567195
v -0.506114 0.125409 0.445034
v -0.445034 0.064329 0.445034
v -0.445034 0.064329 0.567195
v -0.506114 0.970846 0.567195
v -0.387326 1.017234 0.609029
v -0.445034 1.076557 0.445034
v -0.506114 1.015477 0.445034
v -0.445034 0.064329 -0.567195
v -0.445034 0.064329 -0.445034
v -0.506114 0.125409 -0.445034
v -0.445034 1.076557 -0.445034
v -0.445034 1.046053 -0.559033
v -0.506114 1.015477 -0.445034
v 0.506115 0.125409 0.567195
v 0.445034 0.064329 0.567195
v 0.445034 0.064329 0.445034
v 0.506115 0.125409 0.445034
v 0.445034 1.076557 0.445034
v 0.387326 1.017234 0.609029
v 0.506115 0.970846 0.567195
v 0.506115 1.015477 0.445034
v 0.506115 0.125409 -0.445034
v 0.445034 0.064329 -0.445034
v 0.445034 0.064329 -0.567195
v 0.445034 1.046053 -0.559033
v 0.445034 1.076557 -0.445034
v 0.506115 1.015477 -0.445034
v -0.445034 0.506980 -1.388254
v -0.445034 0.125409 -1.388254
v -0.445034 0.064329 -1.327173
v 0.445034 0.506980 -1.388254
v 0.445034 0.064329 -1.327173
v 0.445034 0.125409 -1.388254
v -0.570443 0.098763 0.406914
v -0.471679 0.000000 0.406914
v -0.471679 1.140886 0.406914
v -0.570443 1.042123 0.406914
v -0.471679 0.000000 -0.406914
v -0.570443 0.098763 -0.406914
v -0.570443 1.042123 -0.406914
v -0.471679 1.140886 -0.406914
v 0.593586 0.023143 0.406914
v 0.593586 0.089177 0.406914
v 0.570443 1.042123 0.406914
v 0.471680 1.140886 0.406914
v 0.593586 0.089177 -0.406914
v 0.593586 0.023143 -0.406914
v 0.471680 1.140886 -0.406914
v 0.570443 1.042123 -0.406914
v -0.506114 0.653197 0.567195
v -0.506114 0.681058 0.445034
v -0.506114 0.681058 -0.445034
v 0.506115 0.681058 -0.445034
v 0.506115 0.653197 0.567195
v 0.506115 0.681058 0.445034
v -0.445034 0.363615 -1.388254
v 0.445034 0.363615 -1.388254
v -0.570443 0.687681 0.406914
v -0.570443 0.687681 -0.406914
v 0.593586 0.664539 -0.406914
v 0.593586 0.664539 0.406914
v 1.006418 0.023143 0.406914
v 1.006418 0.383907 0.406914
v 1.006418 0.383907 -0.406914
v 1.006418 0.023143 -0.406914
v 0.759767 0.664539 -0.406914
v 0.759767 0.664539 0.406914
v -0.436755 1.108271 0.341710
v -0.516901 1.028125 0.341710
v -0.516901 1.028125 -0.341710
v -0.436755 1.108271 -0.341710
v 0.516901 1.028125 0.341710
v 0.436755 1.108271 0.341710
v 0.436755 1.108271 -0.341710
v 0.516901 1.028125 -0.341710
v -0.516901 0.702260 -0.341710
v 0.516901 0.702260 0.341710
v -0.516901 0.702260 0.341710
v 0.516901 0.702260 -0.341710
v -0.446137 1.130923 0.341710
v -0.539552 1.037507 0.341710
v -0.539552 1.037507 -0.341710
v -0.446137 1.130923 -0.341710
v 0.539553 1.037507 0.341710
v 0.446138 1.130923 0.341710
v 0.446138 1.130923 -0.341710
v 0.539553 1.037507 -0.341710
v -0.539552 0.702260 -0.341710
v 0.539553 0.702260 0.341710
v -0.539552 0.702260 0.341710
v 0.539553 0.702260 -0.341710
v -0.516901 0.424620 -0.397963
v 0.516901 0.424620 -0.397963
v -0.516901 0.424620 0.397963
v 0.516901 0.424620 0.397963
v 0.516901 1.028125 -0.397963
v -0.516901 1.028125 -0.397963
v -0.516901 1.028125 0.397963
v 0.516901 1.028125 0.397963
v -0.436755 1.108271 0.397963
v -0.436755 1.108271 -0.397963
v 0.436755 1.108271 0.397963
v 0.436755 1.108271 -0.397963
v -0.336951 0.529670 -0.595966
v 0.336951 0.529670 -0.595966
v -0.336951 0.529670 0.595966
v 0.336951 0.529670 0.595966
v 0.336951 0.923075 -0.595966
v -0.336951 0.923075 -0.595966
v -0.336951 0.923075 0.595966
v 0.336951 0.923075 0.595966
v 0.479109 0.136595 0.947184
v 0.433848 0.091334 0.947184
v -0.479108 0.136595 0.947184
v -0.433847 0.091334 0.947184
v -0.432699 0.795303 0.947184
v -0.506114 0.751807 0.947184
v 0.479109 0.741736 0.947184
v 0.432700 0.795303 0.947184
v 0.479109 0.516455 0.947184
v -0.479108 0.516455 0.947184
v -0.506114 0.516455 0.947184
v -0.479108 0.741736 0.947184
v 0.506115 0.516455 0.947184
v 0.506115 0.125409 0.947184
v 0.506115 0.751807 0.947184
v 0.387326 0.851128 0.897188
v -0.387326 0.851128 0.897188
v -0.506114 0.125409 0.947184
v -0.445034 0.064329 0.947184
v 0.445034 0.064329 0.947184
v -0.433218 0.706356 0.905286
v 0.433218 0.706356 0.905286
v -0.429263 0.489146 0.905286
v 0.429264 0.489146 0.905286
v -0.429263 0.178103 0.905286
v 0.429264 0.178103 0.905286
v 0.409602 0.777379 0.905286
v -0.409601 0.777379 0.905286
v -0.410688 0.110989 0.905286
v 0.410689 0.110989 0.905286
v -0.433218 0.533731 0.905286
v 0.433218 0.533731 0.905286
v -0.453533 0.153834 0.905286
v 0.453533 0.153834 0.905286
v -0.391252 0.475375 0.968075
v 0.391252 0.475375 0.968075
v -0.391252 0.191875 0.968075
v 0.391252 0.191875 0.968075
v -0.453533 0.726671 0.905286
v 0.453533 0.726671 0.905286
v -0.453533 0.513416 0.905286
v 0.453533 0.513416 0.905286
v -0.395635 0.681820 0.952425
v 0.395635 0.681820 0.952425
v -0.395635 0.558267 0.952425
v 0.395635 0.558267 0.952425
v 0.471680 0.000000 0.406914
v 0.570443 0.098763 0.406914
v 0.570443 0.098763 -0.406914
v 0.471680 0.000000 -0.406914
v 0.570443 0.687681 -0.406914
v 0.570443 0.687681 0.406914
v 0.770237 0.687681 0.406914
v 1.029560 0.000000 0.406914
v 1.029560 0.392632 0.406914
v 1.029560 0.392632 -0.406914
v 1.029560 0.000000 -0.406914
v 0.770237 0.687681 -0.406914
v 0.601600 0.098353 0.371065
v 0.995588 0.379629 0.371065
v 0.601600 0.098353 -0.371065
v 0.995588 0.379629 -0.371065
v 0.601600 0.035332 0.371065
v 0.601600 0.035332 -0.371065
v 0.601600 0.647451 -0.371065
v 0.601600 0.647451 0.371065
v 0.760196 0.647451 0.371065
v 0.995588 0.035332 0.371065
v 0.995588 0.035332 -0.371065
v 0.760196 0.647451 -0.371065
v -0.465184 1.098962 -0.589531
v -0.548202 1.007310 -0.588214
v 0.548203 1.007310 -0.588214
v 0.465184 1.098962 -0.589531
v -0.458291 0.537265 -1.440668
v -0.545486 0.565144 -1.360815
v -0.467362 0.643420 -1.377798
v 0.458292 0.537265 -1.440668
v 0.467363 0.643420 -1.377798
v 0.545487 0.565144 -1.360815
v -0.506114 0.653197 -0.567195
v -0.506114 0.125409 -0.567195
v 0.506115 0.653197 -0.567195
v 0.506115 0.970846 -0.567195
v -0.506114 0.379714 -1.327173
v -0.506114 0.532768 -1.327173
v 0.506115 0.379714 -1.327173
v 0.506115 0.125409 -1.327173
v -0.506114 0.970846 -0.567195
v -0.506114 0.125409 -1.327173
v 0.506115 0.125409 -0.567195
v 0.506115 0.532768 -1.327173
v -0.397480 0.000000 -1.286569
v 0.397480 0.000000 -1.286569
v 0.397480 0.000000 -0.607799
v -0.397480 0.000000 -0.607799
v 0.397480 0.000000 0.587497
v -0.397480 0.000000 0.587497
v 0.397480 0.000000 0.926882
v -0.397480 0.000000 0.926882
v -0.445034 1.046053 0.559033
v 0.445034 1.046053 0.559033
v -0.445034 0.822309 0.947184
v 0.445034 0.822309 0.947184
v -0.349789 0.964840 0.597430
v 0.349790 0.964840 0.597430
v -0.349789 0.814833 0.857663
v 0.349790 0.814833 0.857663
v -0.479138 1.158892 0.382855
v -0.588449 1.049581 0.382855
v -0.588449 1.049581 -0.382856
v -0.479138 1.158892 -0.382856
v 0.000000 1.096838 0.382855
v -0.526395 0.687681 -0.382856
v -0.453434 1.096838 -0.382856
v -0.526395 1.023877 -0.382856
v -0.589932 0.687681 0.382855
v -0.589932 0.687681 -0.382856
v -0.526395 1.023877 0.382855
v -0.453434 1.096838 0.382855
v 0.000000 1.160375 -0.382856
v 0.000000 1.160375 0.382855
v -0.526395 0.687681 0.382855
v 0.000000 1.096838 -0.382856
v 0.588449 1.049581 0.382855
v 0.479138 1.158892 0.382855
v 0.479138 1.158892 -0.382856
v 0.588449 1.049581 -0.382856
v 0.589932 0.687681 -0.382856
v 0.589932 0.687681 0.382855
v 0.000000 1.160375 -0.382856
v 0.000000 1.160375 0.382855
v 0.526395 1.023877 0.382855
v 0.453434 1.096838 0.382855
v 0.453434 1.096838 -0.382856
v 0.526395 1.023877 -0.382856
v 0.000000 1.096838 -0.382856
v 0.526395 0.687681 0.382855
v 0.526395 0.687681 -0.382856
v 0.000000 1.096838 0.382855
vt 0.669260 0.346013
vt 0.672805 0.314484
vt 0.672805 0.342467
vt 0.605973 0.310938
vt 0.605973 0.346013
vt 0.602427 0.342467
vt 0.602427 0.314484
vt 0.828799 0.473973
vt 0.833249 0.545522
vt 0.830557 0.545695
vt 0.830939 0.374164
vt 0.830616 0.435054
vt 0.828377 0.434967
vt 0.832308 0.336790
vt 0.833093 0.371256
vt 0.831168 0.371146
vt 0.836670 0.439367
vt 0.834822 0.468999
vt 0.833848 0.439520
vt 0.826896 0.543588
vt 0.838555 0.375780
vt 0.833988 0.434004
vt 0.835885 0.375539
vt 0.837229 0.543326
vt 0.831150 0.473789
vt 0.834411 0.474973
vt 0.830796 0.470442
vt 0.830485 0.438152
vt 0.838413 0.340351
vt 0.835479 0.336981
vt 0.833069 0.374219
vt 0.828339 0.438170
vt 0.828485 0.470548
vt 0.828338 0.340396
vt 0.827653 0.369591
vt 0.825274 0.433485
vt 0.839436 0.370520
vt 0.841266 0.340525
vt 0.824274 0.439395
vt 0.825020 0.469103
vt 0.833879 0.550617
vt 0.830415 0.550735
vt 0.824853 0.549380
vt 0.824572 0.475491
vt 0.838663 0.548930
vt 0.836744 0.370215
vt 0.841266 0.548275
vt 0.840034 0.542958
vt 0.837509 0.469068
vt 0.837420 0.474890
vt 0.566698 0.707194
vt 0.514934 0.715917
vt 0.515509 0.708828
vt 0.926501 0.948326
vt 0.919444 0.870174
vt 0.926501 0.865763
vt 0.166278 0.237436
vt 0.125214 0.164682
vt 0.143545 0.154065
vt 0.572180 0.621474
vt 0.579152 0.704475
vt 0.572284 0.701658
vt 0.478781 0.622103
vt 0.481159 0.609634
vt 0.484344 0.616434
vt 0.156080 0.147324
vt 0.187168 0.235358
vt 0.181408 0.237064
vt 0.794359 0.777585
vt 0.805712 0.769558
vt 0.805711 0.777586
vt 0.806083 0.864801
vt 0.794629 0.860156
vt 0.805825 0.855824
vt 0.068495 0.116653
vt 0.066267 0.102793
vt 0.074324 0.110804
vt 0.132375 0.050266
vt 0.121683 0.046328
vt 0.127306 0.041509
vt 0.805712 0.686841
vt 0.794359 0.678814
vt 0.805710 0.678813
vt 0.806083 0.591600
vt 0.794629 0.596244
vt 0.795625 0.588273
vt 0.125538 0.322057
vt 0.120654 0.309343
vt 0.128299 0.311261
vt 0.198421 0.012037
vt 0.200333 0.000805
vt 0.206524 0.010079
vt 0.189388 0.246140
vt 0.183680 0.246919
vt 0.121629 0.158593
vt 0.117134 0.165224
vt 0.786286 0.835352
vt 0.780621 0.750919
vt 0.786286 0.752789
vt 0.144359 0.245375
vt 0.137103 0.242000
vt 0.144067 0.238330
vt 0.794377 0.829212
vt 0.805718 0.826591
vt 0.692595 0.601670
vt 0.695138 0.589214
vt 0.698242 0.596060
vt 0.108042 0.076348
vt 0.101934 0.067116
vt 0.514405 0.608271
vt 0.515122 0.615351
vt 0.193353 0.003281
vt 0.175038 0.323784
vt 0.174422 0.334891
vt 0.060476 0.108463
vt 0.008823 0.175077
vt 0.000805 0.166887
vt 0.779826 0.687973
vt 0.727472 0.695979
vt 0.728157 0.688861
vt 0.805719 0.629809
vt 0.794377 0.627187
vt 0.728450 0.588273
vt 0.729070 0.595356
vt 0.782616 0.872143
vt 0.793563 0.954706
vt 0.782616 0.954706
vt 0.794359 0.686841
vt 0.794359 0.769558
vt 0.140610 0.146373
vt 0.206524 0.330700
vt 0.201392 0.331764
vt 0.167838 0.245871
vt 0.153313 0.137642
vt 0.131555 0.054693
vt 0.158644 0.135460
vt 0.841035 0.769571
vt 0.841032 0.777601
vt 0.842087 0.844433
vt 0.840968 0.835833
vt 0.788315 0.845730
vt 0.780621 0.837221
vt 0.805826 0.600576
vt 0.842087 0.611967
vt 0.840967 0.620568
vt 0.691591 0.682316
vt 0.694085 0.694813
vt 0.684725 0.685255
vt 0.685459 0.071558
vt 0.609968 0.159064
vt 0.609968 0.071558
vt 0.685459 0.159064
vt 0.609968 0.210814
vt 0.685459 0.058602
vt 0.609968 0.302205
vt 0.685459 0.283672
vt 0.685459 0.302205
vt 0.685459 0.003973
vt 0.609968 0.058602
vt 0.609968 0.003973
vt 0.685709 0.598773
vt 0.780402 0.596620
vt 0.792750 0.599296
vt 0.785930 0.602255
vt 0.569807 0.714010
vt 0.566645 0.615900
vt 0.578942 0.618480
vt 0.792240 0.685321
vt 0.785434 0.682487
vt 0.782908 0.694881
vt 0.478931 0.702803
vt 0.481607 0.715256
vt 0.472106 0.705841
vt 0.471859 0.619301
vt 0.783388 0.589813
vt 0.697116 0.687995
vt 0.202140 0.342968
vt 0.569603 0.609054
vt 0.126640 0.056317
vt 0.372606 0.922929
vt 0.406243 0.918376
vt 0.407842 0.922930
vt 0.484534 0.708403
vt 0.609968 0.283672
vt 0.685459 0.247234
vt 0.685459 0.210814
vt 0.609968 0.247234
vt 0.650350 0.944301
vt 0.646667 0.929629
vt 0.650350 0.928886
vt 0.594880 0.926222
vt 0.595732 0.929629
vt 0.104051 0.947499
vt 0.100577 0.915165
vt 0.104051 0.914034
vt 0.103430 0.949124
vt 0.078742 0.971946
vt 0.100577 0.947103
vt 0.111047 0.818770
vt 0.117738 0.807252
vt 0.117907 0.819435
vt 0.111214 0.805301
vt 0.129135 0.778345
vt 0.616017 0.305374
vt 0.139983 0.903572
vt 0.145129 0.899253
vt 0.758249 0.348148
vt 0.753000 0.359952
vt 0.747666 0.355837
vt 0.705714 0.435180
vt 0.693818 0.463073
vt 0.688611 0.461167
vt 0.120165 0.819064
vt 0.151503 0.896040
vt 0.147041 0.897569
vt 0.763473 0.355110
vt 0.758398 0.365306
vt 0.754596 0.361513
vt 0.550242 0.847517
vt 0.575996 0.916130
vt 0.550242 0.910912
vt 0.708177 0.556942
vt 0.718933 0.561892
vt 0.715678 0.565718
vt 0.512760 0.601560
vt 0.465815 0.621662
vt 0.513429 0.722674
vt 0.481906 0.722049
vt 0.475633 0.718756
vt 0.466647 0.709851
vt 0.735779 0.386276
vt 0.729355 0.383695
vt 0.475086 0.606268
vt 0.616016 0.000805
vt 0.679411 0.000805
vt 0.763038 0.353100
vt 0.686925 0.472830
vt 0.686620 0.460333
vt 0.119796 0.807666
vt 0.714272 0.567461
vt 0.706210 0.557871
vt 0.704128 0.434131
vt 0.684725 0.472903
vt 0.130887 0.779029
vt 0.741481 0.581340
vt 0.737365 0.387325
vt 0.149751 0.725488
vt 0.151503 0.726171
vt 0.293644 0.595114
vt 0.367474 0.499218
vt 0.367474 0.595114
vt 0.215568 0.499218
vt 0.236359 0.578422
vt 0.215568 0.595114
vt 0.445550 0.595114
vt 0.452985 0.506652
vt 0.452985 0.587680
vt 0.388266 0.578422
vt 0.208133 0.506652
vt 0.208133 0.587680
vt 0.964761 0.144312
vt 0.990515 0.212925
vt 0.964761 0.207707
vt 0.692203 0.472765
vt 0.727408 0.411436
vt 0.712855 0.554398
vt 0.125225 0.818335
vt 0.742324 0.579704
vt 0.766530 0.586663
vt 0.125169 0.808552
vt 0.424758 0.515910
vt 0.424759 0.578422
vt 0.272852 0.515910
vt 0.236359 0.515910
vt 0.226615 0.603240
vt 0.272852 0.578422
vt 0.282596 0.603240
vt 0.293644 0.499218
vt 0.226615 0.491091
vt 0.434503 0.603240
vt 0.434503 0.491091
vt 0.388266 0.515910
vt 0.378522 0.491091
vt 0.445550 0.499218
vt 0.841016 0.642443
vt 0.841031 0.678799
vt 0.798916 0.877496
vt 0.803894 0.945871
vt 0.798916 0.949353
vt 0.753730 0.150207
vt 0.761151 0.183572
vt 0.753730 0.185455
vt 0.841016 0.813958
vt 0.418131 0.831375
vt 0.410928 0.830954
vt 0.413932 0.827177
vt 0.334183 0.832886
vt 0.338411 0.911018
vt 0.334183 0.913161
vt 0.365268 0.824294
vt 0.345768 0.828847
vt 0.344370 0.824294
vt 0.753579 0.252667
vt 0.751073 0.231769
vt 0.753579 0.231769
vt 0.842463 0.196533
vt 0.844968 0.231769
vt 0.842463 0.231769
vt 0.838158 0.257635
vt 0.844968 0.253601
vt 0.839302 0.260140
vt 0.757883 0.257636
vt 0.751074 0.253601
vt 0.753579 0.196533
vt 0.756739 0.189829
vt 0.757777 0.192334
vt 0.839302 0.189830
vt 0.844968 0.195496
vt 0.842463 0.252666
vt 0.756739 0.260141
vt 0.838265 0.192335
vt 0.751073 0.195495
vt 0.343114 0.830954
vt 0.343114 0.915094
vt 0.347652 0.830732
vt 0.361389 0.836324
vt 0.349928 0.836324
vt 0.403992 0.829923
vt 0.376417 0.836731
vt 0.375139 0.829922
vt 0.410928 0.915094
vt 0.414903 0.834928
vt 0.414903 0.911119
vt 0.419195 0.913268
vt 0.419195 0.832780
vt 0.418131 0.914672
vt 0.335419 0.914695
vt 0.340388 0.918999
vt 0.372606 0.823118
vt 0.406243 0.827671
vt 0.372888 0.827671
vt 0.365268 0.921753
vt 0.345768 0.917200
vt 0.365549 0.917200
vt 0.335419 0.831353
vt 0.338411 0.835029
vt 0.370454 0.912842
vt 0.368203 0.830953
vt 0.370454 0.833205
vt 0.408677 0.912842
vt 0.375139 0.916125
vt 0.372888 0.918376
vt 0.376417 0.909316
vt 0.402714 0.836731
vt 0.402714 0.909316
vt 0.408677 0.833205
vt 0.403992 0.916125
vt 0.344999 0.832838
vt 0.366318 0.832838
vt 0.368203 0.915093
vt 0.366318 0.913209
vt 0.365549 0.828847
vt 0.363665 0.830732
vt 0.363665 0.915315
vt 0.347652 0.915315
vt 0.349928 0.909723
vt 0.361389 0.909723
vt 0.344999 0.913209
vt 0.790152 0.696956
vt 0.576796 0.606943
vt 0.570549 0.606880
vt 0.516576 0.606159
vt 0.729664 0.698090
vt 0.727748 0.714670
vt 0.783869 0.697059
vt 0.790542 0.736038
vt 0.755780 0.738612
vt 0.756571 0.736427
vt 0.576969 0.568084
vt 0.542374 0.565706
vt 0.579152 0.565925
vt 0.516737 0.590666
vt 0.543172 0.567876
vt 0.729902 0.713657
vt 0.514588 0.589667
vt 0.792750 0.738197
vt 0.064030 0.971946
vt 0.589886 0.966176
vt 0.589886 0.929629
vt 0.064031 0.921011
vt 0.621823 0.966176
vt 0.622220 0.969649
vt 0.078702 0.975629
vt 0.586373 0.928886
vt 0.586373 0.967180
vt 0.060623 0.920160
vt 0.064031 0.915165
vt 0.623844 0.969029
vt 0.646666 0.944340
vt 0.649876 0.946149
vt 0.060623 0.973531
vt 0.063287 0.911653
vt 0.588755 0.926222
vt 0.696169 0.750717
vt 0.690613 0.741951
vt 0.684725 0.751559
vt 0.696169 0.837423
vt 0.690613 0.846189
vt 0.684725 0.836582
vt 0.776480 0.740221
vt 0.776480 0.847919
vt 0.693907 0.847552
vt 0.788315 0.742410
vt 0.792383 0.746142
vt 0.162265 0.145844
vt 0.852715 0.862753
vt 0.856481 0.870174
vt 0.849425 0.865763
vt 0.856481 0.943915
vt 0.849425 0.948326
vt 0.852715 0.951336
vt 0.919444 0.943915
vt 0.923211 0.951336
vt 0.834891 0.152091
vt 0.761151 0.152091
vt 0.842312 0.150208
vt 0.834891 0.183572
vt 0.839302 0.145834
vt 0.756739 0.145833
vt 0.793563 0.872143
vt 0.833251 0.875090
vt 0.797046 0.869737
vt 0.838604 0.869737
vt 0.833251 0.951759
vt 0.797045 0.957112
vt 0.802398 0.951759
vt 0.836734 0.877496
vt 0.842087 0.954706
vt 0.836734 0.949353
vt 0.803894 0.880978
vt 0.831756 0.945872
vt 0.831756 0.880978
vt 0.802399 0.875090
vt 0.592129 0.918719
vt 0.663157 0.874273
vt 0.663157 0.918719
vt 0.592129 0.874273
vt 0.663157 0.859934
vt 0.548633 0.848193
vt 0.517447 0.919221
vt 0.517447 0.848193
vt 0.592129 0.859934
vt 0.663157 0.826363
vt 0.507876 0.919221
vt 0.507876 0.848193
vt 0.465815 0.919221
vt 0.465815 0.848193
vt 0.465815 0.842300
vt 0.510260 0.842437
vt 0.465815 0.925115
vt 0.510260 0.924977
vt 0.548633 0.842299
vt 0.515063 0.842437
vt 0.548633 0.925115
vt 0.515063 0.924977
vt 0.663157 0.924612
vt 0.592129 0.820469
vt 0.592129 0.826363
vt 0.668913 0.862318
vt 0.586373 0.862318
vt 0.401275 0.258868
vt 0.415615 0.329896
vt 0.401275 0.329896
vt 0.415615 0.258868
vt 0.449185 0.329896
vt 0.356830 0.258869
vt 0.690618 0.880714
vt 0.761646 0.890285
vt 0.690618 0.890285
vt 0.690618 0.849528
vt 0.761646 0.880714
vt 0.761646 0.932346
vt 0.350936 0.329896
vt 0.356830 0.329896
vt 0.684725 0.932346
vt 0.684862 0.887901
vt 0.767540 0.849528
vt 0.767402 0.883098
vt 0.684725 0.849528
vt 0.684862 0.883098
vt 0.455079 0.258868
vt 0.449185 0.258868
vt 0.413231 0.253112
vt 0.767540 0.932346
vt 0.767402 0.887901
vt 0.413231 0.335652
vt 0.669260 0.310938
vt 0.836405 0.434053
vt 0.827474 0.375284
vt 0.795624 0.868128
vt 0.117917 0.320121
vt 0.792383 0.841998
vt 0.648251 0.926222
vt 0.080551 0.975156
vt 0.123387 0.774605
vt 0.679411 0.305373
vt 0.723871 0.416603
vt 0.766530 0.359146
vt 0.575996 0.842299
vt 0.481314 0.602849
vt 0.466049 0.703515
vt 0.466290 0.615412
vt 0.990515 0.139095
vt 0.144618 0.757232
vt 0.282596 0.491091
vt 0.378521 0.603240
vt 0.841034 0.686828
vt 0.413932 0.918871
vt 0.407842 0.823118
vt 0.344370 0.921753
vt 0.340389 0.827048
vt 0.588755 0.969649
vt 0.063287 0.975629
vt 0.060623 0.914034
vt 0.101582 0.911653
vt 0.693907 0.740588
vt 0.923211 0.862754
vt 0.842312 0.185456
vt 0.838604 0.957112
vt 0.842087 0.872143
vt 0.548633 0.919221
vt 0.592129 0.924612
vt 0.663157 0.820470
vt 0.668913 0.871889
vt 0.586373 0.871889
vt 0.761646 0.849528
vt 0.690618 0.932346
vt 0.350936 0.258869
vt 0.455079 0.329896
vt 0.403660 0.253112
vt 0.403660 0.335652
vn -0.0000 0.8664 0.4994
vn 0.0000 0.4994 -0.8664
vn -0.0000 -0.4994 0.8664
vn 1.0000 -0.0000 0.0000
vn 0.0000 -0.8664 -0.4994
vn -1.0000 0.0000 0.0000
vn 0.7071 -0.3531 0.6126
vn -0.7071 -0.3531 0.6126
vn -0.7071 0.3531 -0.6126
vn 0.7071 0.3531 -0.6126
vn -0.4437 -0.1838 -0.8772
vn -0.5098 0.0000 -0.8603
vn 0.0000 -0.6430 -0.7659
vn 0.0000 -0.5338 -0.8456
vn -0.0000 0.0000 -1.0000
vn 0.1838 -0.4437 -0.8772
vn -0.1838 -0.4437 -0.8772
vn 0.1838 0.4437 -0.8772
vn 0.4437 0.1838 -0.8772
vn 0.0000 -0.8659 -0.5003
vn -0.7071 -0.7071 0.0000
vn -0.7375 -0.6753 0.0000
vn -0.7207 0.6402 0.2660
vn -0.7157 0.6679 0.2043
vn -0.7220 0.6198 0.3076
vn -0.7338 -0.6793 0.0000
vn -0.7258 0.6539 -0.2135
vn -0.7157 0.6679 -0.2043
vn -0.6948 0.6948 -0.1859
vn 0.7375 -0.6753 0.0000
vn 0.7071 -0.7071 0.0000
vn 0.7207 0.6402 0.2660
vn 0.7157 0.6679 0.2043
vn 0.6948 0.6948 0.1859
vn 0.7338 -0.6793 0.0000
vn 0.7258 0.6539 -0.2135
vn 0.7157 0.6679 -0.2043
vn 0.7432 0.6285 -0.2296
vn 0.5371 -0.7965 -0.2777
vn 0.5341 -0.8129 -0.2321
vn 0.5291 -0.8294 -0.1790
vn -0.5773 -0.5774 -0.5774
vn 0.1899 0.4065 0.8937
vn -0.1835 0.4375 0.8803
vn -0.1899 0.4065 0.8937
vn 0.5773 -0.5774 -0.5774
vn -0.1838 0.4437 0.8772
vn -0.4437 0.1838 0.8772
vn 0.5098 0.0000 -0.8603
vn 0.0000 0.9660 -0.2585
vn 0.0000 -1.0000 0.0000
vn 0.4437 -0.1838 0.8772
vn 0.5098 0.0000 0.8603
vn -0.5098 0.0000 0.8603
vn 0.0000 0.9660 0.2585
vn 0.0000 0.9241 0.3822
vn -0.7071 0.0000 -0.7071
vn 0.7493 -0.5758 0.3271
vn 0.7091 -0.6110 0.3520
vn 0.7071 -0.6126 0.3531
vn 0.7071 0.0000 -0.7071
vn -0.0000 -0.7071 -0.7071
vn -0.7493 -0.5758 0.3271
vn -0.7091 -0.6110 0.3520
vn -0.7509 -0.5743 0.3261
vn -0.7491 -0.6625 0.0000
vn -0.7535 -0.6574 0.0000
vn -0.7071 0.6126 0.3531
vn 0.7491 -0.6625 0.0000
vn 0.3437 0.2292 0.9107
vn 0.1835 0.4375 0.8803
vn 0.7220 0.6198 0.3076
vn 0.7071 0.6126 0.3531
vn 0.1838 0.4437 0.8772
vn 0.4437 0.1838 0.8772
vn 0.1021 0.9948 0.0000
vn 0.0000 1.0000 0.0000
vn -0.4437 -0.1838 0.8772
vn -0.1838 -0.4437 0.8772
vn 0.4437 -0.1838 -0.8772
vn 0.1838 -0.4437 0.8772
vn -0.1838 0.4437 -0.8772
vn -0.4437 0.1838 -0.8772
vn -0.8535 0.0000 0.5210
vn 0.7511 0.6602 0.0000
vn 0.0000 -0.9027 -0.4303
vn 0.9759 0.0000 -0.2182
vn -0.9573 0.0000 0.2892
vn -0.7183 -0.6313 0.2923
vn 0.6599 0.6599 -0.3593
vn 0.9037 0.0000 -0.4281
vn 0.2745 0.9616 0.0000
vn 0.0000 0.9885 -0.1511
vn 0.0000 0.9885 -0.1510
vn -0.6599 0.6599 -0.3593
vn 0.9037 0.0000 0.4281
vn 0.0000 0.9885 0.1511
vn 0.0000 0.9885 0.1510
vn -0.9037 0.0000 0.4281
vn -0.6599 0.6599 0.3593
vn -0.9037 0.0000 -0.4281
vn 0.6599 0.6599 0.3593
vn -0.4268 0.9043 0.0000
vn -0.2745 0.9616 0.0000
vn -0.0000 0.0000 1.0000
vn 0.0000 0.9846 -0.1748
vn 0.0000 0.9846 0.1748
vn 0.0000 -0.8834 -0.4687
vn 0.0000 0.8834 0.4687
vn 0.7400 0.0000 -0.6726
vn 0.0000 0.8834 -0.4687
vn -0.7400 0.0000 -0.6726
vn 0.7400 0.0000 0.6726
vn -0.7400 0.0000 0.6726
vn 0.0000 -0.8834 0.4687
vn 0.0000 -0.2161 0.9764
vn -0.8041 -0.5944 0.0000
vn 0.5731 0.5731 0.5857
vn 0.0000 -0.9194 0.3933
vn 0.8535 0.0000 0.5210
vn 0.0000 -0.0878 0.9961
vn -0.7819 0.0000 0.6234
vn -0.8555 0.0000 0.5179
vn 0.0000 0.9053 0.4247
vn -0.5731 0.5731 0.5857
vn -0.6201 -0.5372 0.5717
vn 0.6201 -0.5372 0.5717
vn 0.0000 -0.9768 0.2142
vn 0.8555 0.0000 0.5179
vn 0.0000 0.9768 0.2142
vn 0.0000 0.8870 0.4617
vn 0.7819 0.0000 0.6234
vn 0.0000 -0.8870 0.4617
vn -0.9573 0.0000 -0.2892
vn 0.0000 -0.9027 0.4303
vn 0.0000 0.9468 -0.3219
vn 0.9759 0.0000 0.2182
vn -0.7183 -0.6313 -0.2923
vn 0.0000 0.9468 0.3219
vn 0.0000 0.8658 -0.5004
vn 0.0000 0.7151 -0.6990
vn -0.6500 0.5307 -0.5440
vn -0.6602 0.5479 -0.5137
vn -0.5510 0.3899 -0.7378
vn 0.6602 0.5479 -0.5137
vn 0.6500 0.5307 -0.5440
vn 0.5510 0.3899 -0.7378
vn 0.0000 0.5096 -0.8604
vn -0.6947 0.6236 -0.3585
vn -0.6944 0.6238 -0.3586
vn 0.6947 0.6236 -0.3585
vn -0.3437 0.2292 0.9107
vn -0.3246 0.1625 0.9318
vn -0.5371 -0.7965 -0.2777
vn -0.5341 -0.8129 -0.2321
vn -0.5386 -0.7814 -0.3153
vn 0.0000 -0.5338 0.8456
vn 0.8041 -0.5944 0.0000
vn 0.0000 -0.3010 -0.9536
vn 0.0000 -0.3010 0.9536
vn 0.0000 0.7366 -0.6764
vn 0.8064 0.5124 0.2953
vn -0.8064 0.5124 0.2953
vn -0.0031 1.0000 0.0000
vn -0.7071 0.7071 0.0000
vn -1.0000 0.0041 0.0000
vn 0.7071 0.7071 0.0000
vn 1.0000 0.0041 0.0000
vn 0.0031 1.0000 0.0000
vn -0.6948 0.6948 0.1859
vn -0.7432 0.6285 -0.2296
vn 0.6948 0.6948 -0.1859
vn 0.5386 -0.7814 -0.3153
vn 0.7509 -0.5743 0.3261
vn -0.7071 -0.6126 0.3531
vn 0.3246 0.1625 0.9318
vn 0.7535 -0.6574 0.0000
vn 0.6944 0.6238 -0.3586
vn -0.5291 -0.8294 -0.1790
s 1
f 8/1/1 2/2/1 7/3/1
f 4/4/1 8/1/1 5/5/1
f 4/4/1 6/6/1 3/7/1
f 25/8/2 35/9/2 28/10/2
f 31/11/3 37/12/3 30/13/3
f 27/14/4 39/15/4 32/16/4
f 15/17/4 17/18/4 22/19/4
f 12/20/5 25/8/5 28/10/5
f 13/21/2 21/22/2 24/23/2
f 19/24/1 34/25/1 18/26/1
f 22/19/1 33/27/1 38/28/1
f 20/29/1 39/15/1 36/30/1
f 21/22/1 40/31/1 24/23/1
f 29/32/6 33/27/6 26/33/6
f 11/34/5 32/16/5 14/35/5
f 16/36/5 31/11/5 30/13/5
f 14/37/6 20/29/6 11/38/6
f 15/39/5 26/33/5 10/40/5
f 39/15/7 31/11/7 32/16/7
f 29/32/8 37/12/8 38/28/8
f 34/25/9 26/33/9 33/27/9
f 28/10/10 36/41/10 27/42/10
f 11/43/5 28/10/5 27/42/5
f 26/33/5 9/44/5 10/40/5
f 30/13/5 15/39/5 16/36/5
f 31/11/5 14/35/5 32/16/5
f 33/27/1 18/26/1 34/25/1
f 20/45/1 35/9/1 19/24/1
f 37/12/1 22/19/1 38/28/1
f 40/31/1 23/46/1 24/23/1
f 11/47/8 19/24/8 12/48/8
f 14/37/9 24/23/9 23/46/9
f 21/22/10 15/17/10 22/19/10
f 10/49/7 18/26/7 17/18/7
f 12/48/3 18/26/3 9/50/3
f 51/51/11 100/52/12 93/53/12
f 73/54/13 245/55/14 71/56/13
f 98/57/15 70/58/15 97/59/15
f 64/60/16 79/61/17 50/62/17
f 67/63/18 90/64/19 68/65/19
f 69/66/20 230/67/20 72/68/20
f 42/69/21 44/70/22 41/71/21
f 253/72/23 48/73/24 45/74/25
f 49/75/26 51/76/21 234/77/21
f 53/78/27 54/79/28 52/80/29
f 56/81/30 58/82/31 55/83/31
f 254/84/32 62/85/33 59/86/34
f 63/87/31 65/88/35 243/89/31
f 66/90/36 68/91/37 236/92/38
f 72/68/39 232/93/40 244/94/41
f 242/95/42 70/58/42 71/96/42
f 66/97/43 223/98/44 53/99/45
f 240/100/46 73/101/46 74/102/46
f 45/74/6 92/103/6 91/104/6
f 47/105/47 78/106/48 48/107/48
f 233/108/6 51/76/6 93/109/6
f 68/65/19 203/110/49 94/111/49
f 67/112/50 53/78/50 52/80/50
f 63/87/4 235/113/4 94/114/4
f 50/115/51 65/116/51 64/117/51
f 58/118/52 204/119/53 96/120/53
f 95/121/4 58/82/4 96/122/4
f 48/107/48 99/123/54 92/124/54
f 47/125/55 254/126/56 59/127/55
f 57/128/51 44/70/51 43/129/51
f 97/59/57 242/95/57 237/130/57
f 244/94/58 225/131/59 236/132/60
f 240/100/61 98/57/61 239/133/61
f 71/96/13 74/102/62 73/101/13
f 238/134/63 224/135/64 228/136/65
f 49/75/26 242/95/21 71/96/66
f 41/71/21 171/137/67 170/138/21
f 255/139/68 45/74/25 158/140/68
f 73/101/69 243/89/31 65/88/35
f 66/97/43 225/141/70 226/142/71
f 61/143/72 256/144/73 167/145/73
f 59/146/74 85/147/75 86/148/74
f 79/149/51 199/150/51 76/151/51
f 202/152/51 206/153/51 199/150/51
f 76/151/21 80/154/21 79/149/21
f 204/155/76 210/156/77 203/157/76
f 100/158/6 75/159/6 99/160/6
f 59/146/74 77/161/47 47/105/47
f 42/162/78 76/163/79 43/164/79
f 51/51/11 79/61/17 80/165/11
f 63/166/80 202/167/16 64/60/16
f 43/164/79 199/168/81 57/169/81
f 58/118/52 199/168/81 200/170/52
f 52/171/82 81/172/83 82/173/82
f 52/171/82 89/174/18 67/63/18
f 239/133/61 72/68/61 244/94/61
f 69/66/57 237/130/57 238/134/57
f 42/162/78 99/123/54 75/175/78
f 61/143/4 96/122/4 62/85/4
f 62/176/75 204/119/53 85/147/75
f 94/114/4 236/132/4 68/177/4
f 63/166/80 203/110/49 201/178/80
f 241/179/6 93/109/6 54/79/6
f 91/104/6 42/69/6 41/71/6
f 161/180/84 186/181/84 153/182/84
f 72/68/15 97/59/15 69/66/15
f 54/183/83 100/52/12 81/172/83
f 205/184/85 208/185/85 210/156/85
f 209/186/4 207/187/4 206/153/4
f 107/188/86 217/189/86 101/190/86
f 87/191/87 217/189/87 213/192/87
f 104/193/88 220/194/88 103/195/88
f 104/196/89 219/197/89 212/198/89
f 86/199/90 125/200/90 126/201/90
f 85/202/91 130/203/91 125/200/91
f 203/157/76 130/204/92 204/155/76
f 77/205/93 126/201/94 121/206/93
f 77/207/95 122/208/95 78/209/95
f 117/210/4 138/211/4 111/212/4
f 114/213/51 141/214/51 109/215/51
f 109/216/31 139/217/31 110/218/31
f 119/219/4 133/220/4 117/221/4
f 115/222/21 137/223/21 116/224/21
f 90/64/96 132/225/96 203/110/96
f 82/173/97 127/226/98 89/174/98
f 81/172/99 129/227/99 123/228/99
f 82/173/100 123/229/100 124/230/100
f 78/209/101 131/231/101 99/232/101
f 89/174/102 128/233/102 90/64/102
f 100/158/103 131/234/104 129/235/104
f 109/216/15 122/208/15 121/236/15
f 112/237/105 123/238/105 111/212/105
f 114/213/15 125/200/15 113/239/15
f 115/222/105 128/240/105 127/241/105
f 111/212/105 129/242/105 117/210/105
f 115/222/105 124/243/105 112/237/105
f 113/239/15 130/203/15 118/244/15
f 109/215/15 126/201/15 114/213/15
f 110/218/15 131/231/15 122/208/15
f 116/224/105 132/245/105 128/240/105
f 117/210/77 131/231/104 119/246/77
f 118/244/77 132/247/92 120/248/77
f 135/249/106 134/250/107 133/251/107
f 140/252/108 151/253/108 139/254/108
f 138/255/105 144/256/105 142/257/105
f 134/250/107 145/258/109 133/251/107
f 143/259/15 139/254/15 141/260/15
f 120/261/6 136/262/6 118/263/6
f 111/212/31 142/264/31 112/237/31
f 119/246/4 139/217/4 135/265/4
f 112/237/51 144/266/51 115/222/51
f 113/239/21 143/267/21 114/213/21
f 120/268/6 137/223/6 134/269/6
f 118/244/6 140/270/6 113/239/6
f 145/258/105 149/271/105 150/272/105
f 148/273/15 151/253/15 152/274/15
f 139/275/110 147/276/110 135/277/110
f 135/249/106 148/273/111 136/278/106
f 140/279/112 148/273/112 152/274/112
f 138/280/113 145/258/113 150/272/113
f 137/281/114 146/282/114 134/283/114
f 138/255/115 149/271/115 137/284/115
f 91/104/6 158/140/6 45/74/6
f 55/83/4 165/285/4 166/286/4
f 166/286/31 56/81/30 55/83/31
f 95/121/4 167/145/4 165/285/4
f 46/287/116 258/288/116 60/289/116
f 44/290/22 252/291/117 171/292/67
f 41/71/6 163/293/6 91/104/6
f 156/294/118 185/295/118 155/296/118
f 157/297/119 179/298/119 160/299/119
f 162/300/120 191/301/120 164/302/120
f 164/303/105 163/304/105 162/305/105
f 153/306/105 165/307/105 161/308/105
f 160/309/105 167/310/105 256/311/105
f 157/312/105 158/313/105 164/303/105
f 155/314/105 171/315/121 156/316/105
f 153/306/105 172/317/121 166/318/105
f 159/319/105 165/307/105 167/310/105
f 160/309/105 255/320/105 157/312/105
f 156/316/105 172/317/121 154/321/105
f 155/314/105 163/304/105 170/322/105
f 179/298/105 191/323/105 192/324/105
f 173/325/122 197/326/122 195/327/122
f 177/328/123 187/329/123 175/330/123
f 186/331/105 181/332/105 182/333/105
f 154/334/124 181/332/124 156/335/124
f 154/336/125 186/331/125 182/333/125
f 160/337/126 192/324/126 159/338/126
f 162/339/120 185/340/120 193/341/120
f 161/342/84 192/343/84 194/344/84
f 157/345/127 191/323/127 180/346/127
f 176/347/105 193/348/105 175/349/105
f 178/350/105 185/295/105 186/331/105
f 176/351/105 186/181/105 194/352/105
f 175/330/105 185/340/105 177/328/105
f 188/353/105 189/354/105 190/355/105
f 178/350/128 189/354/128 177/356/128
f 176/351/129 190/355/129 178/357/129
f 176/347/130 187/329/130 188/353/130
f 173/358/105 192/324/105 191/323/105
f 183/359/105 194/360/105 184/361/105
f 173/325/105 193/362/105 183/363/105
f 184/364/105 192/343/105 174/365/105
f 196/366/105 197/326/105 198/367/105
f 173/358/131 196/366/131 174/368/131
f 174/365/132 198/367/132 184/364/132
f 183/359/133 198/367/133 197/326/133
f 83/369/105 200/170/105 199/168/105
f 88/370/15 201/178/15 87/371/15
f 101/372/15 201/178/15 203/110/15
f 102/373/105 205/374/105 204/119/105
f 102/373/105 200/170/105 84/375/105
f 103/376/105 207/377/105 104/378/105
f 106/379/15 208/380/15 209/381/15
f 107/382/15 208/380/15 105/383/15
f 108/384/105 207/377/105 205/374/105
f 101/372/15 210/385/15 107/382/15
f 88/370/15 209/381/15 202/167/15
f 83/369/105 206/386/105 103/376/105
f 218/387/105 212/198/105 219/197/105
f 213/192/15 221/388/15 216/389/15
f 211/390/105 220/194/105 212/198/105
f 217/189/15 214/391/15 213/192/15
f 105/392/134 221/388/134 214/391/134
f 108/393/135 218/387/135 219/197/135
f 88/394/136 221/388/136 106/395/136
f 84/396/137 215/397/137 211/390/137
f 105/398/138 222/399/138 107/400/138
f 84/396/137 218/387/137 102/401/137
f 83/402/139 220/194/139 215/397/139
f 87/191/87 216/389/87 88/403/87
f 226/142/140 229/404/141 223/98/140
f 228/405/142 229/404/143 227/406/144
f 231/407/145 232/408/146 230/409/147
f 229/404/141 230/409/148 227/406/148
f 229/404/143 224/410/149 223/98/150
f 231/407/145 225/411/151 232/412/146
f 53/99/45 224/413/152 241/414/153
f 69/66/154 228/136/155 227/415/156
f 233/108/6 238/134/6 237/130/6
f 234/77/6 237/130/6 242/95/6
f 244/94/4 235/113/4 239/133/4
f 239/133/4 243/89/4 240/100/4
f 49/416/26 245/55/117 248/417/117
f 49/418/157 247/419/157 65/420/157
f 65/421/35 246/422/158 73/423/69
f 248/417/51 246/422/51 247/419/51
f 249/424/51 252/291/51 250/425/51
f 56/426/30 251/427/158 249/424/158
f 56/428/159 250/425/159 44/429/159
f 171/315/121 251/427/160 172/317/121
f 60/289/1 253/430/56 46/287/1
f 169/431/1 253/432/56 255/433/1
f 168/434/1 254/435/56 60/436/1
f 169/437/1 256/438/1 168/439/1
f 257/440/1 260/441/1 258/288/1
f 168/439/161 259/442/161 169/437/161
f 46/443/162 259/442/162 257/440/162
f 60/436/163 260/441/163 168/434/163
f 273/444/164 261/445/164 274/446/164
f 264/447/165 262/448/165 261/445/165
f 275/449/4 268/450/4 271/451/4
f 263/452/166 269/453/166 262/448/166
f 271/451/31 267/454/31 272/455/31
f 272/455/51 276/456/51 265/457/51
f 272/455/105 274/458/105 261/459/105
f 273/460/15 267/454/15 264/461/15
f 269/462/105 271/451/105 262/463/105
f 268/450/15 270/464/15 263/465/15
f 265/466/4 273/444/4 274/446/4
f 266/467/51 269/453/51 270/468/51
f 271/469/105 261/445/105 262/448/105
f 264/447/15 268/470/15 263/452/15
f 278/471/167 280/472/167 279/473/167
f 277/474/168 281/475/168 280/472/168
f 279/473/169 284/476/169 278/471/169
f 288/477/21 286/478/21 287/479/21
f 291/480/6 285/481/6 288/477/6
f 292/482/51 287/479/51 286/478/51
f 289/483/6 284/476/6 283/484/6
f 287/479/15 283/485/15 279/486/15
f 285/481/105 282/487/105 277/488/105
f 281/489/15 288/477/15 280/490/15
f 290/491/51 281/475/51 282/492/51
f 278/471/105 285/493/105 277/474/105
f 284/494/105 286/478/105 278/495/105
f 288/496/15 279/473/15 280/472/15
f 8/1/1 1/497/1 2/2/1
f 4/4/1 1/497/1 8/1/1
f 4/4/1 5/5/1 6/6/1
f 25/8/2 34/25/2 35/9/2
f 31/11/3 40/31/3 37/12/3
f 27/14/4 36/30/4 39/15/4
f 15/17/4 10/49/4 17/18/4
f 12/20/5 9/44/5 25/8/5
f 13/21/2 16/498/2 21/22/2
f 19/24/1 35/9/1 34/25/1
f 22/19/1 17/18/1 33/27/1
f 20/29/1 23/46/1 39/15/1
f 21/22/1 37/12/1 40/31/1
f 29/32/6 38/28/6 33/27/6
f 11/34/5 27/14/5 32/16/5
f 16/36/5 13/499/5 31/11/5
f 14/37/6 23/46/6 20/29/6
f 15/39/5 29/32/5 26/33/5
f 39/15/7 40/31/7 31/11/7
f 29/32/8 30/13/8 37/12/8
f 34/25/9 25/8/9 26/33/9
f 28/10/10 35/9/10 36/41/10
f 11/43/5 12/20/5 28/10/5
f 26/33/5 25/8/5 9/44/5
f 30/13/5 29/32/5 15/39/5
f 31/11/5 13/499/5 14/35/5
f 33/27/1 17/18/1 18/26/1
f 20/45/1 36/41/1 35/9/1
f 37/12/1 21/22/1 22/19/1
f 40/31/1 39/15/1 23/46/1
f 11/47/8 20/45/8 19/24/8
f 14/37/9 13/21/9 24/23/9
f 21/22/10 16/498/10 15/17/10
f 10/49/7 9/50/7 18/26/7
f 12/48/3 19/24/3 18/26/3
f 51/51/11 80/165/11 100/52/12
f 73/54/13 246/422/14 245/55/14
f 98/57/15 74/102/15 70/58/15
f 64/60/16 202/167/16 79/61/17
f 67/63/18 89/174/18 90/64/19
f 69/66/20 227/415/20 230/67/20
f 42/69/21 43/129/21 44/70/22
f 253/72/23 47/500/170 48/73/24
f 49/75/26 50/115/21 51/76/21
f 53/78/27 241/179/171 54/79/28
f 56/81/30 57/128/31 58/82/31
f 254/84/32 61/143/72 62/85/33
f 63/87/31 64/501/31 65/88/35
f 66/90/36 67/112/172 68/91/37
f 72/68/39 230/67/173 232/93/40
f 66/97/43 226/142/71 223/98/44
f 45/74/6 48/73/6 92/103/6
f 47/105/47 77/161/47 78/106/48
f 233/108/6 234/77/6 51/76/6
f 68/65/19 90/64/19 203/110/49
f 67/112/50 66/90/50 53/78/50
f 63/87/4 243/89/4 235/113/4
f 50/115/51 49/75/51 65/116/51
f 58/118/52 200/170/52 204/119/53
f 95/121/4 55/83/4 58/82/4
f 48/107/48 78/106/48 99/123/54
f 47/125/55 253/430/56 254/126/56
f 57/128/51 56/81/51 44/70/51
f 97/59/57 70/58/57 242/95/57
f 244/94/58 232/93/174 225/131/59
f 240/100/61 74/102/61 98/57/61
f 71/96/13 70/58/62 74/102/62
f 238/134/63 241/179/175 224/135/64
f 49/75/26 234/77/21 242/95/21
f 41/71/21 44/70/22 171/137/67
f 255/139/68 253/72/23 45/74/25
f 73/101/69 240/100/31 243/89/31
f 66/97/43 236/502/176 225/141/70
f 61/143/72 254/84/32 256/144/73
f 59/146/74 62/176/75 85/147/75
f 79/149/51 202/152/51 199/150/51
f 202/152/51 209/186/51 206/153/51
f 76/151/21 75/159/21 80/154/21
f 204/155/76 205/184/77 210/156/77
f 100/158/6 80/154/6 75/159/6
f 59/146/74 86/148/74 77/161/47
f 42/162/78 75/175/78 76/163/79
f 51/51/11 50/62/17 79/61/17
f 63/166/80 201/178/80 202/167/16
f 43/164/79 76/163/79 199/168/81
f 58/118/52 57/169/81 199/168/81
f 52/171/82 54/183/83 81/172/83
f 52/171/82 82/173/82 89/174/18
f 239/133/61 98/57/61 72/68/61
f 69/66/57 97/59/57 237/130/57
f 42/162/78 92/124/54 99/123/54
f 61/143/4 95/121/4 96/122/4
f 62/176/75 96/120/53 204/119/53
f 94/114/4 235/113/4 236/132/4
f 63/166/80 94/111/49 203/110/49
f 241/179/6 233/108/6 93/109/6
f 91/104/6 92/103/6 42/69/6
f 161/180/84 194/352/84 186/181/84
f 72/68/15 98/57/15 97/59/15
f 54/183/83 93/53/12 100/52/12
f 205/184/85 207/187/85 208/185/85
f 209/186/4 208/185/4 207/187/4
f 107/188/86 222/399/86 217/189/86
f 87/191/87 101/503/87 217/189/87
f 104/193/88 212/198/88 220/194/88
f 104/196/89 108/504/89 219/197/89
f 86/199/90 85/202/90 125/200/90
f 85/202/91 204/505/91 130/203/91
f 203/157/76 132/506/92 130/204/92
f 77/205/93 86/199/94 126/201/94
f 77/207/95 121/236/95 122/208/95
f 117/210/4 133/507/4 138/211/4
f 114/213/51 143/267/51 141/214/51
f 109/216/31 141/508/31 139/217/31
f 119/219/4 135/509/4 133/220/4
f 115/222/21 144/266/21 137/223/21
f 90/64/96 128/510/96 132/225/96
f 82/173/97 124/511/97 127/226/98
f 81/172/99 100/52/99 129/227/99
f 82/173/100 81/172/100 123/229/100
f 78/209/101 122/208/101 131/231/101
f 89/174/102 127/512/102 128/233/102
f 100/158/103 99/160/103 131/234/104
f 109/216/15 110/218/15 122/208/15
f 112/237/105 124/243/105 123/238/105
f 114/213/15 126/201/15 125/200/15
f 115/222/105 116/224/105 128/240/105
f 111/212/105 123/238/105 129/242/105
f 115/222/105 127/241/105 124/243/105
f 113/239/15 125/200/15 130/203/15
f 109/215/15 121/206/15 126/201/15
f 110/218/15 119/246/15 131/231/15
f 116/224/105 120/268/105 132/245/105
f 117/210/77 129/242/104 131/231/104
f 118/244/77 130/203/92 132/247/92
f 135/249/106 136/278/106 134/250/107
f 140/252/108 152/274/108 151/253/108
f 138/255/105 137/284/105 144/256/105
f 134/250/107 146/282/109 145/258/109
f 143/259/15 140/252/15 139/254/15
f 120/261/6 134/513/6 136/262/6
f 111/212/31 138/211/31 142/264/31
f 119/246/4 110/218/4 139/217/4
f 112/237/51 142/264/51 144/266/51
f 113/239/21 140/270/21 143/267/21
f 120/268/6 116/224/6 137/223/6
f 118/244/6 136/514/6 140/270/6
f 145/258/105 146/282/105 149/271/105
f 148/273/15 147/276/15 151/253/15
f 139/275/110 151/253/110 147/276/110
f 135/249/106 147/276/111 148/273/111
f 140/279/112 136/515/112 148/273/112
f 138/280/113 133/516/113 145/258/113
f 137/281/114 149/271/114 146/282/114
f 138/255/115 150/272/115 149/271/115
f 91/104/6 163/293/6 158/140/6
f 55/83/4 95/121/4 165/285/4
f 166/286/31 172/517/177 56/81/30
f 95/121/4 61/143/4 167/145/4
f 46/287/116 257/440/116 258/288/116
f 44/290/22 250/425/117 252/291/117
f 41/71/6 170/138/6 163/293/6
f 156/294/118 181/332/118 185/295/118
f 157/297/119 180/346/119 179/298/119
f 162/300/120 193/362/120 191/301/120
f 164/303/105 158/313/105 163/304/105
f 153/306/105 166/318/105 165/307/105
f 160/309/105 159/319/105 167/310/105
f 157/312/105 255/320/105 158/313/105
f 155/314/105 170/322/105 171/315/121
f 153/306/105 154/321/105 172/317/121
f 159/319/105 161/308/105 165/307/105
f 160/309/105 256/311/105 255/320/105
f 156/316/105 171/315/121 172/317/121
f 155/314/105 162/305/105 163/304/105
f 179/298/105 180/346/105 191/323/105
f 173/325/122 183/363/122 197/326/122
f 177/328/123 189/354/123 187/329/123
f 186/331/105 185/295/105 181/332/105
f 154/334/124 182/333/124 181/332/124
f 154/336/125 153/518/125 186/331/125
f 160/337/126 179/298/126 192/324/126
f 162/339/120 155/519/120 185/340/120
f 161/342/84 159/520/84 192/343/84
f 157/345/127 164/521/127 191/323/127
f 176/347/105 194/360/105 193/348/105
f 178/350/105 177/356/105 185/295/105
f 176/351/105 178/357/105 186/181/105
f 175/330/105 193/341/105 185/340/105
f 188/353/105 187/329/105 189/354/105
f 178/350/128 190/355/128 189/354/128
f 176/351/129 188/353/129 190/355/129
f 176/347/130 175/349/130 187/329/130
f 173/358/105 174/368/105 192/324/105
f 183/359/105 193/348/105 194/360/105
f 173/325/105 191/301/105 193/362/105
f 184/364/105 194/344/105 192/343/105
f 196/366/105 195/327/105 197/326/105
f 173/358/131 195/327/131 196/366/131
f 174/365/132 196/366/132 198/367/132
f 183/359/133 184/361/133 198/367/133
f 83/369/105 84/375/105 200/170/105
f 88/370/15 202/167/15 201/178/15
f 101/372/15 87/371/15 201/178/15
f 102/373/105 108/384/105 205/374/105
f 102/373/105 204/119/105 200/170/105
f 103/376/105 206/386/105 207/377/105
f 106/379/15 105/383/15 208/380/15
f 107/382/15 210/385/15 208/380/15
f 108/384/105 104/378/105 207/377/105
f 101/372/15 203/110/15 210/385/15
f 88/370/15 106/379/15 209/381/15
f 83/369/105 199/168/105 206/386/105
f 218/387/105 211/390/105 212/198/105
f 213/192/15 214/391/15 221/388/15
f 211/390/105 215/397/105 220/194/105
f 217/189/15 222/399/15 214/391/15
f 105/392/134 106/522/134 221/388/134
f 108/393/135 102/523/135 218/387/135
f 88/394/136 216/389/136 221/388/136
f 84/396/137 83/524/137 215/397/137
f 105/398/138 214/391/138 222/399/138
f 84/396/137 211/390/137 218/387/137
f 83/402/139 103/525/139 220/194/139
f 87/191/87 213/192/87 216/389/87
f 226/142/140 231/407/141 229/404/141
f 229/404/141 231/407/141 230/409/148
f 229/404/143 228/526/142 224/410/149
f 231/407/145 226/142/178 225/411/151
f 53/99/45 223/98/44 224/413/152
f 69/66/154 238/134/179 228/136/155
f 233/108/6 241/179/6 238/134/6
f 234/77/6 233/108/6 237/130/6
f 244/94/4 236/132/4 235/113/4
f 239/133/4 235/113/4 243/89/4
f 49/416/26 71/527/66 245/55/117
f 49/418/157 248/417/157 247/419/157
f 65/421/35 247/419/158 246/422/158
f 248/417/51 245/55/51 246/422/51
f 249/424/51 251/427/51 252/291/51
f 56/426/30 172/528/177 251/427/158
f 56/428/159 249/424/159 250/425/159
f 171/315/121 252/291/160 251/427/160
f 60/289/1 254/126/56 253/430/56
f 169/431/1 46/443/1 253/432/56
f 168/434/1 256/529/1 254/435/56
f 169/437/1 255/530/1 256/438/1
f 257/440/1 259/442/1 260/441/1
f 168/439/161 260/441/161 259/442/161
f 46/443/162 169/431/162 259/442/162
f 60/436/163 258/288/163 260/441/163
f 273/444/164 264/447/164 261/445/164
f 264/447/165 263/452/165 262/448/165
f 275/449/4 266/531/4 268/450/4
f 263/452/166 270/468/166 269/453/166
f 271/451/31 268/450/31 267/454/31
f 272/455/51 267/454/51 276/456/51
f 272/455/105 265/457/105 274/458/105
f 273/460/15 276/456/15 267/454/15
f 269/462/105 275/449/105 271/451/105
f 268/450/15 266/531/15 270/464/15
f 265/466/4 276/532/4 273/444/4
f 266/467/51 275/533/51 269/453/51
f 271/469/105 272/534/105 261/445/105
f 264/447/15 267/535/15 268/470/15
f 278/471/167 277/474/167 280/472/167
f 277/474/168 282/492/168 281/475/168
f 279/473/169 283/484/169 284/476/169
f 288/477/21 285/481/21 286/478/21
f 291/480/6 290/536/6 285/481/6
f 292/482/51 289/537/51 287/479/51
f 289/483/6 292/538/6 284/476/6
f 287/479/15 289/537/15 283/485/15
f 285/481/105 290/536/105 282/487/105
f 281/489/15 291/480/15 288/477/15
f 290/491/51 291/539/51 281/475/51
f 278/471/105 286/540/105 285/493/105
f 284/494/105 292/482/105 286/478/105
f 288/496/15 287/541/15 279/473/15
