# Blender v2.82 (sub 7) OBJ File: ''
# www.blender.org
o lowpoly_Меш
v -0.307500 0.992900 -0.212800
v -0.300400 1.000000 -0.212334
v -0.212800 0.992900 -0.307500
v -0.212335 1.000000 -0.300400
v 0.212800 0.992900 -0.307500
v 0.212335 1.000000 -0.300400
v 0.307500 0.992900 -0.212800
v 0.300400 1.000000 -0.212334
v 0.307500 0.992900 0.212800
v 0.300400 1.000000 0.212335
v 0.212800 0.992900 0.307500
v 0.212335 1.000000 0.300400
v -0.212800 0.992900 0.307500
v -0.212335 1.000000 0.300400
v -0.307500 0.992900 0.212800
v -0.300400 1.000000 0.212335
v 0.304273 0.992900 -0.237310
v 0.297356 1.000000 -0.235457
v 0.294813 0.992900 -0.260150
v 0.288611 1.000000 -0.256569
v 0.279763 0.992900 -0.279763
v 0.274699 1.000000 -0.274699
v 0.260150 0.992900 -0.294812
v 0.256569 1.000000 -0.288611
v 0.237310 0.992900 -0.304273
v 0.235457 1.000000 -0.297356
v -0.304273 0.992900 -0.237310
v -0.297356 1.000000 -0.235457
v -0.294813 0.992900 -0.260150
v -0.288611 1.000000 -0.256569
v -0.279763 0.992900 -0.279763
v -0.274699 1.000000 -0.274699
v -0.260150 0.992900 -0.294812
v -0.256569 1.000000 -0.288611
v -0.237310 0.992900 -0.304273
v -0.235457 1.000000 -0.297356
v 0.237310 0.992900 0.304273
v 0.235457 1.000000 0.297356
v 0.260150 0.992900 0.294813
v 0.256569 1.000000 0.288611
v 0.279763 0.992900 0.279763
v 0.274699 1.000000 0.274699
v 0.294813 0.992900 0.260150
v 0.288611 1.000000 0.256570
v 0.304273 0.992900 0.237310
v 0.297356 1.000000 0.235457
v -0.304273 0.992900 0.237310
v -0.297356 1.000000 0.235457
v -0.294813 0.992900 0.260150
v -0.288611 1.000000 0.256570
v -0.279763 0.992900 0.279763
v -0.274699 1.000000 0.274699
v -0.260150 0.992900 0.294813
v -0.256569 1.000000 0.288611
v -0.237310 0.992900 0.304273
v -0.235457 1.000000 0.297356
v -0.236767 0.997921 -0.302247
v -0.259101 0.997921 -0.292996
v -0.278280 0.997921 -0.278280
v -0.292996 0.997921 -0.259101
v -0.302247 0.997921 -0.236767
v -0.305420 0.997921 -0.212664
v -0.305420 0.997920 0.212664
v -0.302247 0.997920 0.236767
v -0.292996 0.997920 0.259101
v -0.278280 0.997920 0.278280
v -0.259101 0.997920 0.292996
v -0.236767 0.997920 0.302247
v -0.212664 0.997920 0.305421
v 0.212664 0.997920 0.305421
v 0.236767 0.997920 0.302247
v 0.259101 0.997920 0.292996
v 0.278280 0.997920 0.278280
v 0.292996 0.997920 0.259101
v 0.302247 0.997920 0.236767
v 0.305420 0.997920 0.212664
v 0.305420 0.997921 -0.212664
v 0.302247 0.997921 -0.236767
v 0.292996 0.997921 -0.259101
v 0.278280 0.997921 -0.278280
v 0.259101 0.997921 -0.292996
v 0.236767 0.997921 -0.302247
v 0.212664 0.997921 -0.305420
v -0.212664 0.997921 -0.305420
v -0.307500 0.018300 -0.212800
v -0.289200 0.000000 -0.211601
v -0.212800 0.018300 -0.307500
v -0.211601 0.000000 -0.289200
v 0.212800 0.018300 -0.307500
v 0.211601 0.000000 -0.289200
v 0.307500 0.018300 -0.212800
v 0.289200 0.000000 -0.211601
v 0.307500 0.018300 0.212800
v 0.289200 -0.000000 0.211601
v 0.212800 0.018300 0.307500
v 0.211601 -0.000000 0.289200
v -0.307500 0.018300 0.212800
v -0.289200 -0.000000 0.211601
v -0.212800 0.018300 0.307500
v -0.211601 -0.000000 0.289200
v 0.304273 0.018300 -0.237310
v 0.286444 0.000000 -0.232533
v 0.294813 0.018300 -0.260150
v 0.278828 0.000000 -0.250921
v 0.279763 0.018300 -0.279763
v 0.266711 0.000000 -0.266711
v 0.260150 0.018300 -0.294813
v 0.250921 0.000000 -0.278828
v 0.237310 0.018300 -0.304273
v 0.232533 0.000000 -0.286444
v -0.304273 0.018300 -0.237310
v -0.286444 0.000000 -0.232533
v -0.294813 0.018300 -0.260150
v -0.278828 0.000000 -0.250921
v -0.279763 0.018300 -0.279763
v -0.266711 0.000000 -0.266711
v -0.260150 0.018300 -0.294813
v -0.250921 0.000000 -0.278828
v -0.237310 0.018300 -0.304273
v -0.232533 0.000000 -0.286444
v 0.237310 0.018300 0.304273
v 0.232533 -0.000000 0.286444
v 0.260150 0.018300 0.294813
v 0.250921 -0.000000 0.278828
v 0.279763 0.018300 0.279763
v 0.266711 -0.000000 0.266711
v 0.294813 0.018300 0.260150
v 0.278828 -0.000000 0.250921
v 0.304273 0.018300 0.237310
v 0.286444 -0.000000 0.232533
v -0.304273 0.018300 0.237310
v -0.286444 -0.000000 0.232533
v -0.294813 0.018300 0.260150
v -0.278828 -0.000000 0.250921
v -0.279763 0.018300 0.279763
v -0.266711 -0.000000 0.266711
v -0.260150 0.018300 0.294813
v -0.250921 -0.000000 0.278828
v -0.237310 0.018300 0.304273
v -0.232533 -0.000000 0.286444
v -0.083162 0.700000 0.307500
v -0.109163 0.674000 0.307500
v 0.109163 0.674000 0.307500
v 0.083162 0.700000 0.307500
v 0.109163 0.018300 0.307500
v -0.109163 0.018300 0.307500
v -0.083162 0.700000 -0.307500
v -0.109163 0.674000 -0.307500
v 0.109163 0.674000 -0.307500
v 0.083162 0.700000 -0.307500
v 0.109163 0.018300 -0.307500
v -0.109163 0.018300 -0.307500
v 0.109163 0.000000 -0.289200
v 0.109163 -0.000000 0.289200
v -0.109163 -0.000000 0.289200
v -0.109163 0.000000 -0.289200
v -0.083162 0.700000 0.272568
v 0.083162 0.700000 0.272568
v -0.083162 0.700000 -0.272568
v 0.083162 0.700000 -0.272568
v -0.109163 0.674000 0.272568
v -0.109163 0.020700 0.272568
v -0.109163 0.674000 -0.272568
v -0.109163 0.020700 -0.272568
v -0.109163 0.015200 0.267068
v -0.109163 0.015200 -0.267068
v 0.109163 0.674000 0.272568
v 0.109163 0.020700 0.272568
v 0.109163 0.674000 -0.272568
v 0.109163 0.020700 -0.272568
v 0.109163 0.015200 0.267068
v 0.109163 0.015200 -0.267068
v -0.243095 1.007800 -0.179956
v -0.179956 1.007800 -0.243095
v 0.179956 1.007800 -0.243095
v 0.243095 1.007800 -0.179956
v 0.243095 1.007800 0.179956
v 0.179956 1.007800 0.243095
v -0.179956 1.007800 0.243095
v -0.243095 1.007800 0.179956
v 0.242039 1.007800 -0.198155
v 0.235839 1.007800 -0.213123
v 0.225977 1.007800 -0.225977
v 0.213123 1.007800 -0.235839
v 0.198156 1.007800 -0.242039
v -0.242039 1.007800 -0.198155
v -0.235839 1.007800 -0.213123
v -0.225977 1.007800 -0.225977
v -0.213123 1.007800 -0.235839
v -0.198156 1.007800 -0.242039
v 0.198156 1.007800 0.242039
v 0.213123 1.007800 0.235840
v 0.225977 1.007800 0.225977
v 0.235839 1.007800 0.213124
v 0.242039 1.007800 0.198156
v -0.242039 1.007800 0.198156
v -0.235839 1.007800 0.213124
v -0.225977 1.007800 0.225977
v -0.213123 1.007800 0.235840
v -0.198156 1.007800 0.242039
v -0.178074 1.000000 -0.251930
v -0.251931 1.000000 -0.178074
v -0.216253 1.000000 -0.243260
v -0.231534 1.000000 -0.231534
v -0.243260 1.000000 -0.216253
v -0.250631 1.000000 -0.198458
v -0.198458 1.000000 -0.250631
v 0.178074 1.000000 -0.251930
v 0.251931 1.000000 -0.178074
v 0.250631 1.000000 -0.198458
v 0.243260 1.000000 -0.216253
v 0.231534 1.000000 -0.231534
v 0.216253 1.000000 -0.243260
v 0.198458 1.000000 -0.250631
v -0.178074 1.000000 0.251931
v -0.251931 1.000000 0.178075
v -0.250631 1.000000 0.198458
v -0.243260 1.000000 0.216253
v -0.231534 1.000000 0.231534
v -0.216253 1.000000 0.243260
v -0.198458 1.000000 0.250631
v 0.251931 1.000000 0.178075
v 0.178074 1.000000 0.251931
v 0.198458 1.000000 0.250631
v 0.216253 1.000000 0.243260
v 0.231534 1.000000 0.231534
v 0.243260 1.000000 0.216253
v 0.250631 1.000000 0.198458
v -0.307500 0.117800 0.154175
v -0.307500 0.117800 -0.154175
v -0.307500 0.056200 0.132532
v -0.307500 0.056200 -0.132532
v -0.307500 0.196125 0.047625
v -0.307500 0.196125 -0.047625
v -0.307500 0.161875 -0.047625
v -0.307500 0.161875 0.047625
v -0.307500 0.070522 -0.153966
v -0.307500 0.079400 -0.155732
v -0.307500 0.062995 -0.148937
v -0.307500 0.057966 -0.141410
v -0.307500 0.070522 0.153966
v -0.307500 0.079400 0.155732
v -0.307500 0.062995 0.148937
v -0.307500 0.057966 0.141410
v -0.293000 0.194025 0.042725
v -0.293000 0.194025 -0.042725
v -0.293000 0.169575 -0.042725
v -0.293000 0.169575 0.042725
v -0.270000 0.114200 0.152132
v -0.270000 0.114200 -0.152132
v -0.270000 0.059800 0.132178
v -0.270000 0.059800 -0.132178
v -0.270000 0.071926 -0.150575
v -0.270000 0.079755 -0.152132
v -0.270000 0.065591 -0.146342
v -0.270000 0.061357 -0.140006
v -0.270000 0.071926 0.150575
v -0.270000 0.079755 0.152132
v -0.270000 0.065591 0.146342
v -0.270000 0.061357 0.140006
v -0.307500 0.115612 0.155732
v -0.307500 0.116012 -0.155732
v 0.109163 0.000000 0.000000
v -0.109163 0.000000 0.000000
v -0.109163 0.015200 0.000000
v 0.109163 0.015200 0.000000
vt 0.157894 0.142218
vt 0.158028 0.143551
vt 0.139240 0.144631
vt 0.157894 0.298633
vt 0.139213 0.296495
vt 0.158001 0.297454
vt 0.726682 0.859354
vt 0.858380 0.855507
vt 0.726692 0.867029
vt 0.882187 0.837865
vt 0.889828 0.837877
vt 0.882232 0.969992
vt 0.869303 0.862864
vt 0.527754 0.879935
vt 0.739509 0.879935
vt 0.634477 0.969499
vt 0.889876 0.980954
vt 0.304778 0.656065
vt 0.411019 0.745739
vt 0.199521 0.745739
vt 0.495562 0.527166
vt 0.010002 0.527179
vt 0.495614 0.514832
vt 0.010000 0.514858
vt 0.495536 0.576321
vt 0.010014 0.576461
vt 0.495524 0.564038
vt 0.010010 0.564141
vt 0.010009 0.837852
vt 0.495820 0.837991
vt 0.010006 0.850177
vt 0.495830 0.850289
vt 0.309477 0.024298
vt 0.308266 0.511508
vt 0.297222 0.024236
vt 0.295985 0.511478
vt 0.358510 0.024382
vt 0.357391 0.511625
vt 0.346243 0.024382
vt 0.345110 0.511596
vt 0.046815 0.024535
vt 0.048027 0.511563
vt 0.034561 0.024553
vt 0.035750 0.511594
vt 0.542516 0.821395
vt 0.543880 0.818934
vt 0.554117 0.825942
vt 0.554780 0.823227
vt 0.532503 0.813946
vt 0.524807 0.804113
vt 0.534471 0.811930
vt 0.527237 0.802692
vt 0.520009 0.792605
vt 0.518407 0.780267
vt 0.522707 0.791884
vt 0.521121 0.780070
vt 0.517368 0.555700
vt 0.520082 0.556358
vt 0.516048 0.568066
vt 0.518766 0.568202
vt 0.529373 0.534078
vt 0.531387 0.536049
vt 0.521903 0.544086
vt 0.524364 0.545450
vt 0.539217 0.526401
vt 0.550715 0.521591
vt 0.540637 0.528831
vt 0.551440 0.524291
vt 0.563061 0.519948
vt 0.775309 0.517551
vt 0.563259 0.522662
vt 0.775173 0.520269
vt 0.799297 0.523463
vt 0.797932 0.525925
vt 0.787690 0.518914
vt 0.787027 0.521630
vt 0.809313 0.530917
vt 0.817011 0.540754
vt 0.807344 0.532933
vt 0.814581 0.542174
vt 0.821811 0.552261
vt 0.823416 0.564598
vt 0.819112 0.552982
vt 0.820701 0.564796
vt 0.824468 0.789219
vt 0.821751 0.788561
vt 0.825774 0.776834
vt 0.823056 0.776698
vt 0.812445 0.810861
vt 0.810431 0.808886
vt 0.819929 0.800848
vt 0.817466 0.799481
vt 0.802584 0.818532
vt 0.791071 0.823324
vt 0.801166 0.816098
vt 0.790349 0.820622
vt 0.778718 0.824942
vt 0.566491 0.827304
vt 0.778521 0.822228
vt 0.566628 0.824586
vt 0.083563 0.024400
vt 0.071313 0.024464
vt 0.083564 0.011089
vt 0.071264 0.010684
vt 0.022298 0.024554
vt 0.034744 0.010636
vt 0.023083 0.010757
vt 0.495820 0.825696
vt 0.495832 0.813403
vt 0.509838 0.825632
vt 0.509587 0.813444
vt 0.495523 0.551752
vt 0.509531 0.564113
vt 0.509552 0.551813
vt 0.357738 0.010588
vt 0.346066 0.010461
vt 0.309547 0.010501
vt 0.297206 0.010918
vt 0.202317 0.342872
vt 0.202317 0.259756
vt 0.219718 0.343056
vt 0.219718 0.259940
vt 0.202317 0.361246
vt 0.219718 0.361431
vt 0.543878 0.574780
vt 0.547587 0.565589
vt 0.549601 0.575248
vt 0.552635 0.567880
vt 0.580757 0.546704
vt 0.579948 0.552586
vt 0.570421 0.547653
vt 0.571014 0.553362
vt 0.777751 0.549162
vt 0.785674 0.555103
vt 0.775487 0.554179
vt 0.781862 0.558983
vt 0.792766 0.760684
vt 0.790781 0.581475
vt 0.798633 0.759746
vt 0.796664 0.582286
vt 0.780523 0.793350
vt 0.778225 0.788463
vt 0.788307 0.787228
vt 0.784446 0.783468
vt 0.583580 0.800160
vt 0.573226 0.799444
vt 0.582639 0.794298
vt 0.573689 0.793724
vt 0.546085 0.772928
vt 0.551797 0.772329
vt 0.550000 0.782034
vt 0.554996 0.779630
vt 0.135080 0.024163
vt 0.135074 0.011066
vt 0.349051 0.879535
vt 0.349051 0.988418
vt 0.022977 0.878432
vt 0.010000 0.891355
vt 0.022977 0.987315
vt 0.010000 0.974304
vt 0.861094 0.522825
vt 0.878316 0.522345
vt 0.861094 0.852648
vt 0.878316 0.853379
vt 0.245686 0.024007
vt 0.245688 0.010907
vt 0.176800 0.302983
vt 0.176800 0.361074
vt 0.170522 0.307136
vt 0.170546 0.355653
vt 0.180554 0.216140
vt 0.180554 0.220387
vt 0.161750 0.216140
vt 0.161750 0.220387
vt 0.180554 0.067324
vt 0.180554 0.071571
vt 0.161750 0.067324
vt 0.161750 0.071571
vt 0.880675 0.990000
vt 0.879467 0.972706
vt 0.486233 0.988882
vt 0.352933 0.988431
vt 0.486233 0.879999
vt 0.352933 0.879548
vt 0.779183 0.969499
vt 0.778702 0.918538
vt 0.749996 0.881306
vt 0.777224 0.908125
vt 0.759232 0.885095
vt 0.773327 0.898978
vt 0.767190 0.891122
vt 0.449308 0.656065
vt 0.421473 0.744366
vt 0.449588 0.707088
vt 0.430641 0.740573
vt 0.448268 0.717514
vt 0.438500 0.734538
vt 0.444512 0.726673
vt 0.587383 0.022913
vt 0.587383 0.509295
vt 0.375102 0.023886
vt 0.375102 0.510269
vt 0.010007 0.551821
vt 0.010003 0.862503
vt 0.495859 0.862597
vt 0.010018 0.800875
vt 0.495867 0.801109
vt 0.010015 0.813201
vt 0.333985 0.024365
vt 0.332828 0.511567
vt 0.023473 0.511624
vt 0.084858 0.511471
vt 0.072581 0.511501
vt 0.541136 0.823886
vt 0.530512 0.815986
vt 0.517278 0.793331
vt 0.522348 0.805550
vt 0.515690 0.780377
vt 0.513330 0.568017
vt 0.514621 0.555036
vt 0.519411 0.542705
vt 0.537780 0.523942
vt 0.527336 0.532084
vt 0.549984 0.518859
vt 0.562951 0.517231
vt 0.788360 0.516165
vt 0.775358 0.514832
vt 0.800677 0.520972
vt 0.811305 0.528877
vt 0.824542 0.551535
vt 0.819470 0.539316
vt 0.826134 0.564488
vt 0.828493 0.776883
vt 0.827219 0.789881
vt 0.822423 0.802231
vt 0.804018 0.820995
vt 0.814483 0.812859
vt 0.791797 0.826058
vt 0.778828 0.827659
vt 0.553448 0.828689
vt 0.566442 0.830022
vt 0.046842 0.010455
vt 0.509858 0.837937
vt 0.509269 0.576304
vt 0.370813 0.024358
vt 0.369386 0.010000
vt 0.321729 0.024338
vt 0.321697 0.010276
vt 0.198695 0.259851
vt 0.198695 0.342910
vt 0.181282 0.259744
vt 0.181282 0.342803
vt 0.198695 0.361273
vt 0.181282 0.361165
vt 0.543176 0.585143
vt 0.549036 0.584200
vt 0.561335 0.551605
vt 0.563711 0.556569
vt 0.768578 0.545417
vt 0.768116 0.551139
vt 0.795730 0.571940
vt 0.790017 0.572539
vt 0.794272 0.779362
vt 0.789227 0.777073
vt 0.761817 0.792270
vt 0.761015 0.798163
vt 0.556136 0.789762
vt 0.559948 0.785882
vt 0.135979 0.351965
vt 0.244829 0.351931
vt 0.148987 0.364941
vt 0.231820 0.364922
vt 0.495571 0.588607
vt 0.495679 0.640290
vt 0.168925 0.640378
vt 0.169002 0.749262
vt 0.495979 0.749389
vt 0.010019 0.588781
vt 0.155986 0.653347
vt 0.156032 0.736284
vt 0.508838 0.588639
vt 0.508734 0.640316
vt 0.550892 0.972086
vt 0.550892 0.989378
vt 0.151617 0.303594
vt 0.159178 0.307982
vt 0.180554 0.211983
vt 0.161750 0.211983
vt 0.180554 0.063167
vt 0.161750 0.063167
vt 0.200877 0.237875
vt 0.184287 0.237875
vt 0.184287 0.080616
vt 0.200877 0.080616
vt 0.204647 0.081421
vt 0.207698 0.083609
vt 0.209737 0.086884
vt 0.210487 0.090930
vt 0.209737 0.231608
vt 0.207698 0.234883
vt 0.204647 0.237071
vt 0.210487 0.227562
vt 0.180554 0.037045
vt 0.180554 0.054762
vt 0.161750 0.037045
vt 0.161750 0.054762
vt 0.916544 0.156391
vt 0.807816 0.157179
vt 0.916544 0.152503
vt 0.807816 0.153291
vt 0.849101 0.699639
vt 0.856764 0.699637
vt 0.845919 0.831515
vt 0.853317 0.842442
vt 0.489771 0.969499
vt 0.517293 0.881306
vt 0.489290 0.918539
vt 0.508128 0.885095
vt 0.490571 0.908125
vt 0.500284 0.891122
vt 0.494296 0.898978
vt 0.495534 0.539463
vt 0.010005 0.539500
vt 0.010011 0.825526
vt 0.320547 0.511537
vt 0.369673 0.511655
vt 0.059066 0.024505
vt 0.060304 0.511532
vt 0.059108 0.010448
vt 0.509607 0.861791
vt 0.509707 0.850081
vt 0.509146 0.801063
vt 0.509400 0.539680
vt 0.333962 0.010282
vt 0.495911 0.874940
vt 0.510220 0.873476
vt 0.198695 0.241489
vt 0.181283 0.241382
vt 0.557446 0.561517
vt 0.551034 0.763395
vt 0.759164 0.550564
vt 0.786816 0.565237
vt 0.792233 0.769673
vt 0.770838 0.791580
vt 0.566320 0.790685
vt 0.553549 0.557723
vt 0.758222 0.544701
vt 0.791813 0.562833
vt 0.797954 0.770138
vt 0.771400 0.797263
vt 0.564056 0.795701
vt 0.545153 0.762584
vt 0.942184 0.166738
vt 0.959407 0.166258
vt 0.942184 0.496583
vt 0.959407 0.497315
vt 0.513750 0.834230
vt 0.843081 0.834230
vt 0.513330 0.851479
vt 0.843871 0.851479
vt 0.158979 0.354840
vt 0.151233 0.359185
vt 0.180554 0.059010
vt 0.161750 0.059010
vt 0.180554 0.203579
vt 0.161750 0.203579
vt 0.180554 0.238005
vt 0.161750 0.238005
vt 0.803540 0.024399
vt 0.803540 0.510052
vt 0.591459 0.510052
vt 0.721231 0.113011
vt 0.721231 0.095944
vt 0.775102 0.073981
vt 0.619896 0.073981
vt 0.774222 0.050421
vt 0.771716 0.046671
vt 0.767965 0.044165
vt 0.673767 0.095944
vt 0.673767 0.113011
vt 0.775102 0.054846
vt 0.775102 0.072641
vt 0.763541 0.043285
vt 0.591459 0.024399
vt 0.631457 0.043285
vt 0.627033 0.044165
vt 0.623282 0.046671
vt 0.620776 0.050421
vt 0.619896 0.054846
vt 0.619896 0.072641
vt 0.802942 0.011502
vt 0.592057 0.011503
vt 0.916545 0.019015
vt 0.807816 0.019802
vt 0.010000 0.024533
vt 0.011400 0.010153
vt 0.509939 0.516271
vt 0.509308 0.527986
vt 0.010000 0.874828
vt 0.011196 0.511655
vt 0.509041 0.749363
vt 0.202317 0.241382
vt 0.219718 0.241566
vt 0.950380 0.506808
vt 0.939474 0.499433
vt 0.807817 0.483715
vt 0.820765 0.496617
vt 0.916545 0.482927
vt 0.903597 0.496016
vt 0.180554 0.207826
vt 0.161750 0.207826
vt 0.807820 0.503027
vt 0.807816 0.510700
vt 0.586785 0.010000
vt 0.375700 0.010968
vt 0.160248 0.656065
vt 0.160528 0.707088
vt 0.189053 0.744366
vt 0.161963 0.717514
vt 0.179842 0.740573
vt 0.165819 0.726673
vt 0.171918 0.734538
vn -0.0995 -0.5770 -0.8107
vn -0.0958 -0.9954 -0.0036
vn -0.0956 -0.9954 -0.0002
vn -0.1036 -0.6533 0.7500
vn -0.0956 -0.9954 0.0001
vn -0.0957 -0.9954 0.0029
vn -1.0000 0.0000 0.0000
vn 0.0000 -1.0000 -0.0000
vn 0.9658 -0.0160 -0.2588
vn 0.9659 0.0000 -0.2588
vn 0.9913 -0.0166 -0.1305
vn 0.9914 0.0000 -0.1305
vn 0.2588 -0.0161 -0.9658
vn 0.2588 0.0000 -0.9659
vn 0.4999 -0.0159 -0.8659
vn 0.5000 0.0000 -0.8660
vn -0.7071 0.0000 -0.7071
vn -0.7070 -0.0159 -0.7070
vn -0.8660 0.0000 -0.5000
vn -0.8659 -0.0159 -0.4999
vn 0.2588 -0.0160 0.9658
vn 0.2588 -0.0000 0.9659
vn 0.0110 -0.0076 0.9999
vn 0.0108 -0.0000 0.9999
vn 0.9658 -0.0161 0.2588
vn 0.9659 -0.0000 0.2588
vn 0.8659 -0.0159 0.4999
vn 0.8660 -0.0000 0.5000
vn -0.7070 -0.0159 0.7070
vn -0.7071 -0.0000 0.7071
vn -0.8659 -0.0159 0.4999
vn -0.8660 -0.0000 0.5000
vn -0.3629 0.6879 -0.6286
vn -0.0003 1.0000 -0.0005
vn -0.1874 0.6886 -0.7005
vn -0.0001 1.0000 -0.0005
vn -0.5132 0.6879 -0.5132
vn -0.6286 0.6879 -0.3629
vn -0.0005 1.0000 -0.0003
vn -0.7005 0.6886 -0.1874
vn -0.7153 0.6988 -0.0050
vn -0.0005 1.0000 -0.0002
vn -0.0048 1.0000 -0.0000
vn -0.7005 0.6886 0.1874
vn -0.0005 1.0000 0.0001
vn -0.7153 0.6988 0.0050
vn -0.5132 0.6879 0.5132
vn -0.0004 1.0000 0.0004
vn -0.6286 0.6879 0.3629
vn -0.0005 1.0000 0.0003
vn -0.3629 0.6879 0.6286
vn -0.1874 0.6886 0.7005
vn -0.0002 1.0000 0.0005
vn -0.0001 1.0000 0.0005
vn -0.0050 0.6988 0.7153
vn 0.0050 0.6988 0.7153
vn -0.0000 1.0000 0.0048
vn 0.3629 0.6879 0.6286
vn 0.0003 1.0000 0.0005
vn 0.1874 0.6886 0.7005
vn 0.0001 1.0000 0.0005
vn 0.5132 0.6879 0.5132
vn 0.6286 0.6879 0.3629
vn 0.0005 1.0000 0.0003
vn 0.7005 0.6886 0.1874
vn 0.7153 0.6988 0.0050
vn 0.0005 1.0000 0.0002
vn 0.0048 1.0000 0.0000
vn 0.7005 0.6886 -0.1874
vn 0.0005 1.0000 -0.0001
vn 0.7153 0.6988 -0.0050
vn 0.0048 1.0000 -0.0001
vn 0.5132 0.6879 -0.5132
vn 0.0004 1.0000 -0.0004
vn 0.6286 0.6879 -0.3629
vn 0.0005 1.0000 -0.0002
vn 0.3629 0.6879 -0.6286
vn 0.1874 0.6886 -0.7005
vn 0.0003 1.0000 -0.0005
vn 0.0001 1.0000 -0.0005
vn 0.0050 0.6988 -0.7153
vn -0.0050 0.6988 -0.7153
vn 0.0000 1.0000 -0.0048
vn -0.0110 -0.0076 0.9999
vn -0.2588 -0.0161 0.9658
vn -0.0168 -0.7076 0.7065
vn -0.1811 -0.7101 0.6804
vn -0.9658 -0.0160 0.2588
vn -0.6097 -0.7101 0.3520
vn -0.6804 -0.7101 0.1810
vn -0.4999 -0.0159 -0.8659
vn -0.2588 -0.0160 -0.9658
vn -0.3520 -0.7101 -0.6097
vn -0.1810 -0.7101 -0.6804
vn 0.7070 -0.0159 -0.7070
vn 0.3520 -0.7101 -0.6097
vn 0.4978 -0.7101 -0.4978
vn 0.6804 -0.7101 0.1811
vn 0.6097 -0.7101 0.3520
vn 0.1810 -0.7101 0.6804
vn 0.0168 -0.7076 0.7065
vn 0.1340 -0.9910 -0.0000
vn -0.1340 -0.9910 0.0000
vn 0.7071 -0.7071 0.0000
vn -0.0011 1.0000 0.0002
vn -0.0010 1.0000 0.0006
vn -0.0007 1.0000 0.0002
vn -0.0006 1.0000 0.0004
vn -0.0000 0.9999 0.0148
vn 0.0000 1.0000 0.0058
vn -0.0003 1.0000 0.0011
vn -0.0002 1.0000 0.0007
vn 0.0006 1.0000 0.0010
vn 0.0008 1.0000 0.0008
vn 0.0003 1.0000 0.0006
vn 0.0005 1.0000 0.0005
vn 0.0058 1.0000 -0.0000
vn 0.0148 0.9999 -0.0000
vn 0.0006 1.0000 -0.0010
vn 0.0003 1.0000 -0.0006
vn 0.0008 1.0000 -0.0008
vn 0.0005 1.0000 -0.0005
vn -0.0001 0.9999 -0.0148
vn -0.0002 1.0000 -0.0011
vn -0.0001 1.0000 -0.0058
vn -0.0002 1.0000 -0.0007
vn -0.0011 1.0000 -0.0002
vn -0.0007 1.0000 -0.0002
vn -0.0010 1.0000 -0.0006
vn -0.0006 1.0000 -0.0003
vn 0.0000 -0.0070 1.0000
vn 0.0000 -0.7071 0.7071
vn 0.0000 -0.0081 -1.0000
vn 0.0000 0.0000 -1.0000
vn -0.2461 -0.9080 -0.3390
vn -0.2461 -0.9080 0.3390
vn -0.8327 -0.5315 -0.1557
vn -0.8327 -0.5315 0.1557
vn -0.0974 0.3788 -0.9203
vn -0.0958 0.0379 -0.9947
vn -0.0974 0.3789 -0.9203
vn -0.0953 0.0378 -0.9947
vn -0.0974 0.9203 0.3790
vn -0.0956 0.9954 0.0061
vn -0.0948 0.9955 0.0061
vn -0.0000 -0.9999 -0.0102
vn 0.9998 -0.0179 -0.0000
vn 1.0000 0.0000 0.0000
vn 0.9998 -0.0178 -0.0000
vn 0.7071 0.0000 -0.7071
vn -0.9659 0.0000 -0.2588
vn -0.9658 -0.0161 -0.2588
vn -0.0108 0.0000 -0.9999
vn -0.0109 -0.0076 -0.9999
vn -0.2588 0.0000 -0.9659
vn 0.7070 -0.0159 0.7070
vn 0.7071 -0.0000 0.7071
vn -0.9659 -0.0000 0.2588
vn -0.0108 -0.0000 0.9999
vn -0.2588 -0.0000 0.9659
vn -0.4614 0.3855 -0.7991
vn -0.6525 0.3855 -0.6525
vn -0.8913 0.3855 -0.2388
vn -0.7991 0.3855 -0.4614
vn -0.9238 0.3828 -0.0066
vn -0.9238 0.3828 0.0066
vn -0.8913 0.3855 0.2388
vn -0.7991 0.3855 0.4614
vn -0.4614 0.3855 0.7991
vn -0.6525 0.3855 0.6524
vn -0.2388 0.3855 0.8913
vn -0.0066 0.3828 0.9238
vn 0.2388 0.3855 0.8913
vn 0.0066 0.3828 0.9238
vn 0.4614 0.3855 0.7991
vn 0.6525 0.3855 0.6524
vn 0.8913 0.3855 0.2388
vn 0.7991 0.3855 0.4614
vn 0.9238 0.3828 0.0066
vn 0.9238 0.3828 -0.0066
vn 0.8913 0.3855 -0.2388
vn 0.7991 0.3855 -0.4614
vn 0.4614 0.3855 -0.7991
vn 0.6525 0.3855 -0.6525
vn 0.2388 0.3855 -0.8913
vn 0.0066 0.3828 -0.9238
vn -0.2388 0.3855 -0.8913
vn -0.0066 0.3828 -0.9238
vn -0.4978 -0.7101 0.4978
vn -0.4978 -0.7101 -0.4978
vn 0.1811 -0.7101 -0.6804
vn 0.9913 -0.0166 0.1305
vn 0.7011 -0.7071 0.0923
vn 0.4999 -0.0159 0.8659
vn 0.3520 -0.7101 0.6097
vn -0.1340 -0.9910 -0.0001
vn 0.1340 -0.9910 0.0001
vn -0.0148 0.9999 0.0001
vn -0.0058 1.0000 0.0001
vn -0.0006 1.0000 0.0010
vn -0.0004 1.0000 0.0006
vn 0.0002 1.0000 0.0011
vn 0.0002 1.0000 0.0007
vn 0.0011 1.0000 0.0003
vn 0.0007 1.0000 0.0002
vn 0.0010 1.0000 -0.0006
vn 0.0006 1.0000 -0.0003
vn 0.0000 1.0000 -0.0058
vn 0.0000 0.9999 -0.0148
vn -0.0008 1.0000 -0.0008
vn -0.0005 1.0000 -0.0005
vn -0.0000 -0.0000 1.0000
vn 0.0109 -0.0077 -0.9999
vn 0.0000 -0.0070 -1.0000
vn 0.0108 0.0000 -0.9999
vn 0.0168 -0.7076 -0.7065
vn 0.0000 -0.7071 -0.7071
vn -0.5161 0.8248 -0.2311
vn -0.8831 0.4421 -0.1572
vn -0.0974 0.7037 -0.7037
vn -0.0974 0.7037 0.7037
vn -0.0956 0.0000 0.9954
vn -0.0953 0.0377 0.9947
vn -0.0958 0.0377 0.9947
vn -0.0000 -0.0081 1.0000
vn 0.0000 -0.9999 0.0102
vn 0.8659 -0.0159 -0.4999
vn 0.8660 0.0000 -0.5000
vn -0.5000 0.0000 -0.8660
vn 0.5000 -0.0000 0.8660
vn 0.9914 -0.0000 0.1305
vn -0.4999 -0.0159 0.8659
vn -0.5000 -0.0000 0.8660
vn -0.3520 -0.7101 0.6097
vn -0.6804 -0.7101 -0.1811
vn -0.6097 -0.7101 -0.3520
vn -0.0168 -0.7076 -0.7065
vn 0.6097 -0.7101 -0.3520
vn 0.4978 -0.7101 0.4978
vn -0.9913 -0.0166 -0.1305
vn -0.7011 -0.7071 -0.0923
vn -0.7071 -0.7071 0.0000
vn -0.0005 1.0000 0.0005
vn -0.0058 1.0000 -0.0000
vn 0.0006 1.0000 0.0003
vn 0.0007 1.0000 -0.0001
vn 0.0002 1.0000 -0.0007
vn -0.0003 1.0000 -0.0006
vn -0.0008 1.0000 0.0008
vn 0.0010 1.0000 0.0006
vn 0.0011 1.0000 -0.0002
vn 0.0002 1.0000 -0.0011
vn -0.0006 1.0000 -0.0010
vn -0.0148 0.9999 -0.0000
vn -0.8831 0.4421 0.1572
vn -0.5161 0.8248 0.2311
vn -0.0974 0.3789 0.9203
vn -0.0948 0.9955 -0.0061
vn -0.0956 0.9954 -0.0061
vn -0.0956 0.0000 -0.9954
vn -0.9998 -0.0188 -0.0000
vn -0.9913 -0.0166 0.1305
vn -0.7011 -0.7071 0.0923
vn 0.7011 -0.7071 -0.0923
vn 0.6804 -0.7101 -0.1810
vn -0.9914 0.0000 -0.1305
vn -0.9914 0.0000 0.1305
vn -0.0974 0.9203 -0.3789
vn -0.0974 0.9203 -0.3788
s 1
f 261/1/1 229/2/2 249/3/3
f 262/4/4 250/5/5 230/6/6
f 266/7/7 172/8/7 263/9/7
f 266/10/7 263/11/7 171/12/7
f 153/13/7 263/9/7 172/8/7
f 98/14/8 86/15/8 264/16/8
f 171/12/7 263/11/7 154/17/7
f 263/18/8 92/19/8 94/20/8
f 101/21/9 17/22/10 91/23/11
f 7/24/12 91/23/11 17/22/10
f 109/25/13 25/26/14 107/27/15
f 23/28/16 107/27/15 25/26/14
f 31/29/17 115/30/18 29/31/19
f 113/32/20 29/31/19 115/30/18
f 121/33/21 37/34/22 95/35/23
f 11/36/24 95/35/23 37/34/22
f 129/37/25 45/38/26 127/39/27
f 43/40/28 127/39/27 45/38/26
f 135/41/29 51/42/30 133/43/31
f 49/44/32 133/43/31 51/42/30
f 58/45/33 34/46/34 57/47/35
f 36/48/36 57/47/35 34/46/34
f 59/49/37 60/50/38 32/51/39
f 30/52/39 32/51/39 60/50/38
f 61/53/40 62/54/41 28/55/42
f 2/56/43 28/55/42 62/54/41
f 64/57/44 48/58/45 63/59/46
f 16/60/43 63/59/46 48/58/45
f 66/61/47 52/62/48 65/63/49
f 50/64/50 65/63/49 52/62/48
f 67/65/51 68/66/52 54/67/53
f 56/68/54 54/67/53 68/66/52
f 69/69/55 70/70/56 14/71/57
f 12/72/57 14/71/57 70/70/56
f 72/73/58 40/74/59 71/75/60
f 38/76/61 71/75/60 40/74/59
f 73/77/62 74/78/63 42/79/64
f 44/80/64 42/79/64 74/78/63
f 75/81/65 76/82/66 46/83/67
f 10/84/68 46/83/67 76/82/66
f 78/85/69 18/86/70 77/87/71
f 8/88/72 77/87/71 18/86/70
f 80/89/73 22/90/74 79/91/75
f 20/92/76 79/91/75 22/90/74
f 81/93/77 82/94/78 24/95/79
f 26/96/80 24/95/79 82/94/78
f 83/97/81 84/98/82 6/99/83
f 4/100/83 6/99/83 84/98/82
f 99/101/84 139/102/85 100/103/86
f 140/104/87 100/103/86 139/102/85
f 133/43/31 131/105/88 134/106/89
f 132/107/90 134/106/89 131/105/88
f 117/108/91 119/109/92 118/110/93
f 120/111/94 118/110/93 119/109/92
f 107/27/15 105/112/95 108/113/96
f 106/114/97 108/113/96 105/112/95
f 129/37/25 127/39/27 130/115/98
f 128/116/99 130/115/98 127/39/27
f 121/33/21 95/35/23 122/117/100
f 96/118/101 122/117/100 95/35/23
f 157/119/102 158/120/103 141/121/102
f 144/122/103 141/121/102 158/120/103
f 161/123/104 157/119/102 142/124/104
f 141/121/102 142/124/104 157/119/102
f 217/125/105 218/126/106 196/127/107
f 197/128/108 196/127/107 218/126/106
f 215/129/109 179/130/110 221/131/111
f 200/132/112 221/131/111 179/130/110
f 225/133/113 226/134/114 192/135/115
f 193/136/116 192/135/115 226/134/114
f 176/137/117 177/138/117 209/139/118
f 222/140/118 209/139/118 177/138/117
f 213/141/119 184/142/120 212/143/121
f 183/144/122 212/143/121 184/142/120
f 201/145/123 207/146/124 174/147/125
f 190/148/126 174/147/125 207/146/124
f 206/149/127 186/150/128 205/151/129
f 187/152/130 205/151/129 186/150/128
f 99/101/84 100/103/86 146/153/131
f 155/154/132 146/153/131 100/103/86
f 170/155/133 164/156/133 169/157/134
f 160/158/134 169/157/134 164/156/133
f 164/156/133 163/159/134 160/158/134
f 159/160/134 160/158/134 163/159/134
f 169/161/7 149/162/7 170/163/7
f 151/164/7 170/163/7 149/162/7
f 95/35/23 145/165/131 96/118/101
f 154/166/132 96/118/101 145/165/131
f 233/167/135 234/168/136 245/169/137
f 246/170/138 245/169/137 234/168/136
f 241/171/139 242/172/140 257/173/141
f 258/174/142 257/173/141 242/172/140
f 240/175/143 232/176/144 256/177/143
f 252/178/145 256/177/143 232/176/144
f 145/179/7 168/180/7 154/17/7
f 171/12/7 154/17/7 168/180/7
f 265/181/8 166/182/146 266/183/8
f 172/184/146 266/183/8 166/182/146
f 264/16/8 86/15/8 156/185/8
f 88/186/8 156/185/8 86/15/8
f 86/15/8 112/187/8 88/186/8
f 120/188/8 88/186/8 112/187/8
f 112/187/8 114/189/8 120/188/8
f 118/190/8 120/188/8 114/189/8
f 114/189/8 116/191/8 118/190/8
f 263/18/8 153/192/8 92/19/8
f 102/193/8 92/19/8 153/192/8
f 153/192/8 90/194/8 102/193/8
f 104/195/8 102/193/8 90/194/8
f 90/194/8 110/196/8 104/195/8
f 106/197/8 104/195/8 110/196/8
f 110/196/8 108/198/8 106/197/8
f 91/199/147 7/200/148 93/201/149
f 9/202/148 93/201/149 7/200/148
f 107/27/15 23/28/16 105/112/95
f 21/203/150 105/112/95 23/28/16
f 29/31/19 113/32/20 27/204/151
f 111/205/152 27/204/151 113/32/20
f 3/206/153 87/207/154 35/208/155
f 119/109/92 35/208/155 87/207/154
f 127/39/27 43/40/28 125/209/156
f 41/210/157 125/209/156 43/40/28
f 133/43/31 49/44/32 131/105/88
f 47/211/158 131/105/88 49/44/32
f 99/101/84 13/212/159 139/102/85
f 55/213/160 139/102/85 13/212/159
f 33/214/161 31/215/162 58/45/33
f 59/49/37 58/45/33 31/215/162
f 27/216/163 61/53/40 29/217/164
f 60/50/38 29/217/164 61/53/40
f 1/218/165 15/219/166 62/54/41
f 63/59/46 62/54/41 15/219/166
f 47/220/167 49/221/168 64/57/44
f 65/63/49 64/57/44 49/221/168
f 53/222/169 67/65/51 51/223/170
f 66/61/47 51/223/170 67/65/51
f 55/224/171 13/225/172 68/66/52
f 69/69/55 68/66/52 13/225/172
f 37/226/173 71/75/60 11/227/174
f 70/70/56 11/227/174 71/75/60
f 39/228/175 41/229/176 72/73/58
f 73/77/62 72/73/58 41/229/176
f 45/230/177 75/81/65 43/231/178
f 74/78/63 43/231/178 75/81/65
f 9/232/179 7/233/180 76/82/66
f 77/87/71 76/82/66 7/233/180
f 17/234/181 19/235/182 78/85/69
f 79/91/75 78/85/69 19/235/182
f 23/236/183 81/93/77 21/237/184
f 80/89/73 21/237/184 81/93/77
f 25/238/185 5/239/186 82/94/78
f 83/97/81 82/94/78 5/239/186
f 35/240/187 57/47/35 3/241/188
f 84/98/82 3/241/188 57/47/35
f 135/41/29 133/43/31 136/242/189
f 134/106/89 136/242/189 133/43/31
f 115/30/18 117/108/91 116/243/190
f 118/110/93 116/243/190 117/108/91
f 109/25/13 107/27/15 110/244/191
f 108/113/96 110/244/191 107/27/15
f 93/245/192 129/37/25 94/246/193
f 130/115/98 94/246/193 129/37/25
f 123/247/194 121/33/21 124/248/195
f 122/117/100 124/248/195 121/33/21
f 160/249/196 159/250/102 150/251/103
f 147/252/197 150/251/103 159/250/102
f 159/250/102 163/253/104 147/252/197
f 148/254/104 147/252/197 163/253/104
f 216/255/198 217/125/105 180/256/199
f 196/127/107 180/256/199 217/125/105
f 221/131/111 200/132/112 220/257/200
f 199/258/201 220/257/200 200/132/112
f 224/259/202 225/133/113 191/260/203
f 192/135/115 191/260/203 225/133/113
f 222/140/118 177/138/117 228/261/204
f 195/262/205 228/261/204 177/138/117
f 211/263/206 212/143/121 182/264/207
f 183/144/122 182/264/207 212/143/121
f 174/147/125 175/265/208 201/145/123
f 208/266/209 201/145/123 175/265/208
f 205/151/129 187/152/130 204/267/210
f 188/268/211 204/267/210 187/152/130
f 99/101/84 146/153/131 142/269/212
f 143/270/212 145/165/131 95/35/23
f 13/212/159 99/101/84 142/269/212
f 143/270/212 95/35/23 11/36/24
f 13/212/159 142/269/212 141/271/212
f 11/36/24 13/212/159 141/271/212
f 11/36/24 141/271/212 144/272/212
f 11/36/24 144/272/212 143/270/212
f 89/273/213 151/274/214 149/275/134
f 148/276/134 152/277/214 87/207/154
f 5/278/215 89/273/213 149/275/134
f 148/276/134 87/207/154 3/206/153
f 5/278/215 149/275/134 150/279/134
f 3/206/153 5/278/215 150/279/134
f 3/206/153 150/279/134 147/280/134
f 3/206/153 147/280/134 148/276/134
f 89/273/213 90/281/216 151/274/214
f 153/282/217 151/274/214 90/281/216
f 167/283/7 168/180/7 143/284/7
f 145/179/7 143/284/7 168/180/7
f 236/285/218 233/167/135 248/286/219
f 245/169/137 248/286/219 233/167/135
f 243/287/220 241/171/139 259/288/220
f 257/173/141 259/288/220 241/171/139
f 239/289/221 240/175/143 255/290/221
f 256/177/143 255/290/221 240/175/143
f 258/291/7 249/292/7 250/293/7
f 258/291/7 250/293/7 254/294/7
f 253/295/7 255/296/7 256/297/7
f 253/295/7 256/297/7 252/298/7
f 254/294/7 253/295/7 252/298/7
f 260/299/7 259/300/7 257/301/7
f 251/302/7 260/299/7 257/301/7
f 251/302/7 257/301/7 258/291/7
f 258/291/7 254/294/7 252/298/7
f 252/298/7 251/302/7 258/291/7
f 262/303/222 238/304/223 250/305/222
f 254/306/224 250/305/222 238/304/223
f 168/307/225 162/308/225 171/309/226
f 165/310/226 171/309/226 162/308/225
f 265/311/148 264/312/148 166/313/148
f 156/314/148 166/313/148 264/312/148
f 264/16/8 155/315/8 98/14/8
f 132/316/8 98/14/8 155/315/8
f 155/315/8 100/317/8 132/316/8
f 134/318/8 132/316/8 100/317/8
f 100/317/8 140/319/8 134/318/8
f 136/320/8 134/318/8 140/319/8
f 140/319/8 138/321/8 136/320/8
f 103/322/227 19/323/228 101/21/9
f 17/22/10 101/21/9 19/323/228
f 89/273/213 5/278/215 109/25/13
f 25/26/14 109/25/13 5/278/215
f 33/324/229 117/108/91 31/29/17
f 115/30/18 31/29/17 117/108/91
f 123/247/194 39/325/230 121/33/21
f 37/34/22 121/33/21 39/325/230
f 93/245/192 9/326/231 129/37/25
f 45/38/26 129/37/25 9/326/231
f 137/327/232 53/328/233 135/41/29
f 51/42/30 135/41/29 53/328/233
f 35/240/187 33/214/161 57/47/35
f 58/45/33 57/47/35 33/214/161
f 29/217/164 60/50/38 31/215/162
f 59/49/37 31/215/162 60/50/38
f 27/216/163 1/218/165 61/53/40
f 62/54/41 61/53/40 1/218/165
f 47/220/167 64/57/44 15/219/166
f 63/59/46 15/219/166 64/57/44
f 49/221/168 51/223/170 65/63/49
f 66/61/47 65/63/49 51/223/170
f 55/224/171 68/66/52 53/222/169
f 67/65/51 53/222/169 68/66/52
f 13/225/172 11/227/174 69/69/55
f 70/70/56 69/69/55 11/227/174
f 37/226/173 39/228/175 71/75/60
f 72/73/58 71/75/60 39/228/175
f 43/231/178 74/78/63 41/229/176
f 73/77/62 41/229/176 74/78/63
f 45/230/177 9/232/179 75/81/65
f 76/82/66 75/81/65 9/232/179
f 17/234/181 78/85/69 7/233/180
f 77/87/71 7/233/180 78/85/69
f 19/235/182 21/237/184 79/91/75
f 80/89/73 79/91/75 21/237/184
f 25/238/185 82/94/78 23/236/183
f 81/93/77 23/236/183 82/94/78
f 5/239/186 3/241/188 83/97/81
f 84/98/82 83/97/81 3/241/188
f 139/102/85 137/327/232 140/104/87
f 138/329/234 140/104/87 137/327/232
f 111/205/152 113/32/20 112/330/235
f 114/331/236 112/330/235 113/32/20
f 119/109/92 87/207/154 120/111/94
f 88/332/237 120/111/94 87/207/154
f 105/112/95 103/322/227 106/114/97
f 104/333/238 106/114/97 103/322/227
f 127/39/27 125/209/156 128/116/99
f 126/334/239 128/116/99 125/209/156
f 85/335/240 111/205/152 86/336/241
f 112/330/235 86/336/241 111/205/152
f 169/337/242 160/249/196 149/338/242
f 150/251/103 149/338/242 160/249/196
f 180/256/199 196/127/107 197/128/108
f 180/256/199 197/128/108 198/339/243
f 180/256/199 198/339/243 199/258/201
f 180/256/199 199/258/201 200/132/112
f 180/256/199 200/132/112 179/130/110
f 173/340/244 180/256/199 179/130/110
f 173/340/244 179/130/110 178/341/110
f 178/341/110 191/260/203 192/135/115
f 178/341/110 192/135/115 193/136/116
f 178/341/110 193/136/116 194/342/245
f 178/341/110 194/342/245 195/262/205
f 178/341/110 195/262/205 177/138/117
f 173/340/244 178/341/110 177/138/117
f 173/340/244 177/138/117 176/137/117
f 176/137/117 181/343/246 182/264/207
f 176/137/117 182/264/207 183/144/122
f 176/137/117 183/144/122 184/142/120
f 173/340/244 176/137/117 184/142/120
f 184/142/120 185/344/247 175/265/208
f 174/147/125 190/148/126 189/345/248
f 174/147/125 189/345/248 188/268/211
f 174/147/125 188/268/211 187/152/130
f 174/147/125 187/152/130 186/150/128
f 174/147/125 186/150/128 173/340/244
f 175/265/208 174/147/125 173/340/244
f 173/340/244 184/142/120 175/265/208
f 218/126/106 219/346/249 197/128/108
f 198/339/243 197/128/108 219/346/249
f 178/341/110 179/130/110 223/347/109
f 215/129/109 223/347/109 179/130/110
f 227/348/250 194/342/245 226/134/114
f 193/136/116 226/134/114 194/342/245
f 209/139/118 210/349/251 176/137/117
f 181/343/246 176/137/117 210/349/251
f 214/350/252 185/344/247 213/141/119
f 184/142/120 213/141/119 185/344/247
f 207/146/124 203/351/253 190/148/126
f 189/345/248 190/148/126 203/351/253
f 202/352/254 173/340/244 206/149/127
f 186/150/128 206/149/127 173/340/244
f 161/353/148 142/354/148 162/355/148
f 146/356/148 162/355/148 142/354/148
f 163/357/148 164/358/148 148/359/148
f 152/360/148 148/359/148 164/358/148
f 151/164/7 153/13/7 170/163/7
f 172/8/7 170/163/7 153/13/7
f 248/286/219 245/169/137 247/361/255
f 246/170/138 247/361/255 245/169/137
f 235/362/256 247/361/255 234/168/136
f 246/170/138 234/168/136 247/361/255
f 237/363/257 253/364/257 238/304/223
f 254/306/224 238/304/223 253/364/257
f 232/176/144 231/365/258 252/178/145
f 251/366/259 252/178/145 231/365/258
f 261/367/260 249/368/260 242/172/140
f 258/174/142 242/172/140 249/368/260
f 97/369/261 15/370/7 1/371/7
f 233/372/7 236/373/7 229/374/7
f 230/375/7 229/374/7 236/373/7
f 241/376/7 243/377/7 97/369/261
f 97/369/261 243/377/7 244/378/7
f 230/375/7 236/373/7 235/379/7
f 230/375/7 235/379/7 234/380/7
f 242/381/7 241/376/7 97/369/261
f 261/382/7 242/381/7 97/369/261
f 97/369/261 244/378/7 231/383/7
f 85/384/261 97/369/261 231/383/7
f 85/384/261 231/383/7 232/385/7
f 85/384/261 232/385/7 240/386/7
f 85/384/261 240/386/7 239/387/7
f 85/384/261 239/387/7 237/388/7
f 85/384/261 237/388/7 238/389/7
f 85/384/261 238/389/7 262/390/7
f 1/371/7 85/384/261 262/390/7
f 261/382/7 97/369/261 1/371/7
f 1/371/7 262/390/7 230/375/7
f 1/371/7 230/375/7 234/380/7
f 1/371/7 234/380/7 233/372/7
f 1/371/7 233/372/7 229/374/7
f 1/371/7 229/374/7 261/382/7
f 97/369/261 85/384/261 98/391/242
f 86/392/242 98/391/242 85/384/261
f 266/393/8 171/309/226 265/394/8
f 165/310/226 265/394/8 171/309/226
f 97/395/262 98/396/263 131/105/88
f 132/107/90 131/105/88 98/396/263
f 91/23/11 92/397/264 101/21/9
f 102/398/265 101/21/9 92/397/264
f 105/112/95 21/203/150 103/322/227
f 19/323/228 103/322/227 21/203/150
f 27/204/151 111/205/152 1/399/266
f 85/335/240 1/399/266 111/205/152
f 35/208/155 119/109/92 33/324/229
f 117/108/91 33/324/229 119/109/92
f 125/209/156 41/210/157 123/247/194
f 39/325/230 123/247/194 41/210/157
f 131/105/88 47/211/158 97/395/262
f 15/400/267 97/395/262 47/211/158
f 139/102/85 55/213/160 137/327/232
f 53/328/233 137/327/232 55/213/160
f 59/49/37 32/51/39 58/45/33
f 34/46/34 58/45/33 32/51/39
f 60/50/38 61/53/40 30/52/39
f 28/55/42 30/52/39 61/53/40
f 62/54/41 63/59/46 2/56/43
f 16/60/43 2/56/43 63/59/46
f 65/63/49 50/64/50 64/57/44
f 48/58/45 64/57/44 50/64/50
f 66/61/47 67/65/51 52/62/48
f 54/67/53 52/62/48 67/65/51
f 68/66/52 69/69/55 56/68/54
f 14/71/57 56/68/54 69/69/55
f 71/75/60 38/76/61 70/70/56
f 12/72/57 70/70/56 38/76/61
f 73/77/62 42/79/64 72/73/58
f 40/74/59 72/73/58 42/79/64
f 74/78/63 75/81/65 44/80/64
f 46/83/67 44/80/64 75/81/65
f 76/82/66 77/87/71 10/84/68
f 8/88/72 10/84/68 77/87/71
f 79/91/75 20/92/76 78/85/69
f 18/86/70 78/85/69 20/92/76
f 80/89/73 81/93/77 22/90/74
f 24/95/79 22/90/74 81/93/77
f 82/94/78 83/97/81 26/96/80
f 6/99/83 26/96/80 83/97/81
f 57/47/35 36/48/36 84/98/82
f 4/100/83 84/98/82 36/48/36
f 137/327/232 135/41/29 138/329/234
f 136/242/189 138/329/234 135/41/29
f 113/32/20 115/30/18 114/331/236
f 116/243/190 114/331/236 115/30/18
f 89/273/213 109/25/13 90/281/216
f 110/244/191 90/281/216 109/25/13
f 103/322/227 101/21/9 104/333/238
f 102/398/265 104/333/238 101/21/9
f 125/209/156 123/247/194 126/334/239
f 124/248/195 126/334/239 123/247/194
f 87/207/154 152/277/214 88/332/237
f 156/401/217 88/332/237 152/277/214
f 158/120/103 167/402/242 144/122/103
f 143/403/242 144/122/103 167/402/242
f 180/256/199 173/340/244 216/255/198
f 202/352/254 216/255/198 173/340/244
f 220/257/200 199/258/201 219/346/249
f 198/339/243 219/346/249 199/258/201
f 223/347/109 224/259/202 178/341/110
f 191/260/203 178/341/110 224/259/202
f 228/261/204 195/262/205 227/348/250
f 194/342/245 227/348/250 195/262/205
f 210/349/251 211/263/206 181/343/246
f 182/264/207 181/343/246 211/263/206
f 208/266/209 175/265/208 214/350/252
f 185/344/247 214/350/252 175/265/208
f 203/351/253 204/267/210 189/345/248
f 188/268/211 189/345/248 204/267/210
f 222/140/118 228/261/204 10/84/68
f 222/140/118 10/84/68 8/88/72
f 2/56/43 216/255/198 202/352/254
f 2/56/43 202/352/254 206/149/127
f 28/55/42 2/56/43 206/149/127
f 28/55/42 206/149/127 205/151/129
f 30/52/39 28/55/42 205/151/129
f 32/51/39 30/52/39 205/151/129
f 34/46/34 32/51/39 205/151/129
f 36/48/36 34/46/34 205/151/129
f 4/100/83 36/48/36 205/151/129
f 209/139/118 222/140/118 8/88/72
f 210/349/251 209/139/118 8/88/72
f 210/349/251 8/88/72 18/86/70
f 211/263/206 210/349/251 18/86/70
f 211/263/206 18/86/70 20/92/76
f 211/263/206 20/92/76 22/90/74
f 211/263/206 22/90/74 24/95/79
f 211/263/206 24/95/79 26/96/80
f 211/263/206 26/96/80 6/99/83
f 4/100/83 205/151/129 204/267/210
f 4/100/83 204/267/210 203/351/253
f 4/100/83 203/351/253 207/146/124
f 4/100/83 207/146/124 201/145/123
f 6/99/83 4/100/83 201/145/123
f 6/99/83 201/145/123 208/266/209
f 6/99/83 208/266/209 214/350/252
f 6/99/83 214/350/252 213/141/119
f 6/99/83 213/141/119 212/143/121
f 212/143/121 211/263/206 6/99/83
f 46/83/67 10/84/68 228/261/204
f 46/83/67 228/261/204 227/348/250
f 44/80/64 46/83/67 227/348/250
f 42/79/64 44/80/64 227/348/250
f 40/74/59 42/79/64 227/348/250
f 38/76/61 40/74/59 227/348/250
f 12/72/57 38/76/61 227/348/250
f 216/255/198 2/56/43 16/60/43
f 217/125/105 216/255/198 16/60/43
f 217/125/105 16/60/43 48/58/45
f 218/126/106 217/125/105 48/58/45
f 218/126/106 48/58/45 50/64/50
f 218/126/106 50/64/50 52/62/48
f 218/126/106 52/62/48 54/67/53
f 218/126/106 54/67/53 56/68/54
f 218/126/106 56/68/54 14/71/57
f 12/72/57 227/348/250 226/134/114
f 12/72/57 226/134/114 225/133/113
f 12/72/57 225/133/113 224/259/202
f 12/72/57 224/259/202 223/347/109
f 14/71/57 12/72/57 223/347/109
f 14/71/57 223/347/109 215/129/109
f 14/71/57 215/129/109 221/131/111
f 14/71/57 221/131/111 220/257/200
f 14/71/57 220/257/200 219/346/249
f 14/71/57 219/346/249 218/126/106
f 146/356/148 155/404/148 162/355/148
f 165/405/148 162/355/148 155/404/148
f 152/360/148 164/358/148 156/314/148
f 166/313/148 156/314/148 164/358/148
f 162/308/225 168/307/225 161/406/212
f 157/407/212 161/406/212 168/307/225
f 168/307/225 167/408/212 157/407/212
f 158/409/212 157/407/212 167/408/212
f 235/362/256 236/285/218 247/361/255
f 248/286/219 247/361/255 236/285/218
f 244/410/268 243/287/220 260/411/269
f 259/288/220 260/411/269 243/287/220
f 237/363/257 239/289/221 253/364/257
f 255/290/221 253/364/257 239/289/221
f 244/410/268 260/411/269 231/365/258
f 251/366/259 231/365/258 260/411/269
f 229/2/2 230/6/6 249/3/3
f 250/5/5 249/3/3 230/6/6
f 172/184/146 166/182/146 170/155/133
f 164/156/133 170/155/133 166/182/146
f 265/412/148 165/405/148 264/413/148
f 155/404/148 264/413/148 165/405/148
f 91/199/147 93/201/149 92/414/104
f 94/415/104 92/414/104 93/201/149
f 263/18/8 94/20/8 154/416/8
f 96/417/8 154/416/8 94/20/8
f 94/20/8 130/418/8 96/417/8
f 122/419/8 96/417/8 130/418/8
f 130/418/8 128/420/8 122/419/8
f 124/421/8 122/419/8 128/420/8
f 128/420/8 126/422/8 124/421/8
