# Blender v2.79 (sub 0) OBJ File: 'Маленькая аптечка.blend'
# www.blender.org
o Cube_Cube.001
v 2.152622 0.402742 1.554393
v 2.344677 -0.992533 1.087700
v 2.537765 0.402742 1.288834
v 1.959534 -0.992533 1.353259
v 2.537765 0.892772 1.288834
v 2.197817 -0.992533 1.275872
v 2.152622 0.892772 1.554393
v 2.390905 0.402742 1.477006
v 2.390905 0.892772 1.477006
v 2.616194 0.841909 1.356050
v 2.620482 0.457759 1.359724
v 2.462738 0.457759 1.547896
v 2.459014 0.841909 1.544222
v 2.220731 0.841909 1.642248
v 2.224455 0.457759 1.647051
v 2.385254 -0.931400 1.132143
v 2.000111 -0.931400 1.397702
v 2.238394 -0.931400 1.320315
v 2.630408 0.813200 1.368231
v 2.630408 0.482077 1.368231
v 2.471357 0.482077 1.556403
v 2.471357 0.813200 1.556403
v 2.233074 0.813200 1.658170
v 2.233074 0.482077 1.658170
v 2.391487 1.214582 1.149635
v 2.006344 1.214582 1.415194
v 2.244627 1.214582 1.337807
v 2.265810 1.287721 1.012909
v 1.880667 1.287721 1.278468
v 2.118950 1.287721 1.201081
v 1.578790 0.836677 1.635657
v 1.578790 1.207480 1.635657
v 1.787505 1.045830 1.480368
v 1.578790 1.332430 1.307660
v 1.787505 0.836677 1.635657
v 1.787505 1.207480 1.635657
v 1.578790 1.045830 1.480368
v 1.787505 1.332430 1.307660
v 1.787505 1.249970 1.307660
v 1.578790 1.332430 1.501372
v 1.578790 1.249970 1.307660
v 1.787505 1.332430 1.501372
v 1.578790 1.212398 1.403556
v 1.787505 1.212398 1.403556
v 1.578790 0.836677 1.571539
v 1.787505 0.836677 1.571539
v 2.573546 0.069688 0.679540
v 2.730151 1.055788 0.679540
v 2.464304 0.779051 0.404099
v 2.168636 1.269696 0.679540
v 2.573546 0.069688 0.404099
v 2.730151 1.055788 0.404099
v 2.464304 0.779051 0.679540
v 2.168636 1.269696 0.404099
v 2.500261 1.269696 0.679540
v 2.500261 1.269696 0.404099
v 2.332804 1.064208 0.679540
v 2.332804 1.064208 0.404099
v 2.463780 0.069688 0.679540
v 2.463780 0.069688 0.404099
v 2.762026 0.562738 0.679540
v 2.762026 0.562738 0.404099
v -2.152622 0.402742 1.554393
v -2.344677 -0.992533 1.087700
v -2.537765 0.402742 1.288834
v -1.959534 -0.992533 1.353259
v -2.537765 0.892772 1.288834
v -2.197817 -0.992533 1.275872
v -2.152622 0.892772 1.554393
v -2.390905 0.402742 1.477006
v -2.390905 0.892772 1.477006
v -2.616194 0.841909 1.356050
v -2.620482 0.457759 1.359724
v -2.462738 0.457759 1.547896
v -2.459014 0.841909 1.544222
v -2.220731 0.841909 1.642248
v -2.224455 0.457759 1.647051
v -2.385254 -0.931400 1.132143
v -2.000111 -0.931400 1.397702
v -2.238394 -0.931400 1.320315
v -2.630408 0.813200 1.368231
v -2.630408 0.482077 1.368231
v -2.471357 0.482077 1.556403
v -2.471357 0.813200 1.556403
v -2.233074 0.813200 1.658170
v -2.233074 0.482077 1.658170
v -2.391487 1.214582 1.149635
v -2.006344 1.214582 1.415194
v -2.244627 1.214582 1.337807
v -2.265810 1.287721 1.012909
v -1.880667 1.287721 1.278468
v -2.118950 1.287721 1.201081
v -1.578790 0.836677 1.635657
v -1.578790 1.207480 1.635657
v -1.787505 1.045830 1.480368
v -1.578790 1.332430 1.307660
v -1.787505 0.836677 1.635657
v -1.787505 1.207480 1.635657
v -1.578790 1.045830 1.480368
v -1.787505 1.332430 1.307660
v -1.787505 1.249970 1.307660
v -1.578790 1.332430 1.501372
v -1.578790 1.249970 1.307660
v -1.787505 1.332430 1.501372
v -1.578790 1.212398 1.403556
v -1.787505 1.212398 1.403556
v -1.578790 0.836677 1.571539
v -1.787505 0.836677 1.571539
v -2.611140 0.168029 0.502426
v -2.736578 0.956386 0.502426
v -2.168636 1.269696 0.679540
v -2.464304 0.779051 0.679540
v -2.500261 1.269696 0.679540
v -2.332804 1.064208 0.679540
v -2.463780 0.069688 0.679540
v -2.762026 0.562738 0.502426
v 2.344677 -0.992533 0.000000
v 2.152622 0.402742 -1.554393
v 2.344677 -0.992533 -1.087700
v 2.537765 0.402742 -1.288834
v 1.959534 -0.992533 -1.353259
v 2.537765 0.892772 -1.288834
v 2.197817 -0.992533 -1.275872
v 2.152622 0.892772 -1.554393
v 2.390905 0.402742 -1.477006
v 2.390905 0.892772 -1.477006
v 2.616194 0.841909 -1.356050
v 2.620482 0.457759 -1.359724
v 2.462738 0.457759 -1.547896
v 2.459014 0.841909 -1.544222
v 2.220731 0.841909 -1.642248
v 2.224455 0.457759 -1.647051
v 2.385254 -0.931400 -1.132143
v 2.000111 -0.931400 -1.397702
v 2.238394 -0.931400 -1.320315
v 2.630408 0.813200 -1.368231
v 2.630408 0.482077 -1.368231
v 2.471357 0.482077 -1.556403
v 2.471357 0.813200 -1.556403
v 2.233074 0.813200 -1.658170
v 2.233074 0.482077 -1.658170
v 2.391487 1.214582 -1.149635
v 2.006344 1.214582 -1.415194
v 2.244627 1.214582 -1.337807
v 2.265810 1.287721 -1.012909
v 1.880667 1.287721 -1.278468
v 2.118950 1.287721 -1.201081
v 1.578790 0.836677 -1.635657
v 1.578790 1.207480 -1.635657
v 1.787505 1.045830 -1.480368
v 1.578790 1.332430 -1.307660
v 1.787505 0.836677 -1.635657
v 1.787505 1.207480 -1.635657
v 1.578790 1.045830 -1.480368
v 1.787505 1.332430 -1.307660
v 1.787505 1.249970 -1.307660
v 1.578790 1.332430 -1.501372
v 1.578790 1.249970 -1.307660
v 1.787505 1.332430 -1.501372
v 1.578790 1.212398 -1.403556
v 1.787505 1.212398 -1.403556
v 1.578790 0.836677 -1.571539
v 1.787505 0.836677 -1.571539
v 2.573546 0.069688 -0.679540
v 2.730151 1.055788 -0.679540
v 2.464304 0.779051 -0.404099
v 2.168636 1.269696 -0.679540
v 2.573546 0.069688 -0.404099
v 2.730151 1.055788 -0.404099
v 2.464304 0.779051 -0.679540
v 2.168636 1.269696 -0.404099
v 2.500261 1.269696 -0.679540
v 2.500261 1.269696 -0.404099
v 2.332804 1.064208 -0.679540
v 2.332804 1.064208 -0.404099
v 2.463780 0.069688 -0.679540
v 2.463780 0.069688 -0.404099
v 2.762026 0.562738 -0.679540
v 2.762026 0.562738 -0.404099
v -2.344677 -0.992533 0.000000
v -2.152622 0.402742 -1.554393
v -2.344677 -0.992533 -1.087700
v -2.537765 0.402742 -1.288834
v -1.959534 -0.992533 -1.353259
v -2.537765 0.892772 -1.288834
v -2.197817 -0.992533 -1.275872
v -2.152622 0.892772 -1.554393
v -2.390905 0.402742 -1.477006
v -2.390905 0.892772 -1.477006
v -2.616194 0.841909 -1.356050
v -2.620482 0.457759 -1.359724
v -2.462738 0.457759 -1.547896
v -2.459014 0.841909 -1.544222
v -2.220731 0.841909 -1.642248
v -2.224455 0.457759 -1.647051
v -2.385254 -0.931400 -1.132143
v -2.000111 -0.931400 -1.397702
v -2.238394 -0.931400 -1.320315
v -2.630408 0.813200 -1.368231
v -2.630408 0.482077 -1.368231
v -2.471357 0.482077 -1.556403
v -2.471357 0.813200 -1.556403
v -2.233074 0.813200 -1.658170
v -2.233074 0.482077 -1.658170
v -2.391487 1.214582 -1.149635
v -2.006344 1.214582 -1.415194
v -2.244627 1.214582 -1.337807
v -2.265810 1.287721 -1.012909
v -1.880667 1.287721 -1.278468
v -2.118950 1.287721 -1.201081
v -1.578790 0.836677 -1.635657
v -1.578790 1.207480 -1.635657
v -1.787505 1.045830 -1.480368
v -1.578790 1.332430 -1.307660
v -1.787505 0.836677 -1.635657
v -1.787505 1.207480 -1.635657
v -1.578790 1.045830 -1.480368
v -1.787505 1.332430 -1.307660
v -1.787505 1.249970 -1.307660
v -1.578790 1.332430 -1.501372
v -1.578790 1.249970 -1.307660
v -1.787505 1.332430 -1.501372
v -1.578790 1.212398 -1.403556
v -1.787505 1.212398 -1.403556
v -1.578790 0.836677 -1.571539
v -1.787505 0.836677 -1.571539
v -2.611140 0.168029 -0.502426
v -2.736578 0.956386 -0.502426
v -2.168636 1.269696 -0.679540
v -2.464304 0.779051 -0.679540
v -2.500261 1.269696 -0.679540
v -2.332804 1.064208 -0.679540
v -2.463780 0.069688 -0.679540
v -2.762026 0.562738 -0.502426
v -2.762026 0.562738 0.679540
v -2.730151 1.055788 0.679540
v -2.573546 0.069688 0.679540
v -2.762026 0.562738 -0.679540
v -2.730151 1.055788 -0.679540
v -2.573546 0.069688 -0.679540
v -2.535841 0.168029 0.502426
v -2.661278 0.956386 0.502426
v -2.686727 0.562738 0.502426
v -2.535841 0.168029 -0.502426
v -2.661278 0.956386 -0.502426
v -2.686727 0.562738 -0.502426
vt 0.820139 0.005070
vt 0.925027 0.005070
vt 0.943172 0.014850
vt 0.362452 0.370052
vt 0.368778 0.144059
vt 0.378587 0.370369
vt 0.381230 0.380586
vt 0.647272 0.370369
vt 0.644464 0.380586
vt 0.373185 0.628122
vt 0.370149 0.401220
vt 0.388295 0.401101
vt 0.950635 0.030717
vt 0.497468 0.390726
vt 0.606641 0.401101
vt 0.374435 0.390844
vt 0.392580 0.390726
vt 0.365095 0.380269
vt 0.608328 0.766459
vt 0.373185 0.711552
vt 0.621751 0.711552
vt 0.657950 0.144059
vt 0.647995 0.005387
vt 0.368841 0.060700
vt 0.378474 0.005387
vt 0.362339 0.005070
vt 0.368462 0.766577
vt 0.355039 0.711670
vt 0.670966 0.675218
vt 0.657781 0.416374
vt 0.670966 0.424743
vt 0.595143 0.779013
vt 0.386608 0.766459
vt 0.683389 0.390726
vt 0.678428 0.408875
vt 0.665244 0.400506
vt 0.696574 0.700866
vt 0.696574 0.399095
vt 0.865627 0.327484
vt 0.851606 0.341512
vt 0.851606 0.327484
vt 0.528136 0.852256
vt 0.514285 0.789152
vt 0.528304 0.789179
vt 0.459202 0.819477
vt 0.479813 0.811412
vt 0.482472 0.840537
vt 0.514285 0.874035
vt 0.528304 0.874061
vt 0.827356 0.346001
vt 0.841377 0.327484
vt 0.841377 0.346001
vt 0.204740 0.848560
vt 0.225524 0.856835
vt 0.209688 0.872917
vt 0.232051 0.865950
vt 0.486286 0.802379
vt 0.464109 0.795225
vt 0.481546 0.789152
vt 0.228205 0.827662
vt 0.226231 0.789132
vt 0.232051 0.791200
vt 0.480514 0.878954
vt 0.486286 0.876944
vt 0.120182 0.956894
vt 0.093621 0.872925
vt 0.120182 0.872925
vt 0.960863 0.044900
vt 0.987289 0.040920
vt 0.983187 0.090051
vt 0.093621 0.993498
vt 0.120182 0.993498
vt 0.746589 0.327484
vt 0.768867 0.353813
vt 0.746589 0.353813
vt 0.951407 0.885357
vt 0.977838 0.889319
vt 0.963261 0.923047
vt 0.985436 0.925163
vt 0.994886 0.005070
vt 0.972715 0.007202
vt 0.973735 0.840192
vt 0.957384 0.801663
vt 0.985436 0.720075
vt 0.966840 0.128593
vt 0.994886 0.210162
vt 0.987547 0.210868
vt 0.978096 0.719375
vt 0.093621 0.789132
vt 0.120182 0.789132
vt 0.635210 0.844138
vt 0.642584 0.817809
vt 0.642584 0.844138
vt 0.820139 0.317344
vt 0.943172 0.307564
vt 0.925027 0.317344
vt 0.663147 0.370052
vt 0.673825 0.143742
vt 0.281017 0.401213
vt 0.275889 0.628783
vt 0.261633 0.401446
vt 0.950635 0.291697
vt 0.029950 0.628783
vt 0.277136 0.390743
vt 0.257752 0.390976
vt 0.660339 0.380269
vt 0.276179 0.712196
vt 0.045137 0.766742
vt 0.030240 0.712196
vt 0.658013 0.060700
vt 0.663870 0.005070
vt 0.673888 0.060383
vt 0.283897 0.766509
vt 0.295563 0.711963
vt 0.264513 0.766742
vt 0.059449 0.778992
vt 0.678428 0.691086
vt 0.683389 0.709235
vt 0.665244 0.699455
vt 0.657781 0.683587
vt 0.891924 0.399095
vt 0.891925 0.700866
vt 0.841377 0.370169
vt 0.827356 0.356141
vt 0.841377 0.356141
vt 0.326723 0.675649
vt 0.312536 0.738700
vt 0.312704 0.675623
vt 0.242280 0.848560
vt 0.263064 0.856835
vt 0.247228 0.872917
vt 0.326723 0.760532
vt 0.312704 0.760506
vt 0.817127 0.346001
vt 0.803106 0.327484
vt 0.817127 0.327484
vt 0.442501 0.811412
vt 0.421890 0.819477
vt 0.426797 0.795225
vt 0.448973 0.802379
vt 0.269591 0.865950
vt 0.264812 0.879165
vt 0.443202 0.878954
vt 0.445160 0.840538
vt 0.448973 0.876944
vt 0.263771 0.789132
vt 0.265745 0.827662
vt 0.049365 0.955115
vt 0.075795 0.959056
vt 0.061219 0.992791
vt 0.083392 0.994890
vt 0.055342 0.871426
vt 0.071692 0.909939
vt 0.076053 0.789132
vt 0.083392 0.789827
vt 0.697106 0.014850
vt 0.715252 0.005070
vt 0.321504 0.370072
vt 0.315742 0.144042
vt 0.331750 0.143734
vt 0.036772 0.370381
vt 0.302771 0.380603
vt 0.039498 0.380603
vt 0.624786 0.401220
vt 0.621751 0.628122
vt 0.689644 0.030717
vt 0.620501 0.390844
vt 0.602355 0.390726
vt 0.318778 0.380295
vt 0.305497 0.370381
vt 0.026526 0.144042
vt 0.026526 0.060679
vt 0.305916 0.005378
vt 0.315742 0.060679
vt 0.321923 0.005070
vt 0.331750 0.060370
vt 0.626473 0.766577
vt 0.639896 0.711670
vt 0.930717 0.683587
vt 0.917532 0.424743
vt 0.930717 0.416374
vt 0.910070 0.408875
vt 0.905109 0.390726
vt 0.923254 0.400506
vt 0.917533 0.675218
vt 0.738330 0.363964
vt 0.752349 0.377980
vt 0.738330 0.377991
vt 0.576804 0.789152
vt 0.562783 0.852233
vt 0.562783 0.789152
vt 0.384637 0.848646
vt 0.405202 0.856838
vt 0.389533 0.872977
vt 0.576804 0.874024
vt 0.562783 0.874024
vt 0.817127 0.374658
vt 0.803106 0.356141
vt 0.817127 0.356141
vt 0.187984 0.811463
vt 0.167201 0.819738
vt 0.172148 0.795381
vt 0.194512 0.802348
vt 0.411661 0.865925
vt 0.406932 0.879155
vt 0.188691 0.879165
vt 0.190666 0.840636
vt 0.194512 0.877097
vt 0.405902 0.789152
vt 0.407856 0.827663
vt 0.156972 0.872925
vt 0.130411 0.956894
vt 0.130411 0.872925
vt 0.940946 0.556709
vt 0.967377 0.560670
vt 0.952800 0.594398
vt 0.156972 0.993498
vt 0.130411 0.993498
vt 0.736360 0.327484
vt 0.714082 0.353813
vt 0.714082 0.327484
vt 0.031540 0.824983
vt 0.005114 0.828963
vt 0.016966 0.791264
vt 0.039136 0.789132
vt 0.974976 0.596515
vt 0.011091 0.912655
vt 0.027438 0.874113
vt 0.039136 0.994224
vt 0.946923 0.473014
vt 0.963274 0.511544
vt 0.967636 0.390726
vt 0.974975 0.391427
vt 0.031798 0.994930
vt 0.156972 0.789132
vt 0.130411 0.789132
vt 0.624981 0.844138
vt 0.617607 0.817809
vt 0.624981 0.817809
vt 0.715252 0.317344
vt 0.697106 0.307565
vt 0.020764 0.370072
vt 0.029071 0.401213
vt 0.045595 0.401446
vt 0.689644 0.291697
vt 0.033670 0.390743
vt 0.050194 0.390976
vt 0.023490 0.380295
vt 0.020346 0.005070
vt 0.036353 0.005378
vt 0.028613 0.766509
vt 0.013717 0.711963
vt 0.905109 0.709235
vt 0.910070 0.691086
vt 0.923255 0.699455
vt 0.714082 0.377991
vt 0.728101 0.363953
vt 0.728101 0.377980
vt 0.538533 0.810943
vt 0.552554 0.874024
vt 0.538533 0.874024
vt 0.279820 0.819738
vt 0.300604 0.811463
vt 0.303285 0.840636
vt 0.552554 0.789152
vt 0.538533 0.789152
vt 0.617607 0.807669
vt 0.631629 0.789152
vt 0.631629 0.807669
vt 0.347383 0.848646
vt 0.367949 0.856838
vt 0.352279 0.872977
vt 0.374408 0.865925
vt 0.307131 0.802348
vt 0.284768 0.795381
vt 0.302352 0.789132
vt 0.370602 0.827663
vt 0.368648 0.789152
vt 0.374408 0.791197
vt 0.301311 0.879165
vt 0.307131 0.877097
vt 0.659912 0.923527
vt 0.787467 0.888354
vt 0.789581 0.924416
vt 0.587033 0.789152
vt 0.592091 0.885206
vt 0.587033 0.885206
vt 0.907148 0.759180
vt 0.933580 0.755219
vt 0.929476 0.804345
vt 0.496515 0.919067
vt 0.503888 0.789152
vt 0.503888 0.919067
vt 0.318442 0.530797
vt 0.317585 0.597841
vt 0.312536 0.597529
vt 0.312536 0.390743
vt 0.334814 0.520658
vt 0.312536 0.520658
vt 0.941178 0.719375
vt 0.919003 0.721491
vt 0.913126 0.842875
vt 0.941178 0.924462
vt 0.933838 0.925163
vt 0.153973 0.390976
vt 0.770565 0.871328
vt 0.787450 0.804476
vt 0.772258 0.736944
vt 0.770551 0.804360
vt 0.674693 0.870670
vt 0.657781 0.803587
vt 0.674680 0.803703
vt 0.676386 0.736287
vt 0.789581 0.720264
vt 0.659912 0.719375
vt 0.657798 0.887465
vt 0.799810 0.786800
vt 0.896919 0.719375
vt 0.895684 0.786800
vt 0.800291 0.853766
vt 0.896165 0.853766
vt 0.607379 0.885206
vt 0.602320 0.789152
vt 0.607379 0.789152
vt 0.318442 0.665172
vt 0.323491 0.665483
vt 0.323265 0.789448
vt 0.322408 0.856778
vt 0.317360 0.857094
vt 0.323265 0.923821
vt 0.328312 0.923506
vt 0.352643 0.143743
vt 0.355039 0.628240
vt 0.352706 0.060383
vt 0.399792 0.779013
vt 0.865627 0.341512
vt 0.514117 0.852229
vt 0.827356 0.327484
vt 0.227272 0.879165
vt 0.093621 0.956894
vt 0.768867 0.327484
vt 0.635210 0.817809
vt 0.295272 0.628551
vt 0.252735 0.778992
vt 0.827356 0.370169
vt 0.326555 0.738727
vt 0.803106 0.346001
vt 0.444234 0.789152
vt 0.269591 0.791200
vt 0.639896 0.628240
vt 0.752349 0.363953
vt 0.576804 0.852233
vt 0.803106 0.374658
vt 0.189732 0.789132
vt 0.411661 0.791197
vt 0.156972 0.956894
vt 0.736360 0.353813
vt 0.617607 0.844138
vt 0.010519 0.143734
vt 0.013426 0.628551
vt 0.010519 0.060370
vt 0.714082 0.363964
vt 0.552554 0.810943
vt 0.617607 0.789152
vt 0.369679 0.879155
vt 0.592091 0.789152
vt 0.496515 0.789152
vt 0.323491 0.531109
vt 0.334814 0.390743
vt 0.801045 0.719375
vt 0.602320 0.885206
vt 0.328312 0.789132
vt 0.629407 0.641555
vt 0.366349 0.637423
vt 0.628587 0.637423
vt 0.809431 0.863906
vt 0.801523 0.881696
vt 0.799810 0.864271
vt 0.366703 0.702829
vt 0.348558 0.702956
vt 0.662729 0.069712
vt 0.363601 0.074661
vt 0.364407 0.069712
vt 0.663539 0.130989
vt 0.364116 0.135080
vt 0.363559 0.130989
vt 0.663581 0.074661
vt 0.628232 0.702829
vt 0.365529 0.697930
vt 0.629407 0.697930
vt 0.348203 0.637550
vt 0.347383 0.698058
vt 0.853408 0.352283
vt 0.861751 0.370135
vt 0.851606 0.369699
vt 0.348238 0.069311
vt 0.662938 0.135080
vt 0.347945 0.134674
vt 0.347383 0.130572
vt 0.365529 0.641555
vt 0.347383 0.641683
vt 0.281798 0.703662
vt 0.023033 0.703662
vt 0.281879 0.638279
vt 0.021519 0.642434
vt 0.022413 0.638279
vt 0.829288 0.882320
vt 0.820701 0.864843
vt 0.828578 0.863906
vt 0.301282 0.703413
vt 0.282805 0.698798
vt 0.021715 0.698798
vt 0.302307 0.698546
vt 0.632429 0.872744
vt 0.641543 0.855267
vt 0.642584 0.872744
vt 0.678569 0.069311
vt 0.679415 0.074244
vt 0.678776 0.134674
vt 0.679372 0.130572
vt 0.301369 0.638030
vt 0.282609 0.642434
vt 0.302111 0.642183
vt 0.849146 0.882320
vt 0.840558 0.864843
vt 0.848435 0.863906
vt 0.646378 0.702956
vt 0.321147 0.074628
vt 0.021951 0.069681
vt 0.320318 0.069681
vt 0.021701 0.135051
vt 0.321147 0.130959
vt 0.320568 0.135051
vt 0.021122 0.130959
vt 0.647552 0.698058
vt 0.871980 0.370117
vt 0.881095 0.352640
vt 0.882135 0.370117
vt 0.336325 0.069291
vt 0.337154 0.074223
vt 0.336575 0.134656
vt 0.337154 0.130553
vt 0.646732 0.637550
vt 0.647552 0.641683
vt 0.783638 0.366254
vt 0.786921 0.347088
vt 0.792878 0.363570
vt 0.784564 0.328292
vt 0.779096 0.348384
vt 0.697897 0.346796
vt 0.695086 0.365549
vt 0.689644 0.345429
vt 0.006610 0.703413
vt 0.005311 0.698546
vt 0.694108 0.327484
vt 0.703853 0.330315
vt 0.021122 0.074629
vt 0.005944 0.069291
vt 0.005693 0.134657
vt 0.005114 0.130553
vt 0.005996 0.638030
vt 0.005114 0.642183
vt 0.809431 0.882334
vt 0.861751 0.351652
vt 0.347426 0.074245
vt 0.819660 0.882320
vt 0.633236 0.854278
vt 0.839517 0.882320
vt 0.872787 0.351652
vt 0.792878 0.327484
vt 0.703853 0.366401
vt 0.005114 0.074223
vn 0.4727 -0.8812 0.0000
vn 0.4815 -0.8683 0.1195
vn 0.2491 -0.8942 0.3719
vn 0.5199 -0.4292 0.7385
vn 0.1169 -0.5869 0.8011
vn 0.1524 -0.3940 0.9064
vn 0.0530 -0.8838 0.4648
vn -0.1524 -0.3940 0.9064
vn -0.0530 -0.8838 0.4648
vn 0.7541 -0.6128 0.2363
vn 0.8620 -0.4012 0.3098
vn 0.8620 -0.4012 -0.3098
vn 0.6708 0.7097 -0.2149
vn 0.6355 0.7441 0.2058
vn 0.6355 0.7441 -0.2058
vn -0.1169 -0.5869 0.8011
vn -0.1041 0.6983 0.7082
vn 0.1090 0.7147 0.6909
vn 0.1041 0.6983 0.7082
vn 0.3809 0.7368 0.5586
vn 0.3771 0.7578 0.5324
vn -0.0237 0.9686 0.2476
vn 0.0237 0.9686 0.2476
vn 0.2628 0.9633 -0.0537
vn 0.6708 0.7097 0.2149
vn 0.1220 0.9749 0.1862
vn -0.2628 0.9633 0.0537
vn 0.2628 0.9633 0.0537
vn 0.5773 0.5773 -0.5773
vn -0.7778 0.0000 -0.6284
vn -0.5773 0.5773 -0.5773
vn 0.6273 0.3109 0.7140
vn -0.7071 0.0000 0.7071
vn 0.7071 0.0000 0.7071
vn -0.6273 0.3109 0.7140
vn -1.0000 0.0000 0.0000
vn -0.6333 0.7202 0.2832
vn 0.6333 0.7202 0.2832
vn 1.0000 0.0000 0.0000
vn 0.7778 0.0000 -0.6284
vn 0.6997 0.3319 -0.6326
vn 0.7409 -0.1122 0.6621
vn 0.7409 -0.1122 -0.6621
vn 0.6997 0.3319 0.6326
vn 0.0000 0.0000 1.0000
vn 0.2832 0.7202 0.6333
vn 0.2832 0.7202 -0.6333
vn 0.0000 0.8684 0.4957
vn 0.0000 0.8684 -0.4957
vn 0.0000 0.0000 -1.0000
vn 0.0000 -0.7073 -0.7069
vn 0.0000 -0.7073 0.7069
vn 0.4540 -0.6596 0.5990
vn 0.4540 -0.6596 -0.5990
vn -0.4727 -0.8812 0.0000
vn -0.2491 -0.8942 0.3719
vn -0.4815 -0.8683 0.1195
vn -0.5199 -0.4292 0.7385
vn -0.4476 -0.6245 0.6401
vn -0.7541 -0.6128 0.2363
vn -0.8620 -0.4012 0.3098
vn -0.7541 -0.6128 -0.2363
vn -0.6355 0.7441 0.2058
vn -0.6708 0.7097 -0.2149
vn -0.6355 0.7441 -0.2058
vn -0.1090 0.7147 0.6909
vn -0.3809 0.7368 0.5586
vn -0.3771 0.7578 0.5324
vn -0.6708 0.7097 0.2149
vn -0.2628 0.9633 -0.0537
vn -0.1220 0.9749 0.1862
vn -0.6997 0.3319 0.6326
vn -0.2832 0.7202 0.6333
vn -0.7409 -0.1122 0.6621
vn -0.4540 -0.6596 0.5990
vn 0.2491 -0.8942 -0.3719
vn 0.4815 -0.8683 -0.1195
vn 0.5199 -0.4292 -0.7385
vn 0.1169 -0.5869 -0.8011
vn 0.4476 -0.6245 -0.6401
vn -0.1524 -0.3940 -0.9064
vn 0.0530 -0.8838 -0.4648
vn -0.0530 -0.8838 -0.4648
vn 0.7541 -0.6128 -0.2363
vn 0.1524 -0.3940 -0.9064
vn -0.1169 -0.5869 -0.8011
vn -0.1090 0.7147 -0.6909
vn 0.1041 0.6983 -0.7082
vn 0.1090 0.7147 -0.6909
vn 0.3809 0.7368 -0.5586
vn 0.3771 0.7578 -0.5324
vn -0.1041 0.6983 -0.7082
vn 0.0237 0.9686 -0.2476
vn 0.1220 0.9749 -0.1862
vn -0.0237 0.9686 -0.2476
vn -0.7778 0.0000 0.6284
vn 0.5773 0.5773 0.5773
vn -0.5773 0.5773 0.5773
vn -0.7071 0.0000 -0.7071
vn 0.6273 0.3109 -0.7140
vn 0.7071 0.0000 -0.7071
vn -0.6273 0.3109 -0.7140
vn -0.6333 0.7202 -0.2832
vn 0.6333 0.7202 -0.2832
vn 0.7778 0.0000 0.6284
vn -0.4815 -0.8683 -0.1195
vn -0.2491 -0.8942 -0.3719
vn -0.5199 -0.4292 -0.7385
vn -0.8620 -0.4012 -0.3098
vn -0.3809 0.7368 -0.5586
vn -0.3771 0.7578 -0.5324
vn -0.1220 0.9749 -0.1862
vn -0.2832 0.7202 -0.6333
vn -0.9153 -0.2466 0.3183
vn -0.5974 -0.5600 -0.5740
vn -0.9153 -0.2466 -0.3183
vn -0.6997 0.3319 -0.6326
vn -0.6444 -0.0976 -0.7584
vn -0.7409 -0.1122 -0.6621
vn -0.4540 -0.6596 -0.5990
vn -0.9151 -0.0233 -0.4025
vn -0.9151 -0.0233 0.4025
vn -0.6444 -0.0976 0.7584
vn -0.6821 0.4695 -0.5605
vn -0.5974 -0.5600 0.5740
vn -0.6821 0.4695 0.5605
vn 0.4476 -0.6245 0.6401
vn -0.4476 -0.6245 -0.6401
vn 0.9111 -0.2219 -0.3474
vn 0.7079 -0.6631 0.2432
vn 0.7079 -0.6631 -0.2432
vn 0.1220 0.7150 0.6883
vn 0.6786 0.6980 0.2284
vn 0.4189 0.7045 0.5729
vn -0.1220 0.7150 0.6883
vn 0.2027 0.2688 0.9416
vn -0.2044 -0.2311 0.9512
vn 0.1313 -0.6809 0.7205
vn 0.2044 -0.2311 0.9512
vn -0.2027 0.2688 0.9416
vn 0.6786 0.6980 -0.2284
vn 0.9023 0.2580 0.3452
vn 0.9023 0.2580 -0.3452
vn 0.4393 -0.6697 0.5987
vn 0.5780 0.2566 0.7746
vn -0.1313 -0.6809 0.7205
vn 0.5830 -0.2199 0.7821
vn 0.9111 -0.2219 0.3474
vn -0.6786 0.6980 0.2284
vn -0.6786 0.6980 -0.2284
vn -0.7079 -0.6631 0.2432
vn -0.9111 -0.2219 -0.3474
vn -0.7079 -0.6631 -0.2432
vn -0.4189 0.7045 0.5729
vn -0.9023 0.2580 0.3452
vn -0.9023 0.2580 -0.3452
vn -0.5780 0.2566 0.7746
vn -0.4393 -0.6697 0.5987
vn -0.5830 -0.2199 0.7821
vn -0.9111 -0.2219 0.3474
vn 0.1220 0.7150 -0.6883
vn 0.4189 0.7045 -0.5729
vn 0.2027 0.2688 -0.9416
vn -0.1220 0.7150 -0.6883
vn -0.1313 -0.6809 -0.7205
vn 0.2044 -0.2311 -0.9512
vn 0.1313 -0.6809 -0.7205
vn -0.2044 -0.2311 -0.9512
vn 0.5780 0.2566 -0.7746
vn 0.4393 -0.6697 -0.5987
vn 0.5830 -0.2199 -0.7821
vn -0.4189 0.7045 -0.5729
vn -0.4393 -0.6697 -0.5987
vn -0.5780 0.2566 -0.7746
vn -0.2027 0.2688 -0.9416
vn -0.5830 -0.2199 -0.7821
s 1
f 117/1/1 2/2/2 6/3/3
f 18/4/4 1/5/5 17/6/6
f 4/7/7 79/8/8 66/9/9
f 3/10/10 18/11/4 16/12/11
f 117/1/1 6/3/3 4/13/7
f 16/12/11 117/14/1 133/15/12
f 133/15/12 3/10/10 16/12/11
f 16/12/11 6/16/3 2/17/2
f 6/18/3 17/6/6 4/7/7
f 142/19/13 5/20/14 122/21/15
f 17/6/6 63/22/16 79/8/8
f 88/23/17 7/24/18 26/25/19
f 7/24/18 27/26/20 26/25/19
f 5/20/14 27/27/20 9/28/21
f 91/29/22 26/30/19 29/31/23
f 145/32/24 25/33/25 142/19/13
f 25/34/25 30/35/26 27/36/20
f 26/30/19 30/35/26 29/31/23
f 29/31/23 90/37/27 91/29/22
f 30/35/26 28/38/28 29/31/23
f 38/39/29 41/40/30 34/41/31
f 36/42/32 31/43/33 35/44/34
f 32/45/35 43/46/36 37/47/36
f 40/48/37 36/42/32 42/49/38
f 34/50/31 42/51/38 38/52/29
f 36/53/32 44/54/39 42/55/38
f 39/56/40 42/55/38 44/54/39
f 41/57/30 40/58/37 34/59/31
f 33/60/39 35/61/34 46/62/39
f 31/63/33 37/47/36 45/64/36
f 52/65/41 61/66/42 62/67/43
f 48/68/44 57/69/45 53/70/45
f 55/71/46 52/65/41 56/72/47
f 50/73/48 56/74/47 54/75/49
f 52/76/41 58/77/50 56/78/47
f 58/77/50 54/79/49 56/78/47
f 50/80/48 57/69/45 55/81/46
f 49/82/50 62/83/43 60/84/51
f 61/85/42 53/70/45 59/86/52
f 47/87/53 61/85/42 59/86/52
f 60/84/51 62/83/43 51/88/54
f 62/67/43 47/89/53 51/90/54
f 59/91/52 51/92/54 47/93/53
f 180/94/55 68/95/56 64/96/57
f 80/97/58 63/22/16 70/98/59
f 80/99/58 65/100/60 78/101/61
f 180/94/55 66/102/9 68/95/56
f 117/1/1 4/13/7 66/102/9
f 183/103/62 78/101/61 65/100/60
f 68/104/56 78/101/61 64/105/57
f 68/106/56 79/8/8 80/97/58
f 67/107/63 205/108/64 185/109/65
f 69/110/66 89/111/67 71/112/68
f 89/113/67 67/107/63 71/114/68
f 87/115/69 208/116/70 205/108/64
f 92/117/71 87/118/69 89/119/67
f 88/120/17 92/117/71 89/119/67
f 90/37/27 145/121/24 208/122/70
f 92/117/71 91/29/22 90/37/27
f 103/123/40 100/124/31 96/125/29
f 93/126/34 98/127/35 97/128/33
f 94/129/32 105/130/39 102/131/38
f 98/127/35 102/132/38 104/133/37
f 104/134/37 96/135/29 100/136/31
f 106/137/36 98/138/35 104/139/37
f 104/139/37 101/140/30 106/137/36
f 102/131/38 103/141/40 96/142/29
f 97/143/33 95/144/36 108/145/36
f 93/146/34 99/147/39 94/129/32
f 236/148/72 114/149/45 113/150/73
f 111/151/48 113/150/73 114/149/45
f 235/152/74 112/153/45 236/148/72
f 237/154/75 115/155/52 235/152/74
f 117/1/1 123/156/76 119/157/77
f 135/158/78 118/159/79 125/160/80
f 197/161/81 121/162/82 184/163/83
f 135/164/78 120/165/84 133/15/12
f 117/1/1 121/166/82 123/156/76
f 123/167/76 133/15/12 119/168/77
f 123/169/76 134/170/85 135/158/78
f 181/171/86 134/170/85 197/161/81
f 187/172/87 143/173/88 124/174/89
f 124/174/89 144/175/90 126/176/91
f 144/177/90 122/21/15 126/178/91
f 206/179/92 146/180/93 143/181/88
f 147/182/94 142/183/13 144/184/90
f 143/181/88 147/182/94 144/184/90
f 208/122/70 146/180/93 209/185/95
f 147/182/94 146/180/93 145/121/24
f 158/186/96 155/187/97 151/188/98
f 148/189/99 153/190/100 152/191/101
f 149/192/102 160/193/36 157/194/103
f 153/190/100 157/195/103 159/196/104
f 159/197/104 151/198/98 155/199/97
f 161/200/39 153/201/100 159/202/104
f 159/202/104 156/203/105 161/200/39
f 157/194/103 158/204/96 151/205/98
f 152/206/101 150/207/39 163/208/39
f 148/209/99 154/210/36 149/192/102
f 178/211/43 169/212/44 179/213/42
f 165/214/41 174/215/50 172/216/47
f 169/212/44 172/217/47 173/218/46
f 173/219/46 167/220/49 171/221/48
f 175/222/45 169/223/44 173/224/46
f 175/222/45 173/224/46 171/225/48
f 167/226/49 172/216/47 174/215/50
f 179/227/42 166/228/45 177/229/52
f 178/230/43 170/231/50 165/214/41
f 164/232/54 176/233/51 178/230/43
f 177/229/52 168/234/53 179/227/42
f 164/235/54 179/213/42 168/236/53
f 168/237/53 176/238/51 164/239/54
f 180/94/55 182/240/106 186/241/107
f 198/242/108 181/171/86 197/161/81
f 183/103/62 198/243/108 196/244/109
f 180/94/55 186/241/107 184/245/83
f 196/244/109 186/246/107 182/247/106
f 186/248/107 197/161/81 184/163/83
f 187/172/87 207/249/110 206/250/92
f 185/109/65 207/251/110 189/252/111
f 205/253/64 210/254/112 207/255/110
f 206/179/92 210/254/112 209/185/95
f 210/254/112 208/122/70 209/185/95
f 218/256/98 221/257/105 214/258/97
f 216/259/102 211/260/101 215/261/99
f 212/262/100 223/263/39 217/264/39
f 220/265/104 216/259/102 222/266/103
f 214/267/97 222/268/103 218/269/98
f 216/270/102 224/271/36 222/272/103
f 219/273/96 222/272/103 224/271/36
f 221/274/105 220/275/104 214/276/97
f 213/277/36 215/278/99 226/279/36
f 211/280/101 217/264/39 225/281/39
f 231/282/113 236/283/72 113/284/73
f 228/285/114 242/286/115 110/287/116
f 239/288/117 232/289/50 230/290/50
f 237/291/75 233/292/51 115/293/52
f 110/294/116 243/295/118 116/296/119
f 229/297/49 113/298/73 111/299/48
f 229/300/49 232/289/50 231/301/113
f 238/302/119 230/290/50 233/303/51
f 240/304/120 238/302/119 233/303/51
f 196/244/109 182/247/106 180/305/55
f 110/306/116 235/307/74 236/283/72
f 109/308/121 235/307/74 116/309/119
f 228/310/114 238/311/119 234/312/74
f 227/313/122 237/314/75 109/308/121
f 227/313/122 238/311/119 240/315/120
f 110/306/116 239/316/117 228/310/114
f 246/317/123 241/318/124 243/319/118
f 245/320/125 243/319/118 242/321/115
f 109/322/121 244/323/126 227/324/122
f 109/325/121 243/295/118 241/326/124
f 227/327/122 246/328/123 234/329/74
f 228/330/114 246/328/123 245/331/125
f 18/4/4 8/332/127 1/5/5
f 4/7/7 17/6/6 79/8/8
f 3/10/10 8/333/127 18/11/4
f 2/17/2 117/14/1 16/12/11
f 117/14/1 119/168/77 133/15/12
f 133/15/12 120/165/84 3/10/10
f 16/12/11 18/11/4 6/16/3
f 6/18/3 18/4/4 17/6/6
f 142/19/13 25/33/25 5/20/14
f 17/6/6 1/5/5 63/22/16
f 88/23/17 69/110/66 7/24/18
f 7/24/18 9/334/21 27/26/20
f 5/20/14 25/33/25 27/27/20
f 91/29/22 88/120/17 26/30/19
f 145/32/24 28/335/28 25/33/25
f 25/34/25 28/38/28 30/35/26
f 26/30/19 27/36/20 30/35/26
f 29/31/23 28/38/28 90/37/27
f 38/39/29 39/336/40 41/40/30
f 36/42/32 32/337/35 31/43/33
f 32/45/35 40/58/37 43/46/36
f 40/48/37 32/337/35 36/42/32
f 34/50/31 40/338/37 42/51/38
f 36/53/32 33/60/39 44/54/39
f 39/56/40 38/339/29 42/55/38
f 41/57/30 43/46/36 40/58/37
f 33/60/39 36/53/32 35/61/34
f 31/63/33 32/45/35 37/47/36
f 52/65/41 48/340/44 61/66/42
f 48/68/44 55/81/46 57/69/45
f 55/71/46 48/340/44 52/65/41
f 50/73/48 55/341/46 56/74/47
f 52/76/41 49/82/50 58/77/50
f 49/82/50 52/76/41 62/83/43
f 61/85/42 48/68/44 53/70/45
f 62/67/43 61/66/42 47/89/53
f 59/91/52 60/342/51 51/92/54
f 80/97/58 79/8/8 63/22/16
f 80/99/58 70/343/59 65/100/60
f 66/102/9 180/94/55 117/1/1
f 180/94/55 184/245/83 117/1/1
f 184/245/83 121/166/82 117/1/1
f 183/103/62 196/244/109 78/101/61
f 68/104/56 80/99/58 78/101/61
f 68/106/56 66/9/9 79/8/8
f 67/107/63 87/115/69 205/108/64
f 69/110/66 88/23/17 89/111/67
f 89/113/67 87/115/69 67/107/63
f 87/115/69 90/344/27 208/116/70
f 92/117/71 90/37/27 87/118/69
f 88/120/17 91/29/22 92/117/71
f 90/37/27 28/38/28 145/121/24
f 103/123/40 101/345/30 100/124/31
f 93/126/34 94/346/32 98/127/35
f 94/129/32 99/147/39 105/130/39
f 98/127/35 94/346/32 102/132/38
f 104/134/37 102/347/38 96/135/29
f 106/137/36 95/144/36 98/138/35
f 104/139/37 100/348/31 101/140/30
f 102/131/38 105/130/39 103/141/40
f 97/143/33 98/138/35 95/144/36
f 93/146/34 107/349/39 99/147/39
f 236/148/72 112/153/45 114/149/45
f 235/152/74 115/155/52 112/153/45
f 135/158/78 134/170/85 118/159/79
f 197/161/81 134/170/85 121/162/82
f 135/164/78 125/350/80 120/165/84
f 123/167/76 135/164/78 133/15/12
f 123/169/76 121/162/82 134/170/85
f 181/171/86 118/159/79 134/170/85
f 187/172/87 206/250/92 143/173/88
f 124/174/89 143/173/88 144/175/90
f 144/177/90 142/19/13 122/21/15
f 206/179/92 209/185/95 146/180/93
f 147/182/94 145/121/24 142/183/13
f 143/181/88 146/180/93 147/182/94
f 208/122/70 145/121/24 146/180/93
f 158/186/96 156/351/105 155/187/97
f 148/189/99 149/352/102 153/190/100
f 149/192/102 154/210/36 160/193/36
f 153/190/100 149/352/102 157/195/103
f 159/197/104 157/353/103 151/198/98
f 161/200/39 150/207/39 153/201/100
f 159/202/104 155/354/97 156/203/105
f 157/194/103 160/193/36 158/204/96
f 152/206/101 153/201/100 150/207/39
f 148/209/99 162/355/36 154/210/36
f 178/211/43 165/356/41 169/212/44
f 165/214/41 170/231/50 174/215/50
f 169/212/44 165/356/41 172/217/47
f 173/219/46 172/357/47 167/220/49
f 175/222/45 166/228/45 169/223/44
f 179/227/42 169/223/44 166/228/45
f 178/230/43 176/233/51 170/231/50
f 164/235/54 178/211/43 179/213/42
f 168/237/53 177/358/52 176/238/51
f 198/242/108 188/359/128 181/171/86
f 183/103/62 188/360/128 198/243/108
f 196/244/109 198/243/108 186/246/107
f 186/248/107 198/242/108 197/161/81
f 187/172/87 189/361/111 207/249/110
f 185/109/65 205/108/64 207/251/110
f 205/253/64 208/122/70 210/254/112
f 206/179/92 207/255/110 210/254/112
f 218/256/98 219/362/96 221/257/105
f 216/259/102 212/363/100 211/260/101
f 212/262/100 220/275/104 223/263/39
f 220/265/104 212/363/100 216/259/102
f 214/267/97 220/364/104 222/268/103
f 216/270/102 213/277/36 224/271/36
f 219/273/96 218/365/98 222/272/103
f 221/274/105 223/263/39 220/275/104
f 213/277/36 216/270/102 215/278/99
f 211/280/101 212/262/100 217/264/39
f 231/282/113 239/316/117 236/283/72
f 228/285/114 245/366/125 242/286/115
f 239/288/117 231/301/113 232/289/50
f 237/291/75 240/367/120 233/292/51
f 110/294/116 242/368/115 243/295/118
f 229/297/49 231/369/113 113/298/73
f 238/302/119 239/288/117 230/290/50
f 64/105/57 78/101/61 180/305/55
f 78/101/61 196/244/109 180/305/55
f 110/306/116 116/309/119 235/307/74
f 109/308/121 237/314/75 235/307/74
f 228/310/114 239/316/117 238/311/119
f 227/313/122 240/315/120 237/314/75
f 227/313/122 234/312/74 238/311/119
f 110/306/116 236/283/72 239/316/117
f 246/317/123 244/370/126 241/318/124
f 245/320/125 246/317/123 243/319/118
f 109/322/121 241/371/124 244/323/126
f 109/325/121 116/296/119 243/295/118
f 227/327/122 244/372/126 246/328/123
f 228/330/114 234/329/74 246/328/123
f 137/373/129 11/374/130 128/375/131
f 14/376/132 9/377/21 7/378/18
f 10/379/133 9/28/21 13/380/134
f 76/381/135 23/382/136 14/383/132
f 86/384/137 15/385/138 24/386/139
f 69/110/66 14/383/132 7/24/18
f 85/387/140 24/386/139 23/382/136
f 127/388/141 19/389/142 136/390/143
f 8/333/127 11/374/130 12/391/144
f 19/389/142 13/380/134 22/392/145
f 8/393/127 15/394/138 1/395/5
f 23/382/136 13/396/134 14/383/132
f 77/397/146 1/5/5 15/385/138
f 128/375/131 3/10/10 120/165/84
f 12/398/144 24/386/139 15/385/138
f 21/399/147 23/382/136 24/386/139
f 12/391/144 20/400/148 21/401/147
f 21/401/147 19/389/142 22/392/145
f 136/390/143 20/400/148 137/373/129
f 72/402/149 185/109/65 190/403/150
f 73/404/151 200/405/152 191/406/153
f 76/407/135 71/408/68 75/409/154
f 71/114/68 72/402/149 75/410/154
f 81/411/155 190/403/150 199/412/156
f 70/343/59 73/404/151 65/100/60
f 75/410/154 81/411/155 84/413/157
f 77/414/146 70/415/59 63/416/16
f 85/387/140 75/417/154 84/418/157
f 65/100/60 191/406/153 183/103/62
f 86/384/137 74/419/158 77/397/146
f 85/387/140 83/420/159 86/384/137
f 74/421/158 82/422/160 73/404/151
f 83/423/159 81/411/155 82/422/160
f 82/422/160 199/412/156 200/405/152
f 131/424/161 126/425/91 130/426/162
f 126/178/91 127/388/141 130/427/162
f 140/428/163 194/429/164 131/430/161
f 195/431/165 141/432/166 132/433/167
f 194/429/164 124/174/89 131/430/161
f 204/434/168 140/428/163 141/432/166
f 125/350/80 128/375/131 120/165/84
f 130/427/162 136/390/143 139/435/169
f 132/436/167 125/437/80 118/438/79
f 140/428/163 130/439/162 139/440/169
f 181/171/86 132/433/167 118/159/79
f 141/432/166 129/441/170 132/433/167
f 140/428/163 138/442/171 141/432/166
f 129/443/170 137/373/129 128/375/131
f 138/444/171 136/390/143 137/373/129
f 122/21/15 10/379/133 127/388/141
f 194/445/164 189/446/111 187/447/87
f 190/448/150 189/446/111 193/449/172
f 188/450/128 191/451/153 192/452/173
f 199/412/156 193/453/172 202/454/174
f 188/450/128 195/455/165 181/456/86
f 203/457/175 193/458/172 194/429/164
f 192/459/173 204/434/168 195/431/165
f 201/460/176 203/457/175 204/434/168
f 192/461/173 200/405/152 201/462/176
f 201/462/176 199/412/156 202/454/174
f 137/373/129 20/400/148 11/374/130
f 14/376/132 13/463/134 9/377/21
f 10/379/133 5/20/14 9/28/21
f 76/381/135 85/387/140 23/382/136
f 86/384/137 77/397/146 15/385/138
f 69/110/66 76/381/135 14/383/132
f 85/387/140 86/384/137 24/386/139
f 127/388/141 10/379/133 19/389/142
f 8/333/127 3/10/10 11/374/130
f 19/389/142 10/379/133 13/380/134
f 8/393/127 12/464/144 15/394/138
f 23/382/136 22/465/145 13/396/134
f 77/397/146 63/22/16 1/5/5
f 128/375/131 11/374/130 3/10/10
f 12/398/144 21/399/147 24/386/139
f 21/399/147 22/465/145 23/382/136
f 12/391/144 11/374/130 20/400/148
f 21/401/147 20/400/148 19/389/142
f 136/390/143 19/389/142 20/400/148
f 72/402/149 67/107/63 185/109/65
f 73/404/151 82/422/160 200/405/152
f 76/407/135 69/466/66 71/408/68
f 71/114/68 67/107/63 72/402/149
f 81/411/155 72/402/149 190/403/150
f 70/343/59 74/421/158 73/404/151
f 75/410/154 72/402/149 81/411/155
f 77/414/146 74/467/158 70/415/59
f 85/387/140 76/381/135 75/417/154
f 65/100/60 73/404/151 191/406/153
f 86/384/137 83/420/159 74/419/158
f 85/387/140 84/418/157 83/420/159
f 74/421/158 83/423/159 82/422/160
f 83/423/159 84/413/157 81/411/155
f 82/422/160 81/411/155 199/412/156
f 131/424/161 124/468/89 126/425/91
f 126/178/91 122/21/15 127/388/141
f 140/428/163 203/457/175 194/429/164
f 195/431/165 204/434/168 141/432/166
f 194/429/164 187/172/87 124/174/89
f 204/434/168 203/457/175 140/428/163
f 125/350/80 129/443/170 128/375/131
f 130/427/162 127/388/141 136/390/143
f 132/436/167 129/469/170 125/437/80
f 140/428/163 131/430/161 130/439/162
f 181/171/86 195/431/165 132/433/167
f 141/432/166 138/442/171 129/441/170
f 140/428/163 139/440/169 138/442/171
f 129/443/170 138/444/171 137/373/129
f 138/444/171 139/435/169 136/390/143
f 122/21/15 5/20/14 10/379/133
f 194/445/164 193/449/172 189/446/111
f 190/448/150 185/470/65 189/446/111
f 188/450/128 183/471/62 191/451/153
f 199/412/156 190/403/150 193/453/172
f 188/450/128 192/452/173 195/455/165
f 203/457/175 202/472/174 193/458/172
f 192/459/173 201/460/176 204/434/168
f 201/460/176 202/472/174 203/457/175
f 192/461/173 191/406/153 200/405/152
f 201/462/176 200/405/152 199/412/156
