# Blender v2.83.0 OBJ File: ''
# www.blender.org
mtllib maria_1.mtl
v 0.438465 1.866985 -0.005876
v 0.358064 0.218907 -0.005876
v 0.344759 0.307510 -0.534494
v 0.242861 0.264190 -0.535661
v 0.328955 1.617658 -0.832038
v 0.228926 1.569446 -0.541132
v 0.266490 1.994343 -0.877804
v 0.393794 1.637632 -0.917011
v 0.429770 1.820807 -0.647348
v 0.397853 2.353885 -0.656844
v 0.434184 2.338769 -0.005876
v 0.472162 3.088946 -0.005876
v 0.421616 3.068407 -0.569837
v 0.340723 1.977206 -0.990741
v 0.181577 2.353308 -0.956178
v 0.299131 3.072592 -0.828802
v 0.229749 4.205552 -0.513660
v 0.066254 3.325011 -0.748088
v 0.003663 4.224979 -0.553182
v -0.098488 2.579828 -0.836362
v 0.013405 2.895817 -0.796731
v -0.163293 3.343370 -0.789863
v -0.210361 2.975873 -0.830834
v -0.263284 2.640668 -0.793778
v -0.157682 2.495757 -0.572966
v 0.111499 2.328134 -0.790124
v 0.051307 2.310708 -0.564102
v -0.412541 2.641314 -0.699936
v -0.413508 2.918045 -0.689095
v -0.259416 2.062745 -0.482449
v -0.262275 1.230409 -0.381813
v -0.375798 1.243072 -0.005876
v 0.072281 1.311945 -0.515020
v -0.099860 2.143412 -0.571303
v 0.055312 0.225048 -0.487497
v -0.251364 0.289078 -0.381623
v -0.304858 0.274642 -0.005876
v -0.262275 1.230409 0.370061
v -0.259416 2.062745 0.470697
v 0.055312 0.225048 -0.487497
v 0.053876 0.178972 -0.005876
v 0.242861 0.264190 -0.535661
v 0.344759 0.307510 -0.534494
v 0.358064 0.218907 -0.005876
v 0.055312 0.225048 0.475745
v -0.251364 0.289078 0.369871
v 0.072281 1.311945 0.503268
v 0.055312 0.225048 0.475745
v 0.242861 0.264190 0.523909
v 0.344759 0.307510 0.522742
v 0.242861 0.264190 0.523909
v 0.051307 2.310708 0.552350
v -0.157682 2.495757 0.561214
v -0.099860 2.143412 0.559551
v 0.228927 1.569446 0.529380
v 0.328955 1.617658 0.820286
v 0.344759 0.307510 0.522742
v 0.393794 1.637632 0.905259
v 0.429770 1.820807 0.635596
v 0.340723 1.977206 0.978989
v 0.181577 2.353308 0.944426
v 0.266490 1.994343 0.866052
v 0.299131 3.072592 0.817050
v 0.397853 2.353885 0.645092
v -0.163293 3.343370 0.778111
v 0.066254 3.325011 0.736336
v 0.003663 4.224979 0.541430
v 0.229749 4.205552 0.501908
v 0.421616 3.068407 0.558085
v 0.472162 3.088946 -0.005876
v 0.434184 2.338769 -0.005876
v 0.438465 1.866985 -0.005876
v 0.358064 0.218907 -0.005876
v 0.375726 4.111919 -0.005876
v 0.293592 4.129049 0.324272
v 0.279876 4.374245 -0.005876
v 0.220798 4.419109 0.189261
v 0.153206 4.431135 0.301741
v 0.020694 4.402416 0.281062
v -0.048632 4.403885 0.176262
v -0.112900 4.412657 0.139459
v -0.193401 4.177454 0.365070
v -0.210361 2.975873 0.819082
v -0.370418 3.344806 0.580839
v -0.278623 4.146031 -0.005876
v -0.158505 4.388152 -0.005876
v -0.112900 4.412657 -0.151211
v -0.193401 4.177454 -0.376822
v -0.472895 3.520287 -0.255415
v -0.479203 3.524458 -0.005876
v -0.380041 3.267795 -0.005876
v -0.398871 3.121490 0.341166
v -0.472895 3.520287 0.243663
v -0.461312 3.124335 0.411329
v -0.481557 3.511602 0.323916
v -0.398871 3.121490 -0.352918
v -0.370418 3.344806 -0.592591
v -0.481557 3.511602 -0.335668
v -0.461312 3.124335 -0.423081
v -0.488021 2.687189 -0.557538
v -0.371879 2.620841 -0.479706
v -0.357420 2.960713 -0.005876
v -0.302530 2.415834 -0.489059
v -0.368124 2.592319 -0.005876
v -0.303093 2.568138 -0.539607
v -0.375357 2.204131 -0.005876
v -0.302530 2.415834 0.477307
v -0.303093 2.568138 0.527855
v -0.371879 2.620841 0.467954
v -0.412541 2.641314 0.688184
v -0.488021 2.687189 0.545786
v -0.413508 2.918045 0.677344
v -0.263284 2.640668 0.782026
v -0.098488 2.579828 0.824610
v 0.013405 2.895817 0.784979
v 0.111499 2.328134 0.778372
v -0.435567 2.187556 -0.728895
v -0.464183 2.211461 -0.732074
v -0.462207 2.171084 -0.799712
v -0.445070 2.157499 -0.815357
v -0.457473 2.231512 -0.862809
v -0.375323 2.250325 -0.658068
v -0.329429 2.353620 -0.743343
v -0.435660 2.235508 -0.865471
v -0.395978 2.389042 -0.833914
v -0.413386 2.393335 -0.797934
v -0.429655 2.487216 -0.802324
v -0.427512 2.521220 -0.806585
v -0.546848 2.473289 -0.828187
v -0.550842 2.483212 -0.806998
v -0.538555 2.461118 -0.822075
v -0.311271 2.576503 -0.722826
v -0.273919 2.542208 -0.674059
v -0.222491 2.597624 -0.664390
v -0.265572 2.631919 -0.713158
v -0.432328 2.556025 -0.783329
v -0.343138 2.600178 -0.726188
v -0.302328 2.655594 -0.716520
v -0.318107 2.329854 -0.644009
v -0.277938 2.507857 -0.588300
v -0.227126 2.563273 -0.578631
v -0.249676 2.569147 -0.575286
v -0.297489 2.513731 -0.584955
v -0.360458 2.335657 -0.631411
v -0.408691 2.256286 -0.649684
v -0.032001 0.170555 -0.167295
v 0.024158 0.342169 -0.171282
v 0.092111 0.336794 -0.324148
v -0.239603 0.027903 -0.493516
v -0.236293 0.008682 -0.488139
v -0.381962 0.010026 -0.410892
v -0.386963 0.036591 -0.415042
v -0.433444 0.011371 -0.311638
v -0.440136 0.045280 -0.314561
v -0.297761 0.006285 -0.236256
v -0.276889 0.095004 -0.253348
v -0.062451 0.010095 -0.214777
v 0.273708 0.016067 -0.142021
v 0.278862 0.198867 -0.166352
v 0.246543 0.356692 -0.166072
v -0.107412 0.076775 -0.417975
v 0.064938 0.178969 -0.328059
v 0.252726 0.355075 -0.262356
v 0.276823 0.197250 -0.242870
v 0.246543 0.356692 -0.166072
v 0.278862 0.198867 -0.166352
v 0.273708 0.016067 -0.142021
v 0.327015 0.012531 -0.271772
v 0.098665 0.008111 -0.356043
v -0.081765 0.019326 -0.457735
v -0.297489 2.513731 -0.584955
v -0.249676 2.569147 -0.575286
v -0.305146 2.614142 -0.655191
v -0.408691 2.256286 -0.649684
v -0.360458 2.335657 -0.631411
v -0.383321 2.368205 -0.723858
v -0.345582 2.558726 -0.664860
v -0.318860 2.637472 -0.681438
v -0.357472 2.582056 -0.691107
v -0.302328 2.655594 -0.716520
v -0.343138 2.600178 -0.726188
v -0.432328 2.556025 -0.783329
v -0.435617 2.489854 -0.766789
v -0.550842 2.483212 -0.806998
v -0.534356 2.465668 -0.794033
v -0.546848 2.473289 -0.828187
v -0.538555 2.461118 -0.822075
v -0.429655 2.487216 -0.802324
v -0.413386 2.393335 -0.797934
v -0.457473 2.231512 -0.862809
v -0.462207 2.171084 -0.799712
v -0.464183 2.211461 -0.732074
v -0.305146 2.614142 0.643338
v -0.249676 2.569147 0.563433
v -0.297488 2.513731 0.573101
v -0.408691 2.256286 0.637831
v -0.464183 2.211461 0.720221
v -0.383321 2.368205 0.712005
v -0.360458 2.335657 0.619558
v -0.345582 2.558726 0.653007
v -0.318860 2.637472 0.669585
v -0.357472 2.582056 0.679254
v -0.302327 2.655594 0.704666
v -0.343138 2.600178 0.714335
v -0.432328 2.556025 0.771476
v -0.435617 2.489854 0.754936
v -0.550842 2.483212 0.795145
v -0.534356 2.465668 0.782180
v -0.538555 2.461118 0.810222
v -0.429655 2.487216 0.790471
v -0.413386 2.393335 0.786081
v -0.457473 2.231512 0.850956
v -0.462207 2.171084 0.787859
v -0.546848 2.473289 0.816333
v -0.546848 2.473289 0.816333
v -0.538555 2.461118 0.810222
v -0.429655 2.487216 0.790471
v -0.427512 2.521220 0.794732
v -0.432328 2.556025 0.771476
v -0.550842 2.483212 0.795145
v -0.395978 2.389042 0.822061
v -0.413386 2.393335 0.786081
v -0.457473 2.231512 0.850956
v -0.435660 2.235508 0.853618
v -0.329428 2.353620 0.731490
v -0.445070 2.157499 0.803504
v -0.435567 2.187556 0.717042
v -0.462207 2.171084 0.787859
v -0.375323 2.250325 0.646215
v -0.318107 2.329854 0.632156
v -0.464183 2.211461 0.720221
v -0.408691 2.256286 0.637831
v -0.360458 2.335657 0.619558
v -0.297488 2.513731 0.573101
v -0.277938 2.507857 0.576446
v -0.249676 2.569147 0.563433
v -0.227126 2.563273 0.566778
v -0.273919 2.542208 0.662205
v -0.222491 2.597624 0.652537
v -0.311271 2.576503 0.710973
v -0.265572 2.631919 0.701304
v -0.343138 2.600178 0.714335
v -0.302327 2.655594 0.704666
v 0.220798 4.419109 0.189261
v 0.200306 4.624119 0.159454
v 0.094988 4.624170 0.232602
v 0.153206 4.431135 0.301741
v 0.020694 4.402416 0.281062
v -0.013863 4.587314 0.204733
v -0.048632 4.403885 0.176262
v -0.063017 4.565638 0.122761
v -0.112900 4.412657 0.139459
v -0.128488 4.687989 0.162036
v 0.279876 4.374245 -0.005876
v 0.254132 4.620081 -0.005876
v 0.227768 4.799506 -0.005876
v 0.174664 4.793540 0.157631
v 0.057006 4.785309 0.234843
v -0.042046 4.761573 0.248204
v -0.130045 4.980552 0.247734
v 0.213666 5.025166 -0.005876
v 0.026744 5.014472 0.224602
v 0.163680 5.024937 0.148610
v 0.086354 5.196205 -0.005876
v 0.006244 5.157548 0.166358
v -0.120078 5.201679 -0.005876
v -0.220136 4.944187 0.209228
v -0.254609 5.090139 0.157920
v -0.327388 5.038810 0.136048
v -0.269707 5.141471 -0.005876
v -0.164443 5.140743 0.176021
v -0.322268 5.062502 -0.005876
v -0.287211 4.863869 0.130705
v -0.264784 4.745780 0.123637
v -0.234259 4.628167 0.116610
v -0.204063 4.565177 0.104299
v -0.139681 4.547410 0.091988
v -0.158505 4.388152 -0.005876
v -0.161607 4.508241 -0.005876
v -0.139681 4.547410 -0.103740
v -0.259169 4.518241 -0.005876
v -0.279808 4.595281 -0.005876
v -0.112900 4.412657 -0.151211
v -0.320259 4.810836 -0.005876
v -0.301585 4.714629 0.036355
v -0.303275 4.668168 -0.005876
v -0.234259 4.628167 -0.128362
v -0.204063 4.565177 -0.116051
v -0.063017 4.565638 -0.134513
v -0.301585 4.714629 -0.048107
v -0.264784 4.745780 -0.135389
v -0.355419 4.700695 -0.005876
v -0.287211 4.863869 -0.142457
v -0.339747 4.859117 -0.005876
v -0.220136 4.944187 -0.220980
v -0.128488 4.687989 -0.173787
v -0.013863 4.587314 -0.216485
v -0.042046 4.761573 -0.259956
v 0.057006 4.785309 -0.246595
v 0.094988 4.624170 -0.244354
v 0.174664 4.793540 -0.169383
v 0.200306 4.624119 -0.171206
v -0.048632 4.403885 -0.188014
v 0.020694 4.402416 -0.292814
v 0.153206 4.431135 -0.313493
v 0.220798 4.419109 -0.201013
v 0.254132 4.620081 -0.005876
v 0.227768 4.799506 -0.005876
v 0.279876 4.374245 -0.005876
v 0.026744 5.014472 -0.236355
v 0.163680 5.024937 -0.160362
v 0.006244 5.157548 -0.178110
v -0.130045 4.980552 -0.259486
v -0.164443 5.140743 -0.187773
v -0.254609 5.090139 -0.169672
v -0.327388 5.038810 -0.147800
v 0.213666 5.025166 -0.005876
v 0.086354 5.196205 -0.005876
v -0.120078 5.201679 -0.005876
v -0.107412 0.076775 0.406121
v 0.064938 0.178969 0.316206
v -0.032001 0.170555 0.155441
v -0.276889 0.095004 0.241495
v -0.239603 0.027903 0.481663
v -0.386963 0.036591 0.403189
v -0.440136 0.045280 0.302708
v 0.278862 0.198867 0.154499
v 0.273708 0.016067 0.130167
v -0.062451 0.010095 0.202924
v -0.297761 0.006285 0.224403
v -0.433444 0.011371 0.299785
v -0.381962 0.010026 0.399039
v -0.236293 0.008682 0.476286
v 0.276823 0.197250 0.231016
v 0.252726 0.355075 0.250503
v 0.092111 0.336794 0.312295
v 0.024158 0.342169 0.159429
v 0.246543 0.356692 0.154219
v -0.081765 0.019326 0.445882
v 0.098665 0.008111 0.344189
v 0.327015 0.012531 0.259918
v 0.273708 0.016067 0.130167
v 0.278862 0.198867 0.154499
v 0.246543 0.356692 0.154219
v 0.153206 4.431135 -0.313493
v 0.220798 4.419109 -0.201013
v 0.293592 4.129049 -0.336024
v 0.279876 4.374245 -0.005876
v 0.375726 4.111919 -0.005876
v 0.020694 4.402416 -0.292814
v -0.048632 4.403885 -0.188014
vt 0.012306 0.517578
vt 0.073120 0.206543
vt 0.165649 0.247070
vt 0.194824 0.235352
vt 0.184814 0.472168
vt 0.235352 0.453613
vt 0.192627 0.535889
vt 0.168823 0.481445
vt 0.122314 0.511963
vt 0.129517 0.607666
vt 0.015701 0.619873
vt 0.049500 0.766968
vt 0.139893 0.736084
vt 0.175415 0.536377
vt 0.193481 0.599854
vt 0.184814 0.725098
vt 0.238037 0.920654
vt 0.227173 0.765625
vt 0.279541 0.917480
vt 0.246338 0.636230
vt 0.226929 0.691406
vt 0.262695 0.764160
vt 0.261475 0.703369
vt 0.270996 0.648193
vt 0.280029 0.610840
vt 0.223633 0.590332
vt 0.258545 0.574463
vt 0.295654 0.649902
vt 0.299316 0.692383
vt 0.315186 0.537109
vt 0.324463 0.389648
vt 0.396484 0.392090
vt 0.259521 0.406250
vt 0.285645 0.549561
vt 0.239502 0.220215
vt 0.321045 0.223145
vt 0.396240 0.218750
vt 0.468506 0.389648
vt 0.478027 0.536865
vt 0.308350 0.156250
vt 0.396240 0.154785
vt 0.299561 0.121582
vt 0.298096 0.102539
vt 0.395996 0.101563
vt 0.483887 0.155762
vt 0.471436 0.223145
vt 0.533203 0.405762
vt 0.553223 0.219727
vt 0.597656 0.234863
vt 0.494141 0.102539
vt 0.492676 0.121582
vt 0.534668 0.573975
vt 0.513672 0.610596
vt 0.507324 0.549316
vt 0.557617 0.453125
vt 0.608398 0.471680
vt 0.626953 0.246582
vt 0.624512 0.480957
vt 0.670898 0.511230
vt 0.618164 0.535889
vt 0.600098 0.599365
vt 0.600586 0.535400
vt 0.608887 0.724609
vt 0.664063 0.607178
vt 0.531250 0.763794
vt 0.566895 0.765137
vt 0.514648 0.917175
vt 0.556152 0.920227
vt 0.653809 0.735596
vt 0.744629 0.766113
vt 0.777832 0.618896
vt 0.781250 0.516602
vt 0.719238 0.206055
vt 0.650879 0.949066
vt 0.594238 0.924622
vt 0.616699 0.990623
vt 0.575684 0.980072
vt 0.541992 0.971573
vt 0.498047 0.967834
vt 0.465088 0.973221
vt 0.440674 0.969360
vt 0.464355 0.913635
vt 0.532227 0.702881
vt 0.487061 0.764160
vt 0.397217 0.913696
vt 0.397217 0.963867
vt 0.353760 0.969467
vt 0.329834 0.913818
vt 0.362793 0.794922
vt 0.396973 0.796509
vt 0.396973 0.747314
vt 0.447021 0.723877
vt 0.431396 0.794800
vt 0.458252 0.726563
vt 0.441162 0.792114
vt 0.346924 0.723877
vt 0.306885 0.764404
vt 0.352783 0.792236
vt 0.335693 0.726807
vt 0.318115 0.652588
vt 0.323730 0.634766
vt 0.396973 0.692871
vt 0.315918 0.599121
vt 0.396729 0.628418
vt 0.300537 0.625488
vt 0.396729 0.560303
vt 0.477539 0.598877
vt 0.492920 0.625244
vt 0.469971 0.634766
vt 0.498047 0.649658
vt 0.475586 0.652344
vt 0.494629 0.692139
vt 0.522461 0.647949
vt 0.547363 0.635742
vt 0.566895 0.691162
vt 0.569824 0.589844
vt 0.910645 0.282715
vt 0.918457 0.271484
vt 0.882324 0.264648
vt 0.880859 0.270020
vt 0.854004 0.289551
vt 0.935547 0.316406
vt 0.900391 0.357910
vt 0.858398 0.295410
vt 0.855957 0.357910
vt 0.840820 0.358887
vt 0.838379 0.395508
vt 0.839844 0.408691
vt 0.791992 0.391602
vt 0.790527 0.399902
vt 0.795898 0.386719
vt 0.889160 0.442383
vt 0.916992 0.436523
vt 0.923828 0.465820
vt 0.897461 0.469727
vt 0.838867 0.424805
vt 0.875000 0.448242
vt 0.881348 0.473145
vt 0.938965 0.354004
vt 0.952637 0.425781
vt 0.956055 0.454590
vt 0.963867 0.450195
vt 0.960449 0.422852
vt 0.954590 0.347168
vt 0.945313 0.308594
vt 0.861816 0.855347
vt 0.806152 0.840332
vt 0.783203 0.873657
vt 0.924316 0.976181
vt 0.925293 0.980957
vt 0.976563 0.960327
vt 0.971680 0.954346
vt 0.996582 0.924866
vt 0.989746 0.925720
vt 0.963379 0.884583
vt 0.938965 0.899353
vt 0.913574 0.836914
vt 0.877441 0.739990
vt 0.825195 0.757202
vt 0.781738 0.778809
vt 0.882324 0.946289
vt 0.819336 0.910095
vt 0.734863 0.882019
vt 0.742676 0.932190
vt 0.705566 0.887024
vt 0.718262 0.934937
vt 0.708984 0.990776
vt 0.751953 0.992599
vt 0.819824 0.968048
vt 0.877930 0.967773
vt 0.809570 0.626953
vt 0.792969 0.651123
vt 0.830566 0.670410
vt 0.856445 0.524170
vt 0.842773 0.558350
vt 0.879883 0.573730
vt 0.845215 0.646973
vt 0.841797 0.680420
vt 0.854980 0.656982
vt 0.851074 0.694580
vt 0.863281 0.670166
vt 0.901855 0.653076
vt 0.903320 0.626465
vt 0.954102 0.633057
vt 0.946777 0.626953
vt 0.959473 0.623535
vt 0.953613 0.619141
vt 0.911133 0.617920
vt 0.910156 0.584473
vt 0.945313 0.522949
vt 0.924316 0.496094
vt 0.894531 0.504639
vt 0.830566 0.670410
vt 0.792969 0.651123
vt 0.809570 0.626953
vt 0.856445 0.524170
vt 0.894531 0.504639
vt 0.879883 0.573730
vt 0.842773 0.558350
vt 0.845215 0.646973
vt 0.841797 0.680420
vt 0.854980 0.656982
vt 0.851074 0.694580
vt 0.863281 0.670166
vt 0.901855 0.653076
vt 0.903320 0.626465
vt 0.954102 0.633057
vt 0.946777 0.626953
vt 0.953613 0.619141
vt 0.911133 0.617920
vt 0.910156 0.584473
vt 0.945313 0.522949
vt 0.924316 0.496094
vt 0.959473 0.623535
vt 0.791992 0.391602
vt 0.795898 0.386719
vt 0.838379 0.395508
vt 0.839844 0.408691
vt 0.838867 0.424805
vt 0.790527 0.399902
vt 0.855957 0.357910
vt 0.840820 0.358887
vt 0.854004 0.289551
vt 0.858398 0.295410
vt 0.900391 0.357910
vt 0.880859 0.270020
vt 0.910645 0.282715
vt 0.882324 0.264648
vt 0.935547 0.316406
vt 0.938965 0.354004
vt 0.918457 0.271484
vt 0.945313 0.308594
vt 0.954590 0.347168
vt 0.960449 0.422852
vt 0.952637 0.425781
vt 0.963867 0.450195
vt 0.956055 0.454590
vt 0.916992 0.436523
vt 0.923828 0.465820
vt 0.889160 0.442383
vt 0.897461 0.469727
vt 0.875000 0.448242
vt 0.881348 0.473145
vt 0.864746 0.028809
vt 0.854980 0.071777
vt 0.826172 0.064453
vt 0.838867 0.020996
vt 0.809570 0.012695
vt 0.798340 0.054688
vt 0.780273 0.013672
vt 0.775391 0.048340
vt 0.760254 0.015625
vt 0.773438 0.076660
vt 0.908203 0.033203
vt 0.891113 0.082520
vt 0.880371 0.120605
vt 0.846191 0.107910
vt 0.817871 0.099121
vt 0.797852 0.092773
vt 0.781738 0.138184
vt 0.863281 0.173340
vt 0.808594 0.146973
vt 0.835938 0.156738
vt 0.820313 0.210938
vt 0.800781 0.177734
vt 0.763672 0.210938
vt 0.767578 0.133789
vt 0.755371 0.164063
vt 0.746582 0.154297
vt 0.722168 0.186035
vt 0.769043 0.171875
vt 0.722168 0.162109
vt 0.750000 0.118652
vt 0.749512 0.093750
vt 0.750000 0.069336
vt 0.748047 0.056152
vt 0.752930 0.045410
vt 0.723633 0.013184
vt 0.723633 0.038086
vt 0.693848 0.044434
vt 0.723145 0.054688
vt 0.723145 0.067871
vt 0.687012 0.015137
vt 0.722656 0.109375
vt 0.732422 0.089355
vt 0.723145 0.080566
vt 0.696289 0.068848
vt 0.698242 0.055664
vt 0.671387 0.047363
vt 0.713379 0.088867
vt 0.696289 0.093262
vt 0.723145 0.089355
vt 0.695313 0.118164
vt 0.722656 0.118652
vt 0.677246 0.132813
vt 0.672363 0.075684
vt 0.647949 0.053223
vt 0.647949 0.091797
vt 0.627930 0.097656
vt 0.620117 0.062988
vt 0.599609 0.105957
vt 0.591309 0.069824
vt 0.666992 0.012695
vt 0.637207 0.011230
vt 0.608398 0.019043
vt 0.582031 0.026367
vt 0.554688 0.079590
vt 0.564941 0.118164
vt 0.538574 0.030273
vt 0.636230 0.145508
vt 0.608887 0.154785
vt 0.644043 0.176758
vt 0.663574 0.137207
vt 0.675293 0.171387
vt 0.689453 0.163574
vt 0.698242 0.153809
vt 0.581543 0.170898
vt 0.623535 0.208984
vt 0.680176 0.209961
vt 0.882324 0.946289
vt 0.819336 0.910095
vt 0.861816 0.855347
vt 0.938965 0.899353
vt 0.924316 0.976181
vt 0.971680 0.954346
vt 0.989746 0.925720
vt 0.825195 0.757202
vt 0.877441 0.739990
vt 0.913574 0.836914
vt 0.963379 0.884583
vt 0.996582 0.924866
vt 0.976563 0.960327
vt 0.925293 0.980957
vt 0.742676 0.932190
vt 0.734863 0.882019
vt 0.783203 0.873657
vt 0.806152 0.840332
vt 0.781738 0.778809
vt 0.877930 0.967773
vt 0.819824 0.968048
vt 0.751953 0.992599
vt 0.708984 0.990776
vt 0.718262 0.934937
vt 0.705566 0.887024
vt 0.252197 0.971924
vt 0.218506 0.980515
vt 0.199951 0.925110
vt 0.177490 0.991158
vt 0.143188 0.949646
vt 0.296387 0.968079
vt 0.329346 0.973389
vn 0.9995 -0.0100 -0.0275
vn 0.9982 -0.0487 -0.0333
vn 0.7205 -0.1810 -0.6694
vn -0.1747 -0.0963 -0.9799
vn -0.8492 -0.1520 -0.5056
vn -0.6270 -0.0870 -0.7741
vn -0.8605 -0.2597 -0.4382
vn 0.3188 -0.2239 -0.9210
vn 0.9919 0.0495 -0.1167
vn 0.9422 0.0058 -0.3350
vn 0.9982 -0.0203 -0.0562
vn 0.9939 0.0493 -0.0984
vn 0.9626 0.0770 -0.2599
vn 0.2402 0.0800 -0.9674
vn -0.0106 -0.2064 -0.9784
vn 0.4694 0.1619 -0.8680
vn 0.6024 0.4735 -0.6426
vn 0.0536 0.1951 -0.9793
vn -0.2117 0.5621 -0.7995
vn -0.4685 -0.2950 -0.8328
vn -0.0756 0.1117 -0.9908
vn -0.2716 0.2184 -0.9373
vn -0.2392 0.0691 -0.9685
vn -0.3954 -0.4425 -0.8049
vn -0.5050 -0.5389 -0.6742
vn -0.7982 -0.4954 -0.3428
vn -0.5292 -0.3842 -0.7565
vn -0.6549 -0.5450 -0.5235
vn -0.7991 0.1300 -0.5869
vn -0.7614 -0.0973 -0.6409
vn -0.7479 -0.0522 -0.6618
vn -0.9989 -0.0466 0.0000
vn -0.2406 -0.0409 -0.9697
vn -0.1884 -0.0730 -0.9793
vn -0.2882 -0.0197 -0.9573
vn -0.6786 -0.5161 -0.5225
vn -0.7939 -0.6080 0.0000
vn -0.7479 -0.0522 0.6618
vn -0.7614 -0.0973 0.6409
vn -0.0042 -0.9948 -0.1022
vn -0.0646 -0.9979 0.0000
vn 0.2777 -0.9502 -0.1416
vn 0.3876 -0.9075 -0.1618
vn 0.1746 -0.9846 0.0000
vn -0.0042 -0.9948 0.1022
vn -0.6786 -0.5161 0.5225
vn -0.2406 -0.0409 0.9697
vn -0.2882 -0.0197 0.9573
vn -0.1747 -0.0963 0.9799
vn 0.3876 -0.9075 0.1618
vn 0.2777 -0.9502 0.1416
vn -0.5292 -0.3842 0.7565
vn -0.5050 -0.5389 0.6742
vn -0.1884 -0.0730 0.9793
vn -0.6270 -0.0870 0.7741
vn -0.8492 -0.1520 0.5056
vn 0.7205 -0.1810 0.6694
vn 0.3188 -0.2239 0.9210
vn 0.9919 0.0495 0.1167
vn 0.2402 0.0800 0.9674
vn -0.0106 -0.2064 0.9784
vn -0.8605 -0.2597 0.4382
vn 0.4694 0.1619 0.8680
vn 0.9422 0.0058 0.3350
vn -0.2716 0.2184 0.9373
vn 0.0536 0.1951 0.9793
vn -0.2117 0.5621 0.7995
vn 0.6024 0.4735 0.6426
vn 0.9626 0.0770 0.2599
vn 0.9939 0.0493 0.0984
vn 0.9982 -0.0203 0.0562
vn 0.9995 -0.0100 0.0275
vn 0.9982 -0.0487 0.0333
vn 0.9519 0.2069 0.2261
vn 0.9416 0.2505 0.2250
vn 0.9204 0.3312 0.2077
vn 0.8763 0.3658 0.3135
vn 0.4018 0.6203 0.6736
vn -0.4129 0.7166 0.5621
vn -0.2474 0.8556 0.4546
vn -0.7065 0.6318 0.3188
vn -0.7941 0.4355 0.4239
vn -0.2392 0.0691 0.9685
vn -0.7918 0.2268 0.5670
vn -0.9254 0.3791 0.0000
vn -0.8958 0.4444 0.0000
vn -0.7065 0.6318 -0.3188
vn -0.7941 0.4355 -0.4239
vn -0.9956 0.0421 0.0830
vn -0.9997 -0.0246 0.0000
vn -0.9801 -0.1983 0.0000
vn -0.9019 -0.1825 -0.3915
vn -0.9956 0.0421 -0.0830
vn -0.9826 -0.0551 -0.1775
vn -0.9298 0.2502 0.2699
vn -0.9019 -0.1825 0.3915
vn -0.7918 0.2268 -0.5670
vn -0.9298 0.2502 -0.2699
vn -0.9826 -0.0551 0.1775
vn -0.9180 -0.3775 0.1211
vn -0.8593 -0.4783 0.1809
vn -0.9975 -0.0700 0.0000
vn -0.8192 -0.1563 -0.5517
vn -0.9997 0.0250 0.0000
vn -0.5904 -0.6415 -0.4898
vn -0.9998 -0.0205 0.0000
vn -0.8192 -0.1563 0.5517
vn -0.5904 -0.6415 0.4898
vn -0.8593 -0.4783 -0.1809
vn -0.6549 -0.5450 0.5235
vn -0.9180 -0.3775 -0.1211
vn -0.7991 0.1300 0.5869
vn -0.3954 -0.4425 0.8049
vn -0.4685 -0.2950 0.8328
vn -0.0756 0.1117 0.9908
vn -0.7982 -0.4954 0.3428
vn 0.1245 -0.8566 0.5007
vn -0.5087 -0.6274 0.5896
vn -0.6274 -0.7768 0.0529
vn 0.0863 -0.9354 -0.3429
vn -0.2124 -0.2445 -0.9461
vn 0.5296 -0.7096 0.4647
vn 0.8894 -0.2528 -0.3807
vn 0.3798 -0.2004 -0.9031
vn 0.0395 0.1509 -0.9878
vn -0.8947 0.0696 -0.4411
vn -0.4425 -0.1051 -0.8906
vn 0.1385 0.3514 -0.9259
vn -0.0297 0.4210 -0.9066
vn -0.2498 0.8162 -0.5210
vn 0.2394 -0.3004 -0.9232
vn 0.5151 0.0239 -0.8567
vn 0.8251 -0.3503 -0.4433
vn 0.6828 -0.5299 -0.5030
vn 0.3920 -0.1614 -0.9057
vn 0.1437 0.5489 -0.8234
vn 0.2728 0.2393 -0.9318
vn 0.1366 0.0717 -0.9880
vn 0.7728 -0.4649 0.4320
vn 0.6047 -0.4627 0.6482
vn 0.6643 -0.6699 0.3313
vn 0.0818 -0.2429 0.9666
vn 0.0916 -0.2853 0.9540
vn 0.2229 -0.3234 0.9196
vn 0.0583 -0.6893 0.7221
vn -0.5712 0.3752 0.7300
vn -0.7368 0.2451 0.6301
vn -0.2674 0.1048 -0.9578
vn -0.0521 0.3528 -0.9342
vn 0.0397 -0.1393 -0.9894
vn -0.6909 -0.2403 -0.6818
vn -0.6144 0.4481 -0.6493
vn -0.9218 -0.1535 0.3560
vn -0.8754 0.4466 0.1850
vn -0.2765 0.2242 0.9345
vn -0.3085 0.8039 0.5085
vn -0.2166 -0.1816 0.9592
vn -0.0737 0.0173 0.9971
vn -0.0154 0.0694 0.9975
vn -0.0230 -0.0065 0.9997
vn -0.0682 0.8056 -0.5885
vn -0.1050 0.4231 -0.8999
vn 0.8191 0.0596 -0.5705
vn 0.8543 0.1375 -0.5012
vn 0.9848 0.1703 0.0347
vn 0.9962 0.0817 -0.0283
vn 0.9515 0.1368 0.2753
vn 0.8634 0.2933 -0.4104
vn 0.4067 0.2253 -0.8853
vn 0.1975 0.5209 -0.8304
vn -0.7812 0.2486 0.5726
vn -0.6189 0.4180 0.6650
vn -0.6552 0.3797 0.6530
vn -0.8394 0.4194 0.3458
vn -0.8804 0.3349 0.3356
vn -0.9136 0.1494 0.3782
vn -0.7623 0.2116 0.6116
vn -0.8138 0.5329 0.2317
vn -0.7671 0.4710 0.4355
vn -0.8084 0.5855 -0.0598
vn -0.7019 0.7079 0.0789
vn -0.6448 0.3005 0.7027
vn -0.7381 -0.2187 0.6383
vn -0.7503 -0.2220 0.6226
vn -0.3562 -0.5769 0.7351
vn -0.8434 -0.5298 0.0891
vn -0.4946 -0.8526 0.1687
vn -0.5608 -0.8274 -0.0305
vn -0.9477 -0.1126 0.2987
vn -0.9346 0.2517 0.2512
vn -0.9302 0.3668 0.0141
vn -0.8811 0.4602 -0.1086
vn -0.6552 0.3797 -0.6530
vn -0.6189 0.4180 -0.6650
vn -0.7812 0.2486 -0.5726
vn -0.8394 0.4194 -0.3458
vn -0.8811 0.4602 0.1086
vn -0.9136 0.1494 -0.3782
vn -0.8804 0.3349 -0.3356
vn -0.7623 0.2116 -0.6116
vn -0.8138 0.5329 -0.2317
vn -0.7671 0.4710 -0.4355
vn -0.8084 0.5855 0.0598
vn -0.7019 0.7079 -0.0789
vn -0.6448 0.3005 -0.7027
vn -0.7381 -0.2187 -0.6383
vn -0.7503 -0.2220 -0.6226
vn -0.3562 -0.5769 -0.7351
vn -0.4946 -0.8526 -0.1687
vn -0.5608 -0.8274 0.0305
vn -0.9477 -0.1126 -0.2987
vn -0.9346 0.2517 -0.2512
vn -0.9302 0.3668 -0.0141
vn -0.8434 -0.5298 -0.0891
vn -0.0297 0.4210 0.9066
vn 0.2394 -0.3005 0.9232
vn -0.4425 -0.1051 0.8906
vn 0.1385 0.3514 0.9259
vn 0.1437 0.5489 0.8234
vn -0.2498 0.8162 0.5210
vn 0.0395 0.1509 0.9877
vn -0.8947 0.0696 0.4411
vn -0.2124 -0.2445 0.9461
vn 0.3798 -0.2004 0.9031
vn 0.8894 -0.2528 0.3807
vn 0.0863 -0.9354 0.3429
vn 0.1245 -0.8566 -0.5007
vn -0.6274 -0.7768 -0.0529
vn 0.5296 -0.7096 -0.4647
vn 0.7728 -0.4649 -0.4320
vn -0.5087 -0.6274 -0.5896
vn 0.0583 -0.6893 -0.7221
vn 0.2229 -0.3234 -0.9196
vn 0.0916 -0.2853 -0.9540
vn 0.6047 -0.4627 -0.6482
vn 0.0818 -0.2429 -0.9666
vn 0.6643 -0.6699 -0.3313
vn 0.8251 -0.3503 0.4433
vn 0.6828 -0.5299 0.5029
vn 0.5151 0.0239 0.8567
vn 0.3920 -0.1614 0.9057
vn 0.2728 0.2393 0.9318
vn 0.1366 0.0718 0.9880
vn 0.8708 0.2250 0.4371
vn 0.8025 0.1455 0.5785
vn 0.2014 0.1636 0.9657
vn 0.3770 0.4110 0.8300
vn -0.5247 0.2105 0.8248
vn -0.5585 -0.0589 0.8274
vn -0.7144 0.1465 0.6842
vn -0.5824 -0.1731 0.7942
vn -0.7047 0.1213 0.6990
vn -0.3878 -0.3168 0.8656
vn 0.9584 0.1003 0.2671
vn 0.9470 0.1287 0.2943
vn 0.9457 0.1007 0.3089
vn 0.7797 0.1065 0.6169
vn 0.3117 0.0304 0.9497
vn -0.1942 -0.1674 0.9666
vn -0.1782 0.1142 0.9773
vn 0.9035 0.3123 0.2935
vn 0.2803 0.2377 0.9300
vn 0.7405 0.3177 0.5922
vn 0.4478 0.8312 0.3294
vn 0.2228 0.7418 0.6325
vn -0.1855 0.9459 0.2662
vn -0.4710 -0.0787 0.8786
vn -0.5096 0.5885 0.6276
vn -0.8728 0.2108 0.4401
vn -0.5775 0.8163 0.0000
vn -0.2834 0.7257 0.6269
vn -0.9601 0.2798 0.0000
vn -0.8389 -0.1594 0.5203
vn -0.7815 -0.1907 0.5940
vn -0.6044 -0.3186 0.7302
vn -0.3594 -0.6032 0.7120
vn -0.4493 -0.5374 0.7136
vn -0.9982 -0.0599 0.0000
vn -0.7804 -0.6252 0.0000
vn -0.4493 -0.5374 -0.7136
vn -0.6496 -0.7603 0.0000
vn -0.9598 -0.2806 0.0000
vn -0.7047 0.1213 -0.6990
vn -0.9860 -0.1669 0.0000
vn -0.8151 -0.1726 0.5530
vn -0.8668 -0.4986 0.0000
vn -0.6044 -0.3186 -0.7302
vn -0.3594 -0.6032 -0.7120
vn -0.5824 -0.1731 -0.7942
vn -0.8151 -0.1726 -0.5530
vn -0.7815 -0.1907 -0.5940
vn -0.9458 -0.3248 0.0000
vn -0.8389 -0.1594 -0.5203
vn -0.9893 -0.1455 0.0000
vn -0.4710 -0.0787 -0.8786
vn -0.3878 -0.3168 -0.8656
vn -0.5585 -0.0589 -0.8274
vn -0.1942 -0.1674 -0.9666
vn 0.3117 0.0304 -0.9497
vn 0.2014 0.1636 -0.9657
vn 0.7797 0.1065 -0.6169
vn 0.8025 0.1455 -0.5785
vn -0.7144 0.1465 -0.6842
vn -0.5247 0.2105 -0.8248
vn 0.3770 0.4110 -0.8300
vn 0.8708 0.2250 -0.4371
vn 0.9470 0.1287 -0.2943
vn 0.9457 0.1007 -0.3089
vn 0.9584 0.1003 -0.2671
vn 0.2803 0.2377 -0.9300
vn 0.7405 0.3177 -0.5922
vn 0.2228 0.7418 -0.6325
vn -0.1782 0.1142 -0.9773
vn -0.2834 0.7257 -0.6269
vn -0.5096 0.5885 -0.6276
vn -0.8728 0.2108 -0.4401
vn 0.9035 0.3123 -0.2935
vn 0.4478 0.8312 -0.3294
vn -0.1855 0.9459 -0.2662
vn -0.0682 0.8056 0.5885
vn -0.1050 0.4231 0.8999
vn -0.5712 0.3752 -0.7300
vn -0.3085 0.8039 -0.5085
vn -0.0521 0.3528 0.9342
vn -0.6144 0.4481 0.6493
vn -0.8754 0.4466 -0.1850
vn -0.0154 0.0694 -0.9975
vn -0.0737 0.0173 -0.9971
vn -0.2166 -0.1816 -0.9592
vn -0.2765 0.2242 -0.9345
vn -0.9218 -0.1535 -0.3560
vn -0.6909 -0.2403 0.6818
vn 0.0397 -0.1393 0.9894
vn 0.8543 0.1375 0.5012
vn 0.8191 0.0596 0.5705
vn -0.2674 0.1048 0.9578
vn -0.7368 0.2451 -0.6301
vn -0.0230 -0.0065 -0.9997
vn 0.1975 0.5209 0.8304
vn 0.4067 0.2253 0.8853
vn 0.8634 0.2933 0.4104
vn 0.9515 0.1368 -0.2753
vn 0.9962 0.0817 0.0283
vn 0.9848 0.1703 -0.0347
vn 0.4018 0.6203 -0.6736
vn 0.8763 0.3658 -0.3135
vn 0.9416 0.2505 -0.2250
vn 0.9204 0.3312 -0.2077
vn 0.9519 0.2069 -0.2261
vn -0.4129 0.7166 -0.5621
vn -0.2474 0.8556 -0.4546
usemtl Material__445
s 1
f 1/1/1 2/2/2 3/3/3
f 3/3/3 4/4/4 5/5/5
f 4/4/4 6/6/6 5/5/5
f 7/7/7 5/5/5 6/6/6
f 8/8/8 5/5/5 7/7/7
f 5/5/5 8/8/8 3/3/3
f 8/8/8 9/9/9 3/3/3
f 3/3/3 9/9/9 1/1/1
f 1/1/1 9/9/9 10/10/10
f 10/10/10 11/11/11 1/1/1
f 12/12/12 11/11/11 10/10/10
f 10/10/10 13/13/13 12/12/12
f 7/7/7 14/14/14 8/8/8
f 8/8/8 14/14/14 9/9/9
f 9/9/9 14/14/14 15/15/15
f 15/15/15 10/10/10 9/9/9
f 10/10/10 15/15/15 16/16/16
f 16/16/16 13/13/13 10/10/10
f 13/13/13 16/16/16 17/17/17
f 17/17/17 16/16/16 18/18/18
f 18/18/18 19/19/19 17/17/17
f 15/15/15 14/14/14 7/7/7
f 16/16/16 15/15/15 20/20/20
f 20/20/20 21/21/21 16/16/16
f 21/21/21 18/18/18 16/16/16
f 19/19/19 18/18/18 22/22/22
f 23/23/23 22/22/22 18/18/18
f 18/18/18 21/21/21 23/23/23
f 24/24/24 23/23/23 21/21/21
f 21/21/21 20/20/20 24/24/24
f 25/25/25 24/24/24 20/20/20
f 25/25/25 20/20/20 15/15/15
f 15/15/15 26/26/26 25/25/25
f 7/7/7 26/26/26 15/15/15
f 27/27/27 26/26/26 7/7/7
f 28/28/28 29/29/29 23/23/23
f 23/23/23 24/24/24 28/28/28
f 30/30/30 31/31/31 32/32/32
f 33/33/33 31/31/31 30/30/30
f 30/30/30 34/34/34 33/33/33
f 33/33/33 34/34/34 27/27/27
f 27/27/27 34/34/34 25/25/25
f 25/25/25 26/26/26 27/27/27
f 25/25/25 34/34/34 30/30/30
f 7/7/7 6/6/6 27/27/27
f 27/27/27 6/6/6 33/33/33
f 33/33/33 6/6/6 4/4/4
f 4/4/4 35/35/35 33/33/33
f 33/33/33 35/35/35 36/36/36
f 36/36/36 31/31/31 33/33/33
f 31/31/31 36/36/36 37/37/37
f 37/37/37 32/32/32 31/31/31
f 38/38/38 32/32/32 37/37/37
f 32/32/32 38/38/38 39/39/39
f 37/37/37 36/36/36 40/40/40
f 40/40/40 41/41/41 37/37/37
f 42/42/42 43/43/43 44/44/44
f 40/40/40 42/42/42 44/44/44
f 44/44/44 41/41/41 40/40/40
f 45/45/45 41/41/41 44/44/44
f 37/37/37 41/41/41 45/45/45
f 45/45/45 46/46/46 37/37/37
f 37/37/37 46/46/46 38/38/38
f 47/47/47 38/38/38 46/46/46
f 46/46/46 48/48/48 47/47/47
f 47/47/47 48/48/48 49/49/49
f 44/44/44 50/50/50 51/51/51
f 44/44/44 51/51/51 45/45/45
f 52/52/52 53/53/53 54/54/54
f 52/52/52 54/54/54 47/47/47
f 47/47/47 55/55/55 52/52/52
f 49/49/49 55/55/55 47/47/47
f 56/56/56 55/55/55 49/49/49
f 56/56/56 49/49/49 57/57/57
f 57/57/57 58/58/58 56/56/56
f 57/57/57 59/59/59 58/58/58
f 58/58/58 59/59/59 60/60/60
f 61/61/61 60/60/60 59/59/59
f 52/52/52 55/55/55 62/62/62
f 55/55/55 56/56/56 62/62/62
f 62/62/62 56/56/56 58/58/58
f 58/58/58 60/60/60 62/62/62
f 63/63/63 61/61/61 64/64/64
f 59/59/59 64/64/64 61/61/61
f 65/65/65 66/66/66 67/67/67
f 68/68/68 67/67/67 66/66/66
f 66/66/66 63/63/63 68/68/68
f 68/68/68 63/63/63 69/69/69
f 64/64/64 69/69/69 63/63/63
f 70/70/70 69/69/69 64/64/64
f 64/64/64 71/71/71 70/70/70
f 72/72/72 71/71/71 64/64/64
f 64/64/64 59/59/59 72/72/72
f 72/72/72 59/59/59 57/57/57
f 57/57/57 73/73/73 72/72/72
f 70/70/70 74/74/74 75/75/75
f 75/75/75 69/69/69 70/70/70
f 69/69/69 75/75/75 68/68/68
f 75/75/75 74/74/74 76/76/76
f 76/76/76 77/77/77 75/75/75
f 75/75/75 77/77/77 78/78/78
f 78/78/78 68/68/68 75/75/75
f 68/68/68 78/78/78 79/79/79
f 79/79/79 67/67/67 68/68/68
f 67/67/67 79/79/79 80/80/80
f 67/67/67 80/80/80 81/81/81
f 81/81/81 82/82/82 67/67/67
f 65/65/65 67/67/67 82/82/82
f 66/66/66 65/65/65 83/83/83
f 83/83/83 65/65/65 84/84/84
f 82/82/82 84/84/84 65/65/65
f 84/84/84 82/82/82 85/85/85
f 85/85/85 82/82/82 81/81/81
f 81/81/81 86/86/86 85/85/85
f 85/85/85 86/86/86 87/87/87
f 87/87/87 88/88/88 85/85/85
f 19/19/19 88/88/88 87/87/87
f 88/88/88 19/19/19 22/22/22
f 85/85/85 89/89/89 90/90/90
f 91/91/91 92/92/92 93/93/93
f 93/93/93 92/92/92 94/94/94
f 94/94/94 95/95/95 93/93/93
f 84/84/84 95/95/95 94/94/94
f 85/85/85 95/95/95 84/84/84
f 85/85/85 93/93/93 95/95/95
f 93/93/93 85/85/85 90/90/90
f 93/93/93 90/90/90 91/91/91
f 91/91/91 90/90/90 89/89/89
f 89/89/89 96/96/96 91/91/91
f 85/85/85 88/88/88 97/97/97
f 97/97/97 98/98/98 85/85/85
f 98/98/98 89/89/89 85/85/85
f 89/89/89 98/98/98 99/99/99
f 99/99/99 96/96/96 89/89/89
f 96/96/96 99/99/99 100/100/100
f 100/100/100 101/101/101 96/96/96
f 96/96/96 101/101/101 102/102/102
f 102/102/102 91/91/91 96/96/96
f 92/92/92 91/91/91 102/102/102
f 100/100/100 99/99/99 97/97/97
f 97/97/97 99/99/99 98/98/98
f 103/103/103 104/104/104 102/102/102
f 102/102/102 101/101/101 103/103/103
f 103/103/103 101/101/101 105/105/105
f 28/28/28 105/105/105 101/101/101
f 101/101/101 100/100/100 28/28/28
f 28/28/28 100/100/100 29/29/29
f 97/97/97 29/29/29 100/100/100
f 23/23/23 29/29/29 97/97/97
f 97/97/97 22/22/22 23/23/23
f 22/22/22 97/97/97 88/88/88
f 106/106/106 104/104/104 103/103/103
f 105/105/105 28/28/28 24/24/24
f 24/24/24 25/25/25 105/105/105
f 105/105/105 25/25/25 103/103/103
f 30/30/30 103/103/103 25/25/25
f 103/103/103 30/30/30 106/106/106
f 32/32/32 106/106/106 30/30/30
f 39/39/39 106/106/106 32/32/32
f 106/106/106 39/39/39 107/107/107
f 107/107/107 104/104/104 106/106/106
f 102/102/102 104/104/104 107/107/107
f 39/39/39 38/38/38 47/47/47
f 47/47/47 54/54/54 39/39/39
f 39/39/39 54/54/54 53/53/53
f 53/53/53 107/107/107 39/39/39
f 107/107/107 53/53/53 108/108/108
f 108/108/108 109/109/109 107/107/107
f 109/109/109 108/108/108 110/110/110
f 110/110/110 111/111/111 109/109/109
f 110/110/110 112/112/112 111/111/111
f 111/111/111 112/112/112 84/84/84
f 84/84/84 94/94/94 111/111/111
f 111/111/111 94/94/94 92/92/92
f 92/92/92 109/109/109 111/111/111
f 102/102/102 109/109/109 92/92/92
f 107/107/107 109/109/109 102/102/102
f 84/84/84 112/112/112 83/83/83
f 83/83/83 112/112/112 110/110/110
f 110/110/110 113/113/113 83/83/83
f 113/113/113 110/110/110 108/108/108
f 108/108/108 53/53/53 113/113/113
f 53/53/53 114/114/114 113/113/113
f 113/113/113 114/114/114 115/115/115
f 115/115/115 83/83/83 113/113/113
f 62/62/62 60/60/60 61/61/61
f 61/61/61 116/116/116 62/62/62
f 62/62/62 116/116/116 52/52/52
f 53/53/53 52/52/52 116/116/116
f 53/53/53 116/116/116 61/61/61
f 61/61/61 114/114/114 53/53/53
f 114/114/114 61/61/61 63/63/63
f 63/63/63 115/115/115 114/114/114
f 115/115/115 63/63/63 66/66/66
f 83/83/83 115/115/115 66/66/66
f 117/117/117 118/118/118 119/119/119
f 119/119/119 120/120/120 117/117/117
f 120/120/120 119/119/119 121/121/121
f 122/122/122 117/117/117 123/123/123
f 123/123/123 117/117/117 120/120/120
f 123/123/123 120/120/120 124/124/124
f 121/121/121 124/124/124 120/120/120
f 125/125/125 124/124/124 121/121/121
f 121/121/121 126/126/126 125/125/125
f 125/125/125 126/126/126 127/127/127
f 127/127/127 128/128/128 125/125/125
f 129/129/129 128/128/128 127/127/127
f 128/128/128 129/129/129 130/130/130
f 127/127/127 131/131/131 129/129/129
f 132/132/132 125/125/125 128/128/128
f 124/124/124 125/125/125 123/123/123
f 123/123/123 125/125/125 132/132/132
f 132/132/132 133/133/133 123/123/123
f 134/134/134 133/133/133 132/132/132
f 132/132/132 135/135/135 134/134/134
f 130/130/130 136/136/136 128/128/128
f 132/132/132 128/128/128 136/136/136
f 136/136/136 137/137/137 132/132/132
f 135/135/135 132/132/132 137/137/137
f 137/137/137 138/138/138 135/135/135
f 123/123/123 139/139/139 122/122/122
f 139/139/139 123/123/123 133/133/133
f 133/133/133 140/140/140 139/139/139
f 133/133/133 134/134/134 141/141/141
f 141/141/141 140/140/140 133/133/133
f 140/140/140 141/141/141 142/142/142
f 142/142/142 143/143/143 140/140/140
f 139/139/139 140/140/140 143/143/143
f 143/143/143 144/144/144 139/139/139
f 122/122/122 139/139/139 144/144/144
f 144/144/144 145/145/145 122/122/122
f 122/122/122 145/145/145 118/118/118
f 118/118/118 117/117/117 122/122/122
f 146/146/146 147/147/147 148/148/148
f 149/149/149 150/150/150 151/151/151
f 151/151/151 152/152/152 149/149/149
f 152/152/152 151/151/151 153/153/153
f 153/153/153 154/154/154 152/152/152
f 154/154/154 153/153/153 155/155/155
f 155/155/155 156/156/156 154/154/154
f 156/156/156 155/155/155 157/157/157
f 157/157/157 146/146/146 156/156/156
f 146/146/146 157/157/157 158/158/158
f 158/158/158 159/159/159 146/146/146
f 147/147/147 146/146/146 159/159/159
f 159/159/159 160/160/160 147/147/147
f 152/152/152 154/154/154 156/156/156
f 149/149/149 152/152/152 156/156/156
f 149/149/149 156/156/156 161/161/161
f 161/161/161 156/156/156 146/146/146
f 146/146/146 162/162/162 161/161/161
f 148/148/148 162/162/162 146/146/146
f 162/162/162 148/148/148 163/163/163
f 163/163/163 164/164/164 162/162/162
f 164/164/164 163/163/163 165/165/165
f 165/165/165 166/166/166 164/164/164
f 164/164/164 166/166/166 167/167/167
f 167/167/167 168/168/168 164/164/164
f 162/162/162 164/164/164 168/168/168
f 168/168/168 169/169/169 162/162/162
f 162/162/162 169/169/169 170/170/170
f 170/170/170 161/161/161 162/162/162
f 161/161/161 170/170/170 150/150/150
f 150/150/150 149/149/149 161/161/161
f 171/171/171 172/172/172 173/173/173
f 174/174/174 175/175/175 176/176/176
f 176/176/176 175/175/175 171/171/171
f 171/171/171 177/177/177 176/176/176
f 173/173/173 177/177/177 171/171/171
f 177/177/177 173/173/173 178/178/178
f 178/178/178 179/179/179 177/177/177
f 179/179/179 178/178/178 180/180/180
f 180/180/180 181/181/181 179/179/179
f 179/179/179 181/181/181 182/182/182
f 182/182/182 183/183/183 179/179/179
f 183/183/183 182/182/182 184/184/184
f 184/184/184 185/185/185 183/183/183
f 177/177/177 179/179/179 183/183/183
f 183/183/183 176/176/176 177/177/177
f 184/184/184 186/186/186 187/187/187
f 187/187/187 185/185/185 184/184/184
f 185/185/185 187/187/187 188/188/188
f 188/188/188 183/183/183 185/185/185
f 183/183/183 188/188/188 189/189/189
f 189/189/189 176/176/176 183/183/183
f 176/176/176 189/189/189 190/190/190
f 190/190/190 191/191/191 176/176/176
f 192/192/192 176/176/176 191/191/191
f 176/176/176 192/192/192 174/174/174
f 193/193/193 194/194/194 195/195/195
f 196/196/196 197/197/197 198/198/198
f 198/198/198 199/199/199 196/196/196
f 195/195/195 199/199/199 198/198/198
f 198/198/198 200/200/200 195/195/195
f 195/195/195 200/200/200 193/193/193
f 201/201/201 193/193/193 200/200/200
f 200/200/200 202/202/202 201/201/201
f 203/203/203 201/201/201 202/202/202
f 202/202/202 204/204/204 203/203/203
f 205/205/205 204/204/204 202/202/202
f 202/202/202 206/206/206 205/205/205
f 206/206/206 202/202/202 200/200/200
f 200/200/200 198/198/198 206/206/206
f 207/207/207 205/205/205 206/206/206
f 206/206/206 208/208/208 207/207/207
f 207/207/207 208/208/208 209/209/209
f 210/210/210 209/209/209 208/208/208
f 208/208/208 206/206/206 210/210/210
f 211/211/211 210/210/210 206/206/206
f 206/206/206 198/198/198 211/211/211
f 212/212/212 211/211/211 198/198/198
f 198/198/198 213/213/213 212/212/212
f 197/197/197 213/213/213 198/198/198
f 209/209/209 214/214/214 207/207/207
f 215/215/215 216/216/216 217/217/217
f 218/218/218 219/219/219 220/220/220
f 220/220/220 215/215/215 218/218/218
f 217/217/217 218/218/218 215/215/215
f 221/221/221 218/218/218 217/217/217
f 217/217/217 222/222/222 221/221/221
f 221/221/221 222/222/222 223/223/223
f 223/223/223 224/224/224 221/221/221
f 225/225/225 221/221/221 224/224/224
f 224/224/224 226/226/226 225/225/225
f 225/225/225 226/226/226 227/227/227
f 226/226/226 224/224/224 223/223/223
f 223/223/223 228/228/228 226/226/226
f 225/225/225 227/227/227 229/229/229
f 229/229/229 230/230/230 225/225/225
f 227/227/227 226/226/226 228/228/228
f 228/228/228 231/231/231 227/227/227
f 229/229/229 227/227/227 231/231/231
f 231/231/231 232/232/232 229/229/229
f 229/229/229 232/232/232 233/233/233
f 233/233/233 230/230/230 229/229/229
f 230/230/230 233/233/233 234/234/234
f 234/234/234 235/235/235 230/230/230
f 235/235/235 234/234/234 236/236/236
f 236/236/236 237/237/237 235/235/235
f 238/238/238 235/235/235 237/237/237
f 237/237/237 239/239/239 238/238/238
f 240/240/240 238/238/238 239/239/239
f 239/239/239 241/241/241 240/240/240
f 242/242/242 240/240/240 241/241/241
f 241/241/241 243/243/243 242/242/242
f 230/230/230 235/235/235 238/238/238
f 238/238/238 225/225/225 230/230/230
f 225/225/225 238/238/238 240/240/240
f 240/240/240 221/221/221 225/225/225
f 240/240/240 218/218/218 221/221/221
f 219/219/219 218/218/218 240/240/240
f 240/240/240 242/242/242 219/219/219
f 244/244/244 245/245/245 246/246/246
f 246/246/246 247/247/247 244/244/244
f 248/248/248 247/247/247 246/246/246
f 246/246/246 249/249/249 248/248/248
f 250/250/250 248/248/248 249/249/249
f 249/249/249 251/251/251 250/250/250
f 252/252/252 250/250/250 251/251/251
f 253/253/253 251/251/251 249/249/249
f 244/244/244 254/254/254 255/255/255
f 255/255/255 245/245/245 244/244/244
f 245/245/245 255/255/255 256/256/256
f 256/256/256 257/257/257 245/245/245
f 246/246/246 245/245/245 257/257/257
f 257/257/257 258/258/258 246/246/246
f 249/249/249 246/246/246 258/258/258
f 258/258/258 259/259/259 249/249/249
f 249/249/249 259/259/259 253/253/253
f 253/253/253 259/259/259 260/260/260
f 257/257/257 256/256/256 261/261/261
f 259/259/259 258/258/258 262/262/262
f 262/262/262 258/258/258 257/257/257
f 257/257/257 263/263/263 262/262/262
f 261/261/261 263/263/263 257/257/257
f 263/263/263 261/261/261 264/264/264
f 264/264/264 265/265/265 263/263/263
f 265/265/265 264/264/264 266/266/266
f 265/265/265 262/262/262 263/263/263
f 260/260/260 267/267/267 253/253/253
f 268/268/268 267/267/267 260/260/260
f 267/267/267 268/268/268 269/269/269
f 269/269/269 268/268/268 270/270/270
f 266/266/266 270/270/270 268/268/268
f 268/268/268 271/271/271 266/266/266
f 266/266/266 271/271/271 265/265/265
f 265/265/265 271/271/271 260/260/260
f 260/260/260 262/262/262 265/265/265
f 262/262/262 260/260/260 259/259/259
f 260/260/260 271/271/271 268/268/268
f 270/270/270 272/272/272 269/269/269
f 273/273/273 269/269/269 272/272/272
f 269/269/269 273/273/273 267/267/267
f 267/267/267 273/273/273 274/274/274
f 267/267/267 274/274/274 275/275/275
f 275/275/275 253/253/253 267/267/267
f 275/275/275 276/276/276 253/253/253
f 251/251/251 253/253/253 276/276/276
f 276/276/276 277/277/277 251/251/251
f 251/251/251 277/277/277 252/252/252
f 278/278/278 252/252/252 277/277/277
f 277/277/277 279/279/279 278/278/278
f 278/278/278 279/279/279 280/280/280
f 280/280/280 279/279/279 281/281/281
f 281/281/281 279/279/279 277/277/277
f 277/277/277 276/276/276 281/281/281
f 281/281/281 276/276/276 275/275/275
f 275/275/275 282/282/282 281/281/281
f 280/280/280 283/283/283 278/278/278
f 284/284/284 285/285/285 274/274/274
f 275/275/275 274/274/274 285/285/285
f 285/285/285 286/286/286 275/275/275
f 286/286/286 282/282/282 275/275/275
f 286/286/286 287/287/287 282/282/282
f 281/281/281 282/282/282 287/287/287
f 287/287/287 288/288/288 281/281/281
f 281/281/281 288/288/288 280/280/280
f 289/289/289 280/280/280 288/288/288
f 283/283/283 280/280/280 289/289/289
f 290/290/290 291/291/291 287/287/287
f 287/287/287 286/286/286 290/290/290
f 290/290/290 286/286/286 292/292/292
f 285/285/285 292/292/292 286/286/286
f 284/284/284 292/292/292 285/285/285
f 284/284/284 290/290/290 292/292/292
f 291/291/291 290/290/290 284/284/284
f 293/293/293 284/284/284 294/294/294
f 284/284/284 293/293/293 291/291/291
f 295/295/295 291/291/291 293/293/293
f 287/287/287 291/291/291 295/295/295
f 295/295/295 296/296/296 287/287/287
f 287/287/287 296/296/296 288/288/288
f 288/288/288 296/296/296 289/289/289
f 297/297/297 289/289/289 296/296/296
f 296/296/296 298/298/298 297/297/297
f 297/297/297 298/298/298 299/299/299
f 299/299/299 300/300/300 297/297/297
f 300/300/300 299/299/299 301/301/301
f 301/301/301 302/302/302 300/300/300
f 289/289/289 303/303/303 283/283/283
f 303/303/303 289/289/289 297/297/297
f 297/297/297 304/304/304 303/303/303
f 304/304/304 297/297/297 300/300/300
f 300/300/300 305/305/305 304/304/304
f 306/306/306 305/305/305 300/300/300
f 300/300/300 302/302/302 306/306/306
f 306/306/306 302/302/302 307/307/307
f 308/308/308 307/307/307 302/302/302
f 302/302/302 301/301/301 308/308/308
f 307/307/307 309/309/309 306/306/306
f 310/310/310 299/299/299 298/298/298
f 301/301/301 299/299/299 310/310/310
f 310/310/310 311/311/311 301/301/301
f 312/312/312 311/311/311 310/310/310
f 312/312/312 310/310/310 313/313/313
f 298/298/298 313/313/313 310/310/310
f 313/313/313 298/298/298 296/296/296
f 296/296/296 295/295/295 313/313/313
f 313/313/313 314/314/314 312/312/312
f 315/315/315 314/314/314 313/313/313
f 313/313/313 295/295/295 315/315/315
f 316/316/316 315/315/315 295/295/295
f 295/295/295 293/293/293 316/316/316
f 272/272/272 316/316/316 293/293/293
f 293/293/293 294/294/294 272/272/272
f 272/272/272 294/294/294 273/273/273
f 273/273/273 294/294/294 284/284/284
f 274/274/274 273/273/273 284/284/284
f 317/317/317 308/308/308 301/301/301
f 301/301/301 311/311/311 317/317/317
f 318/318/318 317/317/317 311/311/311
f 311/311/311 312/312/312 318/318/318
f 319/319/319 318/318/318 312/312/312
f 312/312/312 314/314/314 319/319/319
f 319/319/319 314/314/314 315/315/315
f 315/315/315 270/270/270 319/319/319
f 270/270/270 315/315/315 316/316/316
f 316/316/316 272/272/272 270/270/270
f 320/320/320 321/321/321 322/322/322
f 322/322/322 323/323/323 320/320/320
f 324/324/324 320/320/320 323/323/323
f 324/324/324 323/323/323 325/325/325
f 323/323/323 326/326/326 325/325/325
f 322/322/322 327/327/327 328/328/328
f 328/328/328 329/329/329 322/322/322
f 323/323/323 322/322/322 329/329/329
f 329/329/329 330/330/330 323/323/323
f 326/326/326 323/323/323 330/330/330
f 330/330/330 331/331/331 326/326/326
f 325/325/325 326/326/326 331/331/331
f 331/331/331 332/332/332 325/325/325
f 324/324/324 325/325/325 332/332/332
f 332/332/332 333/333/333 324/324/324
f 321/321/321 334/334/334 335/335/335
f 335/335/335 336/336/336 321/321/321
f 322/322/322 321/321/321 336/336/336
f 336/336/336 337/337/337 322/322/322
f 327/327/327 322/322/322 337/337/337
f 337/337/337 338/338/338 327/327/327
f 320/320/320 324/324/324 333/333/333
f 333/333/333 339/339/339 320/320/320
f 321/321/321 320/320/320 339/339/339
f 339/339/339 340/340/340 321/321/321
f 321/321/321 340/340/340 341/341/341
f 341/341/341 334/334/334 321/321/321
f 334/334/334 341/341/341 342/342/342
f 342/342/342 343/343/343 334/334/334
f 334/334/334 343/343/343 344/344/344
f 344/344/344 335/335/335 334/334/334
f 345/345/345 346/346/346 347/347/347
f 347/347/347 346/346/346 348/348/348
f 348/348/348 349/349/349 347/347/347
f 347/347/347 349/349/349 12/12/12
f 12/12/12 13/13/13 347/347/347
f 17/17/17 347/347/347 13/13/13
f 347/347/347 17/17/17 345/345/345
f 350/350/350 345/345/345 17/17/17
f 17/17/17 19/19/19 350/350/350
f 351/351/351 350/350/350 19/19/19
f 87/87/87 351/351/351 19/19/19
