# Blender v2.83.0 OBJ File: ''
# www.blender.org
mtllib drink.mtl
v -0.044889 0.016662 0.000000
v -0.044889 -0.004210 0.000000
v -0.031741 -0.004210 0.031741
v -0.031741 0.016662 0.031741
v -0.031741 0.172417 0.031741
v 0.000000 -0.004210 0.044889
v 0.000000 0.016662 0.044889
v 0.031741 -0.004210 0.031741
v 0.031741 0.016662 0.031741
v 0.044889 -0.004210 0.000000
v 0.044889 0.016662 0.000000
v 0.031741 -0.004210 -0.031741
v 0.031741 0.016662 -0.031741
v 0.000000 0.016662 -0.044889
v 0.000000 0.172417 -0.044889
v 0.031741 0.172417 -0.031741
v 0.044889 0.172417 0.000000
v 0.031741 0.172417 0.031741
v 0.000000 0.172417 0.044889
v 0.000000 0.256737 0.023139
v -0.016362 0.256737 0.016362
v -0.031741 0.172417 -0.031741
v -0.016362 0.256737 -0.016362
v 0.000000 0.256737 -0.023139
v 0.016362 0.256737 -0.016362
v 0.023139 0.256737 0.000000
v 0.016362 0.256737 0.016362
v -0.044889 0.172417 0.000000
v -0.023139 0.256737 0.000000
v -0.014618 0.349421 -0.014618
v 0.000000 0.349421 -0.020673
v 0.014618 0.349421 -0.014618
v 0.020673 0.349421 0.000000
v 0.014618 0.349421 0.014618
v -0.020673 0.349421 0.000000
v 0.000000 0.349421 0.020673
v -0.014618 0.349421 0.014618
v 0.000000 0.362644 -0.019221
v -0.013591 0.362644 -0.013591
v -0.019221 0.362644 0.000000
v 0.000000 0.362644 0.019221
v -0.013591 0.362644 0.013591
v 0.019221 0.362644 0.000000
v 0.013591 0.362644 -0.013591
v 0.013591 0.362644 0.013591
v -0.017179 0.351783 0.017179
v 0.000000 0.351783 0.024296
v 0.017179 0.351783 0.017179
v 0.024296 0.351783 0.000000
v 0.017179 0.351783 -0.017179
v 0.000000 0.351783 -0.024296
v -0.017179 0.351783 -0.017179
v -0.024296 0.351783 0.000000
v -0.031741 -0.004210 -0.031741
v 0.000000 -0.004210 -0.044889
v -0.031741 0.016662 -0.031741
vt 0.008600 0.064500
vt 0.005100 0.031300
vt 0.059100 0.023400
vt 0.062200 0.056200
vt 0.084700 0.298300
vt 0.114700 0.015100
vt 0.116900 0.047900
vt 0.171600 0.010300
vt 0.172700 0.042500
vt 0.229200 0.008300
vt 0.229200 0.040500
vt 0.286900 0.010300
vt 0.285600 0.042500
vt 0.341600 0.047900
vt 0.324700 0.290000
vt 0.276900 0.285200
vt 0.229100 0.283700
vt 0.181500 0.285200
vt 0.133500 0.290000
vt 0.159800 0.421900
vt 0.126600 0.426800
vt 0.373500 0.298300
vt 0.331500 0.427200
vt 0.298300 0.421900
vt 0.263900 0.418900
vt 0.229000 0.418000
vt 0.194200 0.418900
vt 0.423800 0.310500
vt 0.362100 0.435500
vt 0.302500 0.569600
vt 0.278300 0.565400
vt 0.253700 0.563200
vt 0.229000 0.562500
vt 0.204200 0.563200
vt 0.326400 0.575200
vt 0.179700 0.565400
vt 0.155400 0.569600
vt 0.131600 0.575000
vt 0.095900 0.435100
vt 0.034500 0.310500
vt 0.439900 0.392600
vt 0.458500 0.399900
vt 0.466100 0.418500
vt 0.439900 0.444800
vt 0.458500 0.437000
vt 0.413600 0.418500
vt 0.421400 0.399900
vt 0.421400 0.437000
vt 0.468500 0.447300
vt 0.439900 0.459500
vt 0.411100 0.447300
vt 0.399200 0.418500
vt 0.411100 0.390100
vt 0.439900 0.377900
vt 0.439900 0.462400
vt 0.408900 0.449700
vt 0.396200 0.418500
vt 0.408900 0.387700
vt 0.439900 0.375000
vt 0.468500 0.390100
vt 0.470700 0.387700
vt 0.480500 0.418500
vt 0.483400 0.418500
vt 0.470700 0.449700
vt 0.117200 0.549300
vt 0.100800 0.589100
vt 0.061000 0.605700
vt 0.061000 0.493200
vt 0.004700 0.549300
vt 0.021200 0.509500
vt 0.021200 0.589100
vt 0.100800 0.509500
vt 0.343800 0.015600
vt 0.399400 0.023900
vt 0.396200 0.056200
vt 0.453400 0.031700
vt 0.450000 0.064500
vn -1.0000 -0.0000 0.0000
vn -0.8794 -0.4760 -0.0000
vn -0.5000 -0.7071 0.5000
vn -0.7071 -0.0000 0.7071
vn -0.7018 0.1222 0.7018
vn 0.0000 -0.7071 0.7071
vn -0.0000 -0.0000 1.0000
vn 0.5000 -0.7071 0.5000
vn 0.7071 -0.0000 0.7071
vn 0.7071 -0.7071 -0.0000
vn 1.0000 0.0000 0.0000
vn 0.5000 -0.7071 -0.5000
vn 0.7071 0.0000 -0.7071
vn 0.0000 0.0000 -1.0000
vn 0.0000 0.1222 -0.9925
vn 0.7018 0.1222 -0.7018
vn 0.9925 0.1222 0.0000
vn 0.7018 0.1222 0.7018
vn -0.0000 0.1222 0.9925
vn -0.0000 0.1430 0.9897
vn -0.6998 0.1430 0.6998
vn -0.7018 0.1222 -0.7018
vn -0.6998 0.1430 -0.6998
vn 0.0000 0.1430 -0.9897
vn 0.6998 0.1430 -0.6998
vn 0.9897 0.1430 0.0000
vn 0.6998 0.1430 0.6998
vn -0.9925 0.1222 -0.0000
vn -0.9897 0.1430 -0.0000
vn -0.6262 -0.4646 -0.6261
vn 0.0000 -0.4646 -0.8855
vn 0.6261 -0.4646 -0.6262
vn 0.8855 -0.4646 0.0000
vn 0.6262 -0.4646 0.6261
vn -0.9498 -0.3129 0.0000
vn -0.0000 -0.4646 0.8855
vn -0.6261 -0.4646 0.6262
vn 0.0000 0.7853 -0.6191
vn -0.4378 0.7853 -0.4378
vn -0.6191 0.7853 -0.0000
vn -0.0000 0.7853 0.6191
vn -0.4378 0.7853 0.4378
vn 0.6191 0.7853 0.0000
vn 0.4378 0.7853 -0.4378
vn 0.4378 0.7853 0.4378
vn -0.6865 -0.2398 0.6865
vn -0.0000 -0.2397 0.9708
vn 0.6865 -0.2398 0.6865
vn 0.9708 -0.2397 0.0000
vn 0.6865 -0.2398 -0.6865
vn 0.0000 -0.2397 -0.9708
vn -0.6865 -0.2398 -0.6865
vn -0.9708 -0.2397 -0.0000
vn -0.5000 -0.7071 -0.5000
vn 0.0000 -0.7071 -0.7071
vn -0.7071 0.0000 -0.7071
usemtl PickUps_MAT_pickups
s 1
f 1/1/1 2/2/2 3/3/3
f 1/1/1 4/4/4 5/5/5
f 3/3/3 4/4/4 1/1/1
f 4/4/4 3/3/3 6/6/6
f 6/6/6 7/7/7 4/4/4
f 7/7/7 6/6/6 8/8/8
f 8/8/8 9/9/9 7/7/7
f 9/9/9 8/8/8 10/10/10
f 10/10/10 11/11/11 9/9/9
f 11/11/11 10/10/10 12/12/12
f 12/12/12 13/13/13 11/11/11
f 13/13/13 14/14/14 15/15/15
f 15/15/15 16/16/16 13/13/13
f 11/11/11 13/13/13 16/16/16
f 16/16/16 17/17/17 11/11/11
f 9/9/9 11/11/11 17/17/17
f 17/17/17 18/18/18 9/9/9
f 7/7/7 9/9/9 18/18/18
f 18/18/18 19/19/19 7/7/7
f 4/4/4 7/7/7 19/19/19
f 19/19/19 5/5/5 4/4/4
f 5/5/5 19/19/19 20/20/20
f 20/20/20 21/21/21 5/5/5
f 15/15/15 22/22/22 23/23/23
f 23/23/23 24/24/24 15/15/15
f 16/16/16 15/15/15 24/24/24
f 24/24/24 25/25/25 16/16/16
f 17/17/17 16/16/16 25/25/25
f 25/25/25 26/26/26 17/17/17
f 18/18/18 17/17/17 26/26/26
f 26/26/26 27/27/27 18/18/18
f 19/19/19 18/18/18 27/27/27
f 27/27/27 20/20/20 19/19/19
f 22/22/22 28/28/28 29/29/29
f 29/29/29 23/23/23 22/22/22
f 30/30/30 23/23/23 29/29/29
f 23/23/23 30/30/30 31/31/31
f 31/31/31 24/24/24 23/23/23
f 24/24/24 31/31/31 32/32/32
f 32/32/32 25/25/25 24/24/24
f 25/25/25 32/32/32 33/33/33
f 33/33/33 26/26/26 25/25/25
f 26/26/26 33/33/33 34/34/34
f 29/29/29 35/35/35 30/30/30
f 34/34/34 27/27/27 26/26/26
f 27/27/27 34/34/34 36/36/36
f 36/36/36 20/20/20 27/27/27
f 20/20/20 36/36/36 37/37/37
f 37/37/37 21/21/21 20/20/20
f 21/21/21 37/37/37 35/38/35
f 35/38/35 29/39/29 21/21/21
f 21/21/21 29/39/29 28/40/28
f 28/40/28 5/5/5 21/21/21
f 5/5/5 28/40/28 1/1/1
f 38/41/38 39/42/39 40/43/40
f 38/41/38 40/43/40 41/44/41
f 40/43/40 42/45/42 41/44/41
f 43/46/43 44/47/44 38/41/38
f 43/46/43 38/41/38 41/44/41
f 45/48/45 43/46/43 41/44/41
f 41/44/41 42/45/42 46/49/46
f 46/49/46 47/50/47 41/44/41
f 45/48/45 41/44/41 47/50/47
f 47/50/47 48/51/48 45/48/45
f 43/46/43 45/48/45 48/51/48
f 48/51/48 49/52/49 43/46/43
f 44/47/44 43/46/43 49/52/49
f 49/52/49 50/53/50 44/47/44
f 38/41/38 44/47/44 50/53/50
f 50/53/50 51/54/51 38/41/38
f 48/51/48 47/50/47 36/55/36
f 36/55/36 34/56/34 48/51/48
f 49/52/49 48/51/48 34/56/34
f 34/56/34 33/57/33 49/52/49
f 50/53/50 49/52/49 33/57/33
f 33/57/33 32/58/32 50/53/50
f 51/54/51 50/53/50 32/58/32
f 32/58/32 31/59/31 51/54/51
f 52/60/52 51/54/51 31/59/31
f 31/59/31 30/61/30 52/60/52
f 53/62/53 52/60/52 30/61/30
f 30/61/30 35/63/35 53/62/53
f 39/42/39 38/41/38 51/54/51
f 51/54/51 52/60/52 39/42/39
f 40/43/40 39/42/39 52/60/52
f 52/60/52 53/62/53 40/43/40
f 42/45/42 40/43/40 53/62/53
f 53/62/53 46/49/46 42/45/42
f 46/49/46 53/62/53 35/63/35
f 35/63/35 37/64/37 46/49/46
f 47/50/47 46/49/46 37/64/37
f 37/64/37 36/55/36 47/50/47
f 2/65/2 54/66/54 55/67/55
f 2/65/2 55/67/55 6/68/6
f 55/67/55 10/69/10 6/68/6
f 10/69/10 8/70/8 6/68/6
f 55/67/55 12/71/12 10/69/10
f 3/72/3 2/65/2 6/68/6
f 13/13/13 12/12/12 55/73/55
f 55/73/55 14/14/14 13/13/13
f 14/14/14 55/73/55 54/74/54
f 54/74/54 56/75/56 14/14/14
f 56/75/56 54/74/54 2/76/2
f 2/76/2 1/77/1 56/75/56
f 56/75/56 1/77/1 28/28/28
f 28/28/28 22/22/22 56/75/56
f 14/14/14 56/75/56 22/22/22
f 22/22/22 15/15/15 14/14/14
