# Blender v2.83.0 OBJ File: ''
# www.blender.org
mtllib wheel_1.mtl
v -0.045478 -0.212973 -0.038923
v -0.015159 -0.213970 -0.003958
v -0.025746 -0.212973 -0.049008
v 0.068763 -0.166053 0.067816
v -0.010567 -0.166053 0.013579
v 0.055825 -0.166053 0.080630
v 0.248417 -0.094375 0.249247
v 0.235478 -0.094375 0.262061
v 0.002372 -0.166053 0.000765
v 0.068763 -0.166053 0.067816
v 0.002372 -0.079527 0.000765
v 0.248417 -0.094375 0.249247
v 0.248417 -0.079527 0.249247
v 0.235478 -0.079527 0.262061
v 0.235478 -0.094375 0.262061
v -0.010567 -0.079527 0.013579
v 0.055825 -0.166053 0.080630
v -0.010567 -0.166053 0.013579
v -0.019847 -0.166053 0.013497
v -0.032661 -0.166053 0.000559
v -0.086898 -0.166053 0.079893
v -0.099711 -0.166053 0.066950
v -0.268329 -0.094374 0.259542
v -0.281143 -0.094374 0.246604
v -0.019847 -0.166053 0.013497
v -0.086898 -0.166053 0.079893
v -0.019847 -0.079527 0.013497
v -0.268329 -0.094374 0.259542
v -0.268329 -0.079526 0.259542
v -0.281143 -0.079526 0.246604
v -0.281143 -0.094374 0.246604
v -0.032661 -0.079527 0.000559
v -0.099711 -0.166053 0.066950
v -0.032661 -0.166053 0.000559
v -0.032579 -0.166053 -0.008721
v -0.019640 -0.166053 -0.021532
v -0.098974 -0.166053 -0.075772
v -0.086032 -0.166053 -0.088583
v -0.278624 -0.094374 -0.257203
v -0.265686 -0.094374 -0.270014
v -0.032579 -0.166053 -0.008721
v -0.098974 -0.166053 -0.075772
v -0.032579 -0.079527 -0.008721
v -0.278624 -0.094374 -0.257203
v -0.278624 -0.079527 -0.257203
v -0.010361 -0.166053 -0.021453
v 0.002453 -0.166053 -0.008515
v 0.056690 -0.166053 -0.087845
v 0.069501 -0.166053 -0.074906
v 0.238122 -0.094375 -0.267499
v 0.250932 -0.094375 -0.254560
v -0.010361 -0.166053 -0.021453
v 0.056690 -0.166053 -0.087845
v -0.010361 -0.079527 -0.021453
v 0.238122 -0.094375 -0.267499
v 0.244527 -0.079527 -0.261029
v 0.244527 -0.079527 -0.261029
v 0.250932 -0.094375 -0.254560
v 0.002453 -0.079527 -0.008515
v 0.069501 -0.166053 -0.074906
v 0.002453 -0.166053 -0.008515
v 0.248417 0.089507 0.249247
v 0.248417 0.104355 0.249247
v 0.002372 0.089507 0.000765
v 0.068763 0.176034 0.067816
v 0.002372 0.176034 0.000765
v -0.268329 0.089507 0.259542
v -0.268329 0.104355 0.259542
v -0.019847 0.089507 0.013497
v -0.086898 0.176034 0.079893
v -0.019847 0.176034 0.013497
v -0.278624 0.089507 -0.257203
v -0.278624 0.104355 -0.257203
v -0.032579 0.089507 -0.008721
v -0.098974 0.176034 -0.075772
v -0.032579 0.176034 -0.008721
v 0.238122 0.089507 -0.267499
v 0.238122 0.104355 -0.267499
v -0.010360 0.089507 -0.021453
v 0.056690 0.176034 -0.087845
v -0.010360 0.176034 -0.021453
v 0.007266 0.153167 0.039901
v 0.005927 0.222953 0.037283
v 0.025064 0.153167 0.024473
v 0.022670 0.222953 0.022766
v 0.033653 0.153167 0.002536
v 0.030749 0.222953 0.002133
v 0.031063 0.153167 -0.020876
v 0.028313 0.222953 -0.019893
v 0.017889 0.153167 -0.040405
v 0.015919 0.222953 -0.038264
v -0.002847 0.153167 -0.051573
v -0.003588 0.222953 -0.048773
v -0.026402 0.153167 -0.051826
v -0.025746 0.222953 -0.049008
v -0.047377 0.153167 -0.041103
v -0.045478 0.222953 -0.038923
v -0.060967 0.153167 -0.021863
v -0.058260 0.222954 -0.020823
v -0.064056 0.153167 0.001492
v -0.061167 0.222954 0.001146
v -0.055937 0.153167 0.023603
v -0.053529 0.222954 0.021950
v -0.038475 0.153167 0.039413
v -0.037103 0.222954 0.036820
v -0.015665 0.153167 0.045295
v -0.015647 0.222953 0.042352
v 0.007266 0.153167 0.039901
v 0.005927 0.222953 0.037283
v 0.007266 -0.143186 0.039901
v 0.025064 -0.143186 0.024473
v 0.005927 -0.212973 0.037283
v 0.022670 -0.212973 0.022766
v 0.033653 -0.143186 0.002536
v 0.030749 -0.212973 0.002133
v 0.031063 -0.143186 -0.020876
v 0.028313 -0.212973 -0.019893
v 0.017889 -0.143186 -0.040405
v 0.015919 -0.212973 -0.038264
v -0.002848 -0.143186 -0.051573
v -0.003588 -0.212973 -0.048773
v -0.026402 -0.143186 -0.051826
v -0.025746 -0.212973 -0.049008
v -0.047377 -0.143186 -0.041103
v -0.045478 -0.212973 -0.038923
v -0.060967 -0.143186 -0.021863
v -0.058260 -0.212973 -0.020823
v -0.064056 -0.143186 0.001492
v -0.061167 -0.212973 0.001146
v -0.055937 -0.143186 0.023603
v -0.053529 -0.212973 0.021950
v -0.038475 -0.143186 0.039413
v -0.037103 -0.212973 0.036820
v -0.015665 -0.143186 0.045295
v -0.015647 -0.212973 0.042352
v 0.007266 -0.143186 0.039901
v 0.005927 -0.212973 0.037283
v -0.010567 0.089507 0.013579
v -0.010567 0.176034 0.013579
v 0.055825 0.176034 0.080630
v 0.235478 0.104355 0.262061
v 0.235478 0.089507 0.262061
v 0.002372 0.176034 0.000765
v 0.068763 0.176034 0.067816
v -0.010567 0.176034 0.013579
v 0.055825 0.176034 0.080630
v 0.248417 0.104355 0.249247
v 0.235478 0.104355 0.262061
v -0.032661 0.089507 0.000559
v -0.032661 0.176034 0.000559
v -0.099711 0.176034 0.066950
v -0.281143 0.104355 0.246604
v -0.281143 0.089507 0.246604
v -0.019847 0.176034 0.013497
v -0.086898 0.176034 0.079893
v -0.032661 0.176034 0.000559
v -0.099711 0.176034 0.066950
v -0.268329 0.104355 0.259542
v -0.281143 0.104355 0.246604
v -0.032579 0.176034 -0.008721
v -0.098974 0.176034 -0.075772
v -0.019640 0.176034 -0.021532
v -0.086032 0.176034 -0.088583
v -0.278624 0.104355 -0.257203
v -0.265686 0.104355 -0.270014
v 0.002453 0.089507 -0.008515
v 0.002454 0.176034 -0.008515
v 0.069501 0.176034 -0.074906
v 0.250932 0.104355 -0.254560
v 0.250932 0.089507 -0.254560
v -0.010360 0.176034 -0.021453
v 0.056690 0.176034 -0.087845
v 0.002454 0.176034 -0.008515
v 0.069501 0.176034 -0.074906
v 0.238122 0.104355 -0.267499
v 0.250932 0.104355 -0.254560
v -0.265686 -0.079527 -0.270014
v -0.265686 -0.085757 -0.270014
v -0.019640 -0.079527 -0.021532
v -0.086032 -0.155127 -0.088583
v -0.019640 -0.155334 -0.021532
v -0.265686 -0.085978 -0.270014
v -0.019640 -0.158052 -0.021532
v -0.265686 -0.094374 -0.270014
v -0.086032 -0.157838 -0.088583
v -0.086032 -0.166053 -0.088583
v -0.019640 -0.166053 -0.021532
v -0.452524 0.004990 -0.652340
v -0.447031 -0.096740 -0.644197
v -0.284648 0.004990 -0.738168
v -0.281264 -0.096740 -0.728946
v -0.101108 0.004990 -0.781327
v -0.425885 -0.197996 -0.612848
v -0.100029 -0.096740 -0.771562
v 0.087426 0.004990 -0.779307
v -0.268233 -0.197996 -0.693450
v -0.457302 -0.238041 -0.513939
v -0.169659 -0.238041 -0.661001
v -0.095875 -0.197996 -0.733979
v 0.086137 -0.096740 -0.769567
v 0.269997 0.004990 -0.732227
v 0.081178 -0.197997 -0.732084
v 0.153380 -0.238041 -0.657538
v 0.266417 -0.096740 -0.723078
v 0.435996 0.004990 -0.642822
v 0.252631 -0.197997 -0.687868
v 0.430329 -0.096740 -0.634796
v 0.575776 0.004990 -0.516287
v 0.408516 -0.197997 -0.603910
v 0.437810 -0.238041 -0.504349
v 0.568356 -0.096740 -0.509853
v 0.681215 0.004990 -0.359981
v 0.539786 -0.197997 -0.485084
v 0.672470 -0.096740 -0.355510
v 0.746178 0.004990 -0.182985
v 0.638802 -0.197997 -0.338297
v 0.618468 -0.238041 -0.236527
v 0.736617 -0.096740 -0.180733
v 0.766901 0.004990 0.004420
v 0.699811 -0.197997 -0.172081
v 0.757079 -0.096740 0.004313
v 0.742171 0.004990 0.191334
v 0.719268 -0.197997 0.003911
v 0.653970 -0.238041 0.084573
v 0.732659 -0.096740 0.188883
v 0.673428 0.004990 0.366901
v 0.696045 -0.197997 0.179439
v 0.664778 -0.096740 0.362241
v 0.564665 0.004990 0.520913
v 0.631488 -0.197997 0.344312
v 0.536184 -0.238041 0.385390
v 0.557384 -0.096740 0.514322
v 0.422207 0.004990 0.644423
v 0.529352 -0.197997 0.488948
v 0.416713 -0.096740 0.636280
v 0.254330 0.004990 0.730251
v 0.250946 -0.096740 0.721029
v 0.395567 -0.197997 0.604931
v 0.292091 -0.238041 0.597016
v 0.237915 -0.197996 0.685533
v 0.254330 0.004990 0.730251
v 0.250946 -0.096740 0.721029
v 0.070790 0.004990 0.773409
v 0.069711 -0.096740 0.763645
v -0.117744 0.004990 0.771390
v 0.237915 -0.197996 0.685533
v -0.116455 -0.096740 0.761650
v -0.300315 0.004991 0.724310
v 0.065557 -0.197996 0.726062
v 0.292091 -0.238041 0.597016
v -0.022391 -0.238041 0.670963
v -0.111496 -0.197996 0.724167
v -0.296732 -0.096740 0.715161
v -0.466314 0.004991 0.634905
v -0.282945 -0.197996 0.679951
v -0.335212 -0.238041 0.590293
v -0.460647 -0.096740 0.626879
v -0.606094 0.004991 0.508370
v -0.438834 -0.197996 0.595993
v -0.598674 -0.096740 0.501936
v -0.711529 0.004991 0.352064
v -0.570104 -0.197996 0.477167
v -0.574717 -0.238041 0.373492
v -0.702784 -0.096740 0.347593
v -0.776496 0.004991 0.175065
v -0.669119 -0.197996 0.330380
v -0.766935 -0.096740 0.172816
v -0.797219 0.004991 -0.012337
v -0.730129 -0.197996 0.164160
v -0.686030 -0.238041 0.070217
v -0.787397 -0.096740 -0.012230
v -0.772489 0.004991 -0.199251
v -0.749586 -0.197996 -0.011828
v -0.762977 -0.096740 -0.196800
v -0.703746 0.004991 -0.374818
v -0.726363 -0.197996 -0.187356
v -0.643659 -0.238041 -0.250050
v -0.695096 -0.096740 -0.370162
v -0.594983 0.004991 -0.528830
v -0.661806 -0.197996 -0.352229
v -0.587702 -0.096740 -0.522239
v -0.452524 0.004990 -0.652340
v -0.447031 -0.096740 -0.644197
v -0.559670 -0.197996 -0.496865
v -0.457302 -0.238041 -0.513939
v -0.425885 -0.197996 -0.612848
v -0.265686 0.089507 -0.270014
v -0.019640 0.089507 -0.021532
v -0.265686 0.095738 -0.270014
v -0.086032 0.165108 -0.088583
v -0.265686 0.095959 -0.270014
v -0.019640 0.165315 -0.021532
v -0.265686 0.104355 -0.270014
v -0.019640 0.168032 -0.021532
v -0.086032 0.167819 -0.088583
v -0.086032 0.176034 -0.088583
v -0.019640 0.176034 -0.021532
v -0.452524 0.004990 -0.652340
v -0.284648 0.004990 -0.738168
v -0.447031 0.106721 -0.644197
v -0.281264 0.106721 -0.728946
v -0.101108 0.004990 -0.781327
v -0.425885 0.207977 -0.612848
v -0.100029 0.106721 -0.771562
v 0.087426 0.004990 -0.779307
v -0.268233 0.207977 -0.693450
v -0.457301 0.248022 -0.513939
v -0.169658 0.248022 -0.661001
v -0.095875 0.207977 -0.733979
v 0.086137 0.106721 -0.769567
v 0.269997 0.004990 -0.732227
v 0.081178 0.207977 -0.732084
v 0.153380 0.248022 -0.657538
v 0.266417 0.106721 -0.723078
v 0.435996 0.004990 -0.642822
v 0.252631 0.207977 -0.687868
v 0.430329 0.106720 -0.634796
v 0.575776 0.004990 -0.516287
v 0.408516 0.207977 -0.603910
v 0.437810 0.248022 -0.504349
v 0.568356 0.106720 -0.509853
v 0.681215 0.004990 -0.359981
v 0.539786 0.207977 -0.485084
v 0.672470 0.106720 -0.355510
v 0.746178 0.004990 -0.182985
v 0.638802 0.207977 -0.338297
v 0.618468 0.248022 -0.236527
v 0.736617 0.106720 -0.180733
v 0.766901 0.004990 0.004420
v 0.699811 0.207977 -0.172081
v 0.757079 0.106720 0.004313
v 0.742171 0.004990 0.191334
v 0.719268 0.207977 0.003911
v 0.653970 0.248022 0.084573
v 0.732659 0.106720 0.188883
v 0.673428 0.004990 0.366901
v 0.696045 0.207977 0.179439
v 0.664779 0.106720 0.362241
v 0.564665 0.004990 0.520913
v 0.631488 0.207977 0.344312
v 0.536184 0.248022 0.385390
v 0.557384 0.106721 0.514322
v 0.422207 0.004990 0.644423
v 0.529352 0.207977 0.488948
v 0.416713 0.106721 0.636280
v 0.254330 0.004990 0.730251
v 0.250946 0.106721 0.721029
v 0.395567 0.207977 0.604931
v 0.292091 0.248022 0.597016
v 0.237915 0.207977 0.685533
v 0.254330 0.004990 0.730251
v 0.070790 0.004990 0.773409
v 0.250946 0.106721 0.721029
v 0.069711 0.106721 0.763645
v -0.117744 0.004990 0.771390
v 0.237915 0.207977 0.685533
v -0.116455 0.106721 0.761650
v -0.300315 0.004991 0.724310
v 0.065557 0.207977 0.726062
v 0.292091 0.248022 0.597016
v -0.022390 0.248022 0.670963
v -0.111496 0.207977 0.724167
v -0.296731 0.106721 0.715161
v -0.466314 0.004991 0.634905
v -0.282945 0.207977 0.679951
v -0.335212 0.248022 0.590293
v -0.460647 0.106721 0.626879
v -0.606094 0.004991 0.508370
v -0.438834 0.207977 0.595993
v -0.598674 0.106721 0.501936
v -0.711529 0.004991 0.352064
v -0.570104 0.207977 0.477167
v -0.574717 0.248022 0.373492
v -0.702784 0.106721 0.347593
v -0.776496 0.004991 0.175065
v -0.669119 0.207977 0.330380
v -0.766935 0.106721 0.172816
v -0.797219 0.004991 -0.012337
v -0.730128 0.207977 0.164160
v -0.686030 0.248022 0.070217
v -0.787397 0.106721 -0.012230
v -0.772489 0.004991 -0.199251
v -0.749586 0.207977 -0.011828
v -0.762977 0.106721 -0.196800
v -0.703746 0.004991 -0.374818
v -0.726363 0.207977 -0.187356
v -0.643659 0.248022 -0.250050
v -0.695096 0.106721 -0.370162
v -0.594983 0.004991 -0.528830
v -0.661806 0.207977 -0.352229
v -0.587702 0.106721 -0.522239
v -0.452524 0.004990 -0.652340
v -0.447031 0.106721 -0.644197
v -0.559670 0.207977 -0.496865
v -0.457301 0.248022 -0.513939
v -0.425885 0.207977 -0.612848
v -0.061167 -0.212973 0.001146
v -0.058260 -0.212973 -0.020823
v -0.053529 -0.212973 0.021950
v -0.037103 -0.212973 0.036820
v 0.002372 -0.166053 0.000765
v -0.015647 -0.212973 0.042352
v -0.003588 -0.212973 -0.048773
v 0.005927 -0.212973 0.037283
v 0.015919 -0.212973 -0.038264
v 0.022670 -0.212973 0.022766
v 0.028313 -0.212973 -0.019893
v 0.030749 -0.212973 0.002133
v -0.061167 0.222954 0.001146
v -0.058260 0.222954 -0.020823
v -0.015159 0.223951 -0.003959
v -0.053529 0.222954 0.021950
v -0.045478 0.222953 -0.038923
v -0.037103 0.222954 0.036820
v -0.025746 0.222953 -0.049008
v -0.015647 0.222953 0.042352
v -0.003588 0.222953 -0.048773
v 0.005927 0.222953 0.037283
v 0.015919 0.222953 -0.038264
v 0.022670 0.222953 0.022766
v 0.028313 0.222953 -0.019893
v 0.030749 0.222953 0.002133
v -0.038475 -0.143186 0.039413
v -0.072328 -0.137240 0.102189
v -0.015665 -0.143186 0.045295
v -0.055937 -0.143186 0.023603
v -0.016452 -0.137240 0.116595
v 0.007266 -0.143186 0.039901
v -0.115108 -0.137240 0.063463
v -0.064056 -0.143186 0.001492
v 0.039723 -0.137240 0.103390
v 0.025064 -0.143186 0.024473
v -0.017360 -0.124370 0.198156
v 0.083323 -0.137240 0.065586
v 0.033653 -0.143186 0.002536
v 0.076846 -0.124370 0.176005
v 0.104362 -0.137241 0.011855
v 0.031063 -0.143186 -0.020876
v 0.149971 -0.124370 0.112609
v 0.098021 -0.137241 -0.045503
v 0.017889 -0.143186 -0.040405
v 0.185256 -0.124370 0.022492
v 0.065750 -0.137240 -0.093338
v -0.002848 -0.143186 -0.051573
v 0.174622 -0.124370 -0.073702
v 0.014947 -0.137240 -0.120704
v -0.026402 -0.143186 -0.051826
v 0.120499 -0.124370 -0.153934
v -0.042756 -0.137240 -0.121320
v -0.047377 -0.143186 -0.041103
v 0.035295 -0.124370 -0.199824
v -0.094137 -0.137240 -0.095052
v -0.060967 -0.143186 -0.021863
v -0.061477 -0.124370 -0.200861
v -0.127423 -0.137240 -0.047915
v -0.147647 -0.124370 -0.156805
v -0.074216 -0.101720 -0.255108
v -0.134990 -0.137240 0.009290
v -0.203476 -0.124370 -0.077753
v -0.216169 -0.124370 0.018192
v -0.182821 -0.124370 0.109043
v -0.184165 -0.101720 -0.198895
v -0.255397 -0.101720 -0.098026
v -0.271596 -0.101720 0.024394
v -0.111075 -0.124370 0.173992
v -0.229047 -0.101720 0.140317
v -0.137497 -0.101720 0.223188
v -0.017923 -0.101720 0.254024
v -0.257756 -0.101720 0.159686
v 0.102285 -0.101720 0.225757
v -0.153917 -0.101720 0.253678
v -0.018294 -0.101720 0.288654
v 0.195587 -0.101720 0.144866
v 0.118049 -0.101720 0.256592
v 0.240612 -0.101720 0.029881
v 0.223876 -0.101720 0.164844
v 0.227039 -0.101720 -0.092857
v 0.274942 -0.101720 0.034422
v 0.157986 -0.101720 -0.195229
v 0.259549 -0.101720 -0.104791
v 0.049263 -0.101720 -0.253783
v 0.181227 -0.101720 -0.220903
v 0.057912 -0.101720 -0.287319
v -0.082142 -0.101720 -0.288819
v 0.242136 -0.190455 -0.288192
v -0.206850 -0.101720 -0.225060
v 0.080576 -0.190455 -0.375207
v -0.102918 -0.190455 -0.377169
v -0.287644 -0.101720 -0.110651
v -0.266306 -0.190455 -0.293639
v -0.306015 -0.101720 0.028199
v -0.372158 -0.190455 -0.143745
v -0.396228 -0.190455 0.038173
v -0.332996 -0.190455 0.210439
v -0.507844 -0.267473 -0.196871
v -0.196957 -0.190455 0.333590
v -0.541063 -0.267473 0.054186
v -0.453800 -0.267473 0.291928
v -0.019266 -0.190455 0.379409
v -0.266053 -0.267473 0.461881
v 0.159365 -0.190455 0.337405
v -0.020827 -0.267473 0.525120
v 0.298015 -0.190455 0.217200
v 0.225696 -0.267473 0.467149
v 0.364920 -0.190455 0.046328
v 0.417045 -0.267473 0.301254
v 0.344754 -0.190455 -0.136062
v 0.509377 -0.267473 0.065440
v 0.481548 -0.267473 -0.186273
v 0.339927 -0.267473 -0.396221
v 0.586866 -0.263234 0.075692
v 0.116962 -0.267473 -0.516305
v 0.554926 -0.263234 -0.213204
v 0.392382 -0.263234 -0.454170
v -0.136272 -0.267473 -0.519019
v 0.136480 -0.263234 -0.591994
v 0.618468 -0.238041 -0.236527
v 0.653970 -0.238041 0.084573
v 0.437810 -0.238041 -0.504349
v 0.536184 -0.238041 0.385390
v 0.153380 -0.238041 -0.657538
v 0.480893 -0.263234 0.346346
v 0.292091 -0.238041 0.597016
v 0.261277 -0.263234 0.536747
v -0.022391 -0.238041 0.670963
v -0.021664 -0.263234 0.603278
v -0.335212 -0.238041 0.590293
v -0.303115 -0.263234 0.530699
v -0.574717 -0.238041 0.373492
v -0.518603 -0.263234 0.335638
v -0.686030 -0.238041 0.070217
v -0.618755 -0.263234 0.062779
v -0.643659 -0.238041 -0.250050
v -0.580630 -0.263234 -0.225370
v -0.457302 -0.238041 -0.513939
v -0.412964 -0.263234 -0.462798
v -0.169659 -0.238041 -0.661001
v -0.361759 -0.267473 -0.403738
v -0.154166 -0.263234 -0.595108
v -0.038475 0.153167 0.039413
v -0.015665 0.153167 0.045295
v -0.072328 0.147221 0.102189
v -0.055937 0.153167 0.023603
v -0.016452 0.147221 0.116595
v 0.007266 0.153167 0.039901
v -0.115108 0.147221 0.063463
v -0.064056 0.153167 0.001492
v 0.039723 0.147221 0.103390
v 0.025064 0.153167 0.024473
v -0.017360 0.134351 0.198156
v 0.083323 0.147221 0.065586
v 0.033653 0.153167 0.002536
v 0.076846 0.134350 0.176005
v 0.104362 0.147221 0.011855
v 0.031063 0.153167 -0.020876
v 0.149971 0.134350 0.112609
v 0.098021 0.147221 -0.045503
v 0.017889 0.153167 -0.040405
v 0.185256 0.134350 0.022492
v 0.065750 0.147221 -0.093338
v -0.002847 0.153167 -0.051573
v 0.174622 0.134350 -0.073702
v 0.014947 0.147221 -0.120704
v -0.026402 0.153167 -0.051826
v 0.120499 0.134350 -0.153934
v -0.042756 0.147221 -0.121320
v -0.047377 0.153167 -0.041103
v 0.035295 0.134350 -0.199824
v -0.094137 0.147221 -0.095052
v -0.060967 0.153167 -0.021863
v -0.061477 0.134351 -0.200861
v -0.127423 0.147221 -0.047915
v -0.147647 0.134351 -0.156805
v -0.074216 0.111701 -0.255108
v -0.134990 0.147221 0.009290
v -0.203476 0.134351 -0.077753
v -0.216169 0.134351 0.018192
v -0.182821 0.134351 0.109043
v -0.184164 0.111701 -0.198895
v -0.255397 0.111701 -0.098026
v -0.271596 0.111701 0.024394
v -0.111075 0.134351 0.173992
v -0.229047 0.111701 0.140317
v -0.137497 0.111701 0.223188
v -0.017923 0.111701 0.254024
v -0.257756 0.111701 0.159686
v 0.102285 0.111701 0.225757
v -0.153917 0.111701 0.253678
v -0.018294 0.111701 0.288654
v 0.195587 0.111701 0.144866
v 0.118049 0.111701 0.256592
v 0.240612 0.111701 0.029881
v 0.223876 0.111701 0.164844
v 0.227039 0.111701 -0.092857
v 0.274942 0.111701 0.034422
v 0.157986 0.111701 -0.195229
v 0.259549 0.111701 -0.104791
v 0.049263 0.111701 -0.253783
v 0.181227 0.111701 -0.220903
v 0.057912 0.111701 -0.287319
v -0.082142 0.111701 -0.288819
v 0.242136 0.200436 -0.288192
v -0.206849 0.111701 -0.225060
v 0.080576 0.200436 -0.375207
v -0.102918 0.200436 -0.377169
v -0.287644 0.111701 -0.110651
v -0.266305 0.200436 -0.293639
v -0.306015 0.111701 0.028199
v -0.372157 0.200436 -0.143745
v -0.396228 0.200436 0.038173
v -0.332996 0.200436 0.210439
v -0.507844 0.277454 -0.196871
v -0.196957 0.200436 0.333590
v -0.541063 0.277454 0.054186
v -0.453800 0.277454 0.291927
v -0.019266 0.200436 0.379409
v -0.266052 0.277454 0.461881
v 0.159365 0.200436 0.337405
v -0.020827 0.277454 0.525120
v 0.298016 0.200436 0.217200
v 0.225696 0.277454 0.467149
v 0.364920 0.200436 0.046328
v 0.417045 0.277454 0.301254
v 0.344754 0.200436 -0.136062
v 0.509378 0.277454 0.065440
v 0.481548 0.277454 -0.186273
v 0.339927 0.277454 -0.396221
v 0.586866 0.273215 0.075692
v 0.116962 0.277454 -0.516305
v 0.554926 0.273215 -0.213204
v 0.392383 0.273215 -0.454170
v -0.136272 0.277454 -0.519019
v 0.136480 0.273215 -0.591994
v 0.618468 0.248022 -0.236527
v 0.653970 0.248022 0.084573
v 0.437810 0.248022 -0.504349
v 0.536184 0.248022 0.385390
v 0.153380 0.248022 -0.657538
v 0.480893 0.273215 0.346346
v 0.292091 0.248022 0.597016
v 0.261277 0.273215 0.536747
v -0.022390 0.248022 0.670963
v -0.021664 0.273215 0.603278
v -0.335212 0.248022 0.590293
v -0.303115 0.273215 0.530699
v -0.574717 0.248022 0.373492
v -0.518603 0.273215 0.335638
v -0.686030 0.248022 0.070217
v -0.618755 0.273215 0.062779
v -0.643659 0.248022 -0.250050
v -0.580630 0.273215 -0.225370
v -0.457301 0.248022 -0.513939
v -0.412964 0.273215 -0.462798
v -0.169658 0.248022 -0.661001
v -0.361759 0.277454 -0.403738
v -0.154166 0.273215 -0.595108
vt 0.108400 0.029800
vt 0.108400 0.026900
vt 0.102500 0.028300
vt 0.499300 0.599600
vt 0.496800 0.599400
vt 0.496600 0.612100
vt 0.500000 0.565400
vt 0.497800 0.565400
vt 0.446000 0.061500
vt 0.457300 0.061500
vt 0.446000 0.049300
vt 0.455300 0.016100
vt 0.457300 0.016100
vt 0.424300 0.033200
vt 0.424600 0.078600
vt 0.426300 0.033200
vt 0.435800 0.066400
vt 0.435800 0.078600
vt 0.450400 0.075700
vt 0.450400 0.088400
vt 0.452900 0.075700
vt 0.452600 0.088400
vt 0.450000 0.122100
vt 0.452400 0.122600
vt 0.522000 0.058600
vt 0.510700 0.058600
vt 0.522000 0.070800
vt 0.512700 0.104000
vt 0.510700 0.104000
vt 0.423800 0.073700
vt 0.423800 0.028300
vt 0.421900 0.073700
vt 0.412600 0.040500
vt 0.412600 0.028300
vt 0.446500 0.068400
vt 0.446500 0.081100
vt 0.449000 0.068400
vt 0.448700 0.081100
vt 0.446000 0.114700
vt 0.448200 0.115200
vt 0.534200 0.022500
vt 0.522900 0.022500
vt 0.534200 0.034700
vt 0.524400 0.067900
vt 0.522500 0.067900
vt 0.456300 0.125000
vt 0.456500 0.112300
vt 0.453900 0.125000
vt 0.454100 0.112300
vt 0.456800 0.078100
vt 0.454600 0.078100
vt 0.063000 0.064900
vt 0.074300 0.064900
vt 0.063000 0.052200
vt 0.072400 0.019500
vt 0.074300 0.019500
vt 0.049300 0.032200
vt 0.049400 0.077600
vt 0.051200 0.032200
vt 0.060600 0.065400
vt 0.060600 0.077600
vt 0.457300 0.016100
vt 0.457300 0.061500
vt 0.455300 0.016100
vt 0.446000 0.049300
vt 0.446000 0.061500
vt 0.510700 0.104000
vt 0.510700 0.058600
vt 0.512700 0.104000
vt 0.522000 0.070800
vt 0.522000 0.058600
vt 0.522500 0.067900
vt 0.522900 0.022500
vt 0.524400 0.067900
vt 0.534200 0.034700
vt 0.534200 0.022500
vt 0.074300 0.019500
vt 0.074300 0.064900
vt 0.072400 0.019500
vt 0.063000 0.052200
vt 0.063000 0.064900
vt 0.402800 0.056200
vt 0.402600 0.053200
vt 0.411900 0.056200
vt 0.411900 0.053200
vt 0.402600 0.050300
vt 0.411900 0.050300
vt 0.402600 0.047400
vt 0.411900 0.047400
vt 0.402600 0.044400
vt 0.411900 0.044400
vt 0.402600 0.041500
vt 0.411900 0.041500
vt 0.402600 0.038600
vt 0.411900 0.038600
vt 0.402600 0.035600
vt 0.411900 0.035600
vt 0.402600 0.033200
vt 0.411900 0.033200
vt 0.402600 0.030300
vt 0.411900 0.030300
vt 0.402600 0.027300
vt 0.411900 0.027300
vt 0.402600 0.024400
vt 0.411900 0.024400
vt 0.402600 0.021500
vt 0.411900 0.021500
vt 0.402800 0.018600
vt 0.411900 0.018600
vt 0.402800 0.056200
vt 0.411900 0.056200
vt 0.402600 0.053200
vt 0.411900 0.053200
vt 0.402600 0.050300
vt 0.411900 0.050300
vt 0.402600 0.047400
vt 0.411900 0.047400
vt 0.402600 0.044400
vt 0.411900 0.044400
vt 0.402600 0.041500
vt 0.411900 0.041500
vt 0.402600 0.038600
vt 0.411900 0.038600
vt 0.402600 0.035600
vt 0.411900 0.035600
vt 0.402600 0.033200
vt 0.411900 0.033200
vt 0.402600 0.030300
vt 0.411900 0.030300
vt 0.402600 0.027300
vt 0.411900 0.027300
vt 0.402600 0.024400
vt 0.411900 0.024400
vt 0.402600 0.021500
vt 0.411900 0.021500
vt 0.402800 0.018600
vt 0.411900 0.018600
vt 0.424600 0.078600
vt 0.435800 0.066400
vt 0.435800 0.078600
vt 0.426300 0.033200
vt 0.424300 0.033200
vt 0.499000 0.612100
vt 0.496600 0.612100
vt 0.499300 0.599600
vt 0.496800 0.599400
vt 0.500000 0.565400
vt 0.497800 0.565400
vt 0.423800 0.028300
vt 0.412600 0.040500
vt 0.412600 0.028300
vt 0.421900 0.073700
vt 0.423800 0.073700
vt 0.450400 0.075700
vt 0.452900 0.075700
vt 0.450400 0.088400
vt 0.452600 0.088400
vt 0.450000 0.122100
vt 0.452400 0.122600
vt 0.446500 0.068400
vt 0.449000 0.068400
vt 0.446500 0.081100
vt 0.448700 0.081100
vt 0.446000 0.114700
vt 0.448200 0.115200
vt 0.049400 0.077600
vt 0.060600 0.065400
vt 0.060600 0.077600
vt 0.051200 0.032200
vt 0.049300 0.032200
vt 0.456300 0.125000
vt 0.453900 0.125000
vt 0.456500 0.112300
vt 0.454100 0.112300
vt 0.456800 0.078100
vt 0.454600 0.078100
vt 0.494400 0.586900
vt 0.495100 0.541500
vt 0.493400 0.586900
vt 0.485100 0.553700
vt 0.485400 0.541300
vt 0.493400 0.586900
vt 0.484900 0.541300
vt 0.492400 0.586900
vt 0.484600 0.553500
vt 0.483600 0.553500
vt 0.483900 0.541300
vt 0.436300 0.629400
vt 0.405300 0.629400
vt 0.436300 0.646500
vt 0.405300 0.646200
vt 0.374500 0.629600
vt 0.435800 0.664800
vt 0.374500 0.646200
vt 0.343800 0.629600
vt 0.405000 0.664300
vt 0.449200 0.680400
vt 0.389600 0.676500
vt 0.374500 0.664600
vt 0.343800 0.646200
vt 0.313200 0.629600
vt 0.343800 0.664600
vt 0.328400 0.676500
vt 0.313200 0.646200
vt 0.282500 0.629600
vt 0.313200 0.664600
vt 0.282500 0.646200
vt 0.251700 0.629600
vt 0.282500 0.664600
vt 0.267100 0.676800
vt 0.251700 0.646200
vt 0.221200 0.629600
vt 0.251700 0.664600
vt 0.221200 0.646200
vt 0.190600 0.629600
vt 0.221200 0.664600
vt 0.205700 0.676500
vt 0.190600 0.646200
vt 0.159900 0.629600
vt 0.190600 0.664600
vt 0.159900 0.646200
vt 0.129500 0.629400
vt 0.159900 0.664300
vt 0.144500 0.676300
vt 0.129400 0.646000
vt 0.099100 0.629200
vt 0.129400 0.664300
vt 0.098900 0.646000
vt 0.068100 0.628900
vt 0.098900 0.664100
vt 0.083700 0.676000
vt 0.068200 0.646000
vt 0.036500 0.629400
vt 0.068500 0.664100
vt 0.037200 0.646700
vt 0.004100 0.631300
vt 0.005400 0.648900
vt 0.038200 0.665000
vt 0.024400 0.678200
vt 0.007600 0.667700
vt 0.389600 0.683800
vt 0.356700 0.681900
vt 0.388400 0.701900
vt 0.356000 0.699500
vt 0.324200 0.681200
vt 0.386000 0.720900
vt 0.324000 0.698500
vt 0.292700 0.681400
vt 0.354700 0.718000
vt 0.397900 0.737800
vt 0.338600 0.729700
vt 0.323700 0.717000
vt 0.292700 0.698500
vt 0.261700 0.681600
vt 0.292700 0.717000
vt 0.277100 0.729200
vt 0.261700 0.698500
vt 0.230600 0.681400
vt 0.261700 0.717000
vt 0.230600 0.698500
vt 0.199500 0.681400
vt 0.230500 0.717000
vt 0.214800 0.729200
vt 0.199300 0.698500
vt 0.168200 0.681200
vt 0.199300 0.717000
vt 0.168200 0.698200
vt 0.137000 0.681200
vt 0.168100 0.716800
vt 0.152500 0.729000
vt 0.137000 0.698200
vt 0.105800 0.681200
vt 0.136800 0.716800
vt 0.105800 0.698000
vt 0.074600 0.680900
vt 0.105700 0.716600
vt 0.090000 0.728800
vt 0.074600 0.698000
vt 0.043300 0.680700
vt 0.074500 0.716600
vt 0.043300 0.697800
vt 0.011700 0.680700
vt 0.011700 0.698000
vt 0.043300 0.716300
vt 0.028400 0.728500
vt 0.012200 0.716600
vt 0.494400 0.586900
vt 0.493400 0.586900
vt 0.495100 0.541500
vt 0.485100 0.553700
vt 0.493400 0.586900
vt 0.485400 0.541300
vt 0.492400 0.586900
vt 0.484900 0.541300
vt 0.484600 0.553500
vt 0.483600 0.553500
vt 0.483900 0.541300
vt 0.436300 0.629400
vt 0.436300 0.646500
vt 0.405300 0.629400
vt 0.405300 0.646200
vt 0.374500 0.629600
vt 0.435800 0.664800
vt 0.374500 0.646200
vt 0.343800 0.629600
vt 0.405000 0.664300
vt 0.449200 0.680400
vt 0.389600 0.676500
vt 0.374500 0.664600
vt 0.343800 0.646200
vt 0.313200 0.629600
vt 0.343800 0.664600
vt 0.328400 0.676500
vt 0.313200 0.646200
vt 0.282500 0.629600
vt 0.313200 0.664600
vt 0.282500 0.646200
vt 0.251700 0.629600
vt 0.282500 0.664600
vt 0.267100 0.676800
vt 0.251700 0.646200
vt 0.221200 0.629600
vt 0.251700 0.664600
vt 0.221200 0.646200
vt 0.190600 0.629600
vt 0.221200 0.664600
vt 0.205700 0.676500
vt 0.190600 0.646200
vt 0.159900 0.629600
vt 0.190600 0.664600
vt 0.159900 0.646200
vt 0.129500 0.629400
vt 0.159900 0.664300
vt 0.144500 0.676300
vt 0.129400 0.646000
vt 0.099100 0.629200
vt 0.129400 0.664300
vt 0.098900 0.646000
vt 0.068100 0.628900
vt 0.098900 0.664100
vt 0.083700 0.676000
vt 0.068200 0.646000
vt 0.036500 0.629400
vt 0.068500 0.664100
vt 0.037200 0.646700
vt 0.004100 0.631300
vt 0.005400 0.648900
vt 0.038200 0.665000
vt 0.024400 0.678200
vt 0.007600 0.667700
vt 0.389600 0.683800
vt 0.388400 0.701900
vt 0.356700 0.681900
vt 0.356000 0.699500
vt 0.324200 0.681200
vt 0.386000 0.720900
vt 0.324000 0.698500
vt 0.292700 0.681400
vt 0.354700 0.718000
vt 0.397900 0.737800
vt 0.338600 0.729700
vt 0.323700 0.717000
vt 0.292700 0.698500
vt 0.261700 0.681600
vt 0.292700 0.717000
vt 0.277100 0.729200
vt 0.261700 0.698500
vt 0.230600 0.681400
vt 0.261700 0.717000
vt 0.230600 0.698500
vt 0.199500 0.681400
vt 0.230500 0.717000
vt 0.214800 0.729200
vt 0.199300 0.698500
vt 0.168200 0.681200
vt 0.199300 0.717000
vt 0.168200 0.698200
vt 0.137000 0.681200
vt 0.168100 0.716800
vt 0.152500 0.729000
vt 0.137000 0.698200
vt 0.105800 0.681200
vt 0.136800 0.716800
vt 0.105800 0.698000
vt 0.074600 0.680900
vt 0.105700 0.716600
vt 0.090000 0.728800
vt 0.074600 0.698000
vt 0.043300 0.680700
vt 0.074500 0.716600
vt 0.043300 0.697800
vt 0.011700 0.680700
vt 0.011700 0.698000
vt 0.043300 0.716300
vt 0.028400 0.728500
vt 0.012200 0.716600
vt 0.104700 0.034200
vt 0.107100 0.032200
vt 0.101800 0.034200
vt 0.099100 0.033200
vt 0.499000 0.612100
vt 0.097200 0.031300
vt 0.107100 0.024400
vt 0.096500 0.028300
vt 0.104700 0.022900
vt 0.097200 0.025400
vt 0.101800 0.022500
vt 0.099100 0.023400
vt 0.104700 0.034200
vt 0.102500 0.028300
vt 0.107100 0.032200
vt 0.101800 0.034200
vt 0.108400 0.029800
vt 0.099100 0.033200
vt 0.108400 0.026900
vt 0.097200 0.031300
vt 0.107100 0.024400
vt 0.096500 0.028300
vt 0.104700 0.022900
vt 0.097200 0.025400
vt 0.101800 0.022500
vt 0.099100 0.023400
vt 0.873000 0.879100
vt 0.870600 0.876300
vt 0.866700 0.887800
vt 0.876000 0.880400
vt 0.860800 0.881200
vt 0.869600 0.872800
vt 0.874500 0.890800
vt 0.879400 0.879900
vt 0.858900 0.872800
vt 0.870600 0.869300
vt 0.850100 0.887000
vt 0.860800 0.864400
vt 0.873000 0.866500
vt 0.846700 0.872800
vt 0.866700 0.857800
vt 0.876000 0.865200
vt 0.850100 0.858600
vt 0.874500 0.854700
vt 0.879400 0.865600
vt 0.859400 0.847700
vt 0.883300 0.855800
vt 0.881800 0.867700
vt 0.873000 0.842500
vt 0.890100 0.860700
vt 0.883800 0.871000
vt 0.887700 0.844200
vt 0.894000 0.868400
vt 0.883800 0.874600
vt 0.899400 0.852500
vt 0.894000 0.877100
vt 0.882300 0.877900
vt 0.906300 0.865500
vt 0.890100 0.884800
vt 0.906300 0.880000
vt 0.915000 0.863300
vt 0.883300 0.889800
vt 0.899400 0.892900
vt 0.887700 0.901300
vt 0.873000 0.903100
vt 0.915000 0.882200
vt 0.906300 0.899000
vt 0.890600 0.909800
vt 0.859900 0.897900
vt 0.872100 0.912100
vt 0.854500 0.905400
vt 0.841800 0.891200
vt 0.871600 0.917400
vt 0.837400 0.872800
vt 0.851600 0.909700
vt 0.837400 0.893700
vt 0.841800 0.854400
vt 0.832000 0.872800
vt 0.854500 0.840200
vt 0.837400 0.851900
vt 0.872100 0.833500
vt 0.851600 0.835800
vt 0.890600 0.835700
vt 0.871600 0.828200
vt 0.906300 0.846400
vt 0.892600 0.830800
vt 0.910200 0.843000
vt 0.920400 0.862100
vt 0.899900 0.811800
vt 0.920400 0.883500
vt 0.925300 0.829500
vt 0.939900 0.857200
vt 0.910200 0.902500
vt 0.939900 0.888400
vt 0.892600 0.914700
vt 0.925800 0.916100
vt 0.899900 0.933800
vt 0.869100 0.937600
vt 0.947300 0.935100
vt 0.839800 0.926500
vt 0.910200 0.960600
vt 0.865700 0.966000
vt 0.819300 0.903100
vt 0.823700 0.950100
vt 0.811500 0.872800
vt 0.793900 0.916400
vt 0.819300 0.842500
vt 0.783200 0.872800
vt 0.839800 0.819100
vt 0.793900 0.829200
vt 0.869100 0.808000
vt 0.823700 0.795500
vt 0.865200 0.779500
vt 0.910200 0.784900
vt 0.815400 0.784100
vt 0.946800 0.810400
vt 0.863800 0.765700
vt 0.915000 0.772000
vt 0.967800 0.850200
vt 0.957500 0.801300
vt 0.862300 0.753100
vt 0.808100 0.773600
vt 0.919400 0.759900
vt 0.770000 0.816800
vt 0.966800 0.792700
vt 0.781700 0.822800
vt 0.756300 0.872800
vt 0.769000 0.872800
vt 0.770000 0.928800
vt 0.781700 0.922900
vt 0.808600 0.972000
vt 0.815900 0.961500
vt 0.862300 0.992500
vt 0.863800 0.979800
vt 0.919400 0.985600
vt 0.915000 0.973600
vt 0.967300 0.952800
vt 0.957500 0.944200
vt 0.993700 0.901600
vt 0.981400 0.898600
vt 0.993700 0.843900
vt 0.967800 0.895200
vt 0.981400 0.846900
vt 0.873000 0.879100
vt 0.866700 0.887800
vt 0.870600 0.876300
vt 0.876000 0.880400
vt 0.860800 0.881200
vt 0.869600 0.872800
vt 0.874500 0.890800
vt 0.879400 0.879900
vt 0.858900 0.872800
vt 0.870600 0.869300
vt 0.850100 0.887000
vt 0.860800 0.864400
vt 0.873000 0.866500
vt 0.846700 0.872800
vt 0.866700 0.857800
vt 0.876000 0.865200
vt 0.850100 0.858600
vt 0.874500 0.854700
vt 0.879400 0.865600
vt 0.859400 0.847700
vt 0.883300 0.855800
vt 0.881800 0.867700
vt 0.873000 0.842500
vt 0.890100 0.860700
vt 0.883800 0.871000
vt 0.887700 0.844200
vt 0.894000 0.868400
vt 0.883800 0.874600
vt 0.899400 0.852500
vt 0.894000 0.877100
vt 0.882300 0.877900
vt 0.906300 0.865500
vt 0.890100 0.884800
vt 0.906300 0.880000
vt 0.915000 0.863300
vt 0.883300 0.889800
vt 0.899400 0.892900
vt 0.887700 0.901300
vt 0.873000 0.903100
vt 0.915000 0.882200
vt 0.906300 0.899000
vt 0.890600 0.909800
vt 0.859900 0.897900
vt 0.872100 0.912100
vt 0.854500 0.905400
vt 0.841800 0.891200
vt 0.871600 0.917400
vt 0.837400 0.872800
vt 0.851600 0.909700
vt 0.837400 0.893700
vt 0.841800 0.854400
vt 0.832000 0.872800
vt 0.854500 0.840200
vt 0.837400 0.851900
vt 0.872100 0.833500
vt 0.851600 0.835800
vt 0.890600 0.835700
vt 0.871600 0.828200
vt 0.906300 0.846400
vt 0.892600 0.830800
vt 0.910200 0.843000
vt 0.920400 0.862100
vt 0.899900 0.811800
vt 0.920400 0.883500
vt 0.925300 0.829500
vt 0.939900 0.857200
vt 0.910200 0.902500
vt 0.939900 0.888400
vt 0.892600 0.914700
vt 0.925800 0.916100
vt 0.899900 0.933800
vt 0.869100 0.937600
vt 0.947300 0.935100
vt 0.839800 0.926500
vt 0.910200 0.960600
vt 0.865700 0.966000
vt 0.819300 0.903100
vt 0.823700 0.950100
vt 0.811500 0.872800
vt 0.793900 0.916400
vt 0.819300 0.842500
vt 0.783200 0.872800
vt 0.839800 0.819100
vt 0.793900 0.829200
vt 0.869100 0.808000
vt 0.823700 0.795500
vt 0.865200 0.779500
vt 0.910200 0.784900
vt 0.815400 0.784100
vt 0.946800 0.810400
vt 0.863800 0.765700
vt 0.915000 0.772000
vt 0.967800 0.850200
vt 0.957500 0.801300
vt 0.862300 0.753100
vt 0.808100 0.773600
vt 0.919400 0.759900
vt 0.770000 0.816800
vt 0.966800 0.792700
vt 0.781700 0.822800
vt 0.756300 0.872800
vt 0.769000 0.872800
vt 0.770000 0.928800
vt 0.781700 0.922900
vt 0.808600 0.972000
vt 0.815900 0.961500
vt 0.862300 0.992500
vt 0.863800 0.979800
vt 0.919400 0.985600
vt 0.915000 0.973600
vt 0.967300 0.952800
vt 0.957500 0.944200
vt 0.993700 0.901600
vt 0.981400 0.898600
vt 0.993700 0.843900
vt 0.967800 0.895200
vt 0.981400 0.846900
vn -0.0136 -0.9997 -0.0181
vn -0.0035 -0.9997 -0.0250
vn -0.0000 -1.0000 -0.0000
vn 0.0504 -0.9975 0.0495
vn 0.0505 -0.9975 0.0496
vn 0.1894 -0.9624 0.1947
vn 0.1910 -0.9631 0.1894
vn 0.7106 0.0007 -0.7036
vn 0.7106 -0.0007 -0.7036
vn 0.7101 -0.0002 -0.7041
vn 0.7107 -0.0006 -0.7035
vn 0.7106 0.0008 -0.7036
vn -0.7106 -0.0007 0.7036
vn -0.7106 0.0005 0.7036
vn -0.7107 0.0006 0.7035
vn -0.7101 0.0002 0.7041
vn -0.7106 -0.0008 0.7036
vn -0.0496 -0.9975 0.0504
vn -0.0495 -0.9975 0.0504
vn -0.1946 -0.9624 0.1894
vn -0.1895 -0.9631 0.1910
vn 0.7036 0.0008 0.7106
vn 0.7036 -0.0007 0.7106
vn 0.7041 -0.0002 0.7101
vn 0.7035 -0.0007 0.7107
vn -0.7036 -0.0008 -0.7106
vn -0.7036 0.0006 -0.7106
vn -0.7035 0.0006 -0.7107
vn -0.7041 0.0002 -0.7101
vn -0.7036 -0.0007 -0.7106
vn -0.0505 -0.9975 -0.0496
vn -0.0504 -0.9975 -0.0495
vn -0.1893 -0.9624 -0.1947
vn -0.1910 -0.9631 -0.1894
vn -0.7106 0.0009 0.7036
vn -0.7102 -0.0002 0.7040
vn -0.7107 -0.0006 0.7035
vn -0.7106 0.0007 0.7036
vn 0.0496 -0.9975 -0.0505
vn 0.0495 -0.9975 -0.0504
vn 0.1947 -0.9624 -0.1893
vn 0.1894 -0.9631 -0.1910
vn -0.7036 0.0007 -0.7106
vn -0.6969 0.0166 -0.7169
vn -0.7041 -0.0002 -0.7101
vn -0.4680 0.4785 -0.7429
vn -0.5851 0.5236 -0.6193
vn 0.6147 0.5211 0.5921
vn 0.7100 0.0180 0.7039
vn 0.7374 0.4801 0.4751
vn 0.7041 0.0002 0.7101
vn 0.7106 -0.0008 -0.7036
vn 0.7107 0.0006 -0.7035
vn 0.7101 0.0002 -0.7041
vn 0.7036 -0.0008 0.7106
vn 0.7036 0.0007 0.7106
vn 0.7035 0.0007 0.7107
vn -0.7102 0.0002 0.7040
vn -0.7106 -0.0009 0.7036
vn 0.6531 0.0399 0.7562
vn 0.8146 0.0389 0.5787
vn 0.6559 0.0420 0.7537
vn 0.8147 0.0389 0.5786
vn 0.9899 0.0390 0.1362
vn 0.9899 0.0390 0.1361
vn 0.9387 0.0390 -0.3424
vn 0.9387 0.0390 -0.3426
vn 0.6711 0.0390 -0.7403
vn 0.6710 0.0390 -0.7404
vn 0.2476 0.0389 -0.9681
vn 0.2550 0.0390 -0.9662
vn -0.2285 0.0392 -0.9727
vn -0.2286 0.0391 -0.9727
vn -0.6553 0.0390 -0.7544
vn -0.9299 0.0391 -0.3658
vn -0.9298 0.0391 -0.3659
vn -0.9932 0.0391 0.1098
vn -0.9932 0.0390 0.1094
vn -0.8289 0.0390 0.5581
vn -0.8289 0.0391 0.5580
vn -0.4761 0.0390 0.8785
vn -0.4762 0.0390 0.8785
vn -0.0132 0.0390 0.9992
vn -0.0136 0.0390 0.9991
vn 0.2307 0.0424 0.9721
vn 0.2267 0.0396 0.9732
vn 0.6531 -0.0399 0.7562
vn 0.6559 -0.0420 0.7537
vn 0.8146 -0.0389 0.5787
vn 0.8147 -0.0389 0.5786
vn 0.9899 -0.0390 0.1362
vn 0.9899 -0.0390 0.1361
vn 0.9387 -0.0390 -0.3424
vn 0.9387 -0.0390 -0.3426
vn 0.6711 -0.0390 -0.7403
vn 0.6710 -0.0391 -0.7404
vn 0.2476 -0.0389 -0.9681
vn 0.2550 -0.0390 -0.9662
vn -0.2285 -0.0392 -0.9727
vn -0.2286 -0.0391 -0.9727
vn -0.6553 -0.0390 -0.7544
vn -0.9299 -0.0391 -0.3658
vn -0.9298 -0.0391 -0.3659
vn -0.9932 -0.0391 0.1098
vn -0.9932 -0.0390 0.1094
vn -0.8289 -0.0390 0.5581
vn -0.8289 -0.0391 0.5580
vn -0.4761 -0.0390 0.8785
vn -0.4762 -0.0390 0.8785
vn -0.0132 -0.0390 0.9992
vn -0.0136 -0.0390 0.9991
vn 0.2307 -0.0424 0.9721
vn 0.2267 -0.0396 0.9732
vn -0.7106 -0.0005 0.7036
vn -0.7101 -0.0002 0.7041
vn -0.7106 0.0008 0.7036
vn 0.0000 1.0000 0.0000
vn 0.0504 0.9975 0.0495
vn 0.0505 0.9975 0.0495
vn 0.1894 0.9624 0.1947
vn 0.1910 0.9631 0.1894
vn -0.7036 -0.0006 -0.7106
vn -0.7035 -0.0006 -0.7107
vn -0.7036 0.0008 -0.7106
vn -0.0496 0.9975 0.0505
vn -0.0495 0.9975 0.0505
vn -0.1946 0.9624 0.1894
vn -0.1895 0.9631 0.1910
vn -0.0505 0.9975 -0.0496
vn -0.0504 0.9975 -0.0495
vn -0.1893 0.9624 -0.1947
vn -0.1910 0.9631 -0.1894
vn 0.7035 -0.0006 0.7107
vn 0.0496 0.9975 -0.0505
vn 0.0495 0.9975 -0.0504
vn 0.1947 0.9624 -0.1893
vn 0.1894 0.9631 -0.1910
vn 0.7106 0.0006 -0.7036
vn 0.7111 0.0000 -0.7031
vn 0.7102 -0.0002 -0.7040
vn 0.7105 -0.0007 -0.7037
vn 0.7103 0.0001 -0.7039
vn -0.4549 -0.0937 -0.8856
vn -0.3474 -0.0939 -0.9330
vn -0.4425 -0.2215 -0.8690
vn -0.3299 -0.2264 -0.9165
vn -0.1091 -0.0938 -0.9896
vn -0.3392 -0.7337 -0.5888
vn -0.1017 -0.2275 -0.9684
vn 0.1269 -0.0942 -0.9874
vn -0.2526 -0.6235 -0.7399
vn -0.2181 -0.8797 -0.4227
vn -0.1084 -0.8588 -0.5007
vn -0.1218 -0.6377 -0.7606
vn 0.1324 -0.2205 -0.9664
vn 0.3645 -0.0939 -0.9265
vn 0.0691 -0.6091 -0.7901
vn 0.1402 -0.8562 -0.4972
vn 0.3607 -0.2219 -0.9059
vn 0.5728 -0.0942 -0.8143
vn 0.3216 -0.6615 -0.6774
vn 0.5658 -0.2270 -0.7927
vn 0.7515 -0.0936 -0.6530
vn 0.4258 -0.6116 -0.6668
vn 0.3504 -0.8580 -0.3756
vn 0.7392 -0.2252 -0.6347
vn 0.8840 -0.0939 -0.4579
vn 0.6008 -0.6614 -0.4490
vn 0.8704 -0.2241 -0.4384
vn 0.9692 -0.0941 -0.2277
vn 0.6881 -0.6103 -0.3924
vn 0.4877 -0.8570 -0.1662
vn 0.9500 -0.2247 -0.2169
vn 0.9955 -0.0943 0.0133
vn 0.7399 -0.6615 -0.1223
vn 0.9753 -0.2202 0.0153
vn 0.9650 -0.0942 0.2447
vn 0.7900 -0.6124 -0.0293
vn 0.5083 -0.8574 0.0800
vn 0.9427 -0.2229 0.2481
vn 0.8770 -0.0942 0.4711
vn 0.7109 -0.6625 0.2363
vn 0.8555 -0.2251 0.4663
vn 0.7377 -0.0939 0.6686
vn 0.7125 -0.6123 0.3427
vn 0.4095 -0.8593 0.3063
vn 0.7196 -0.2216 0.6581
vn 0.5560 -0.0938 0.8259
vn 0.5198 -0.6621 0.5398
vn 0.5407 -0.2259 0.8104
vn 0.4514 -0.0972 0.8870
vn 0.4426 -0.2217 0.8689
vn 0.4719 -0.6117 0.6349
vn 0.2493 -0.8338 0.4926
vn 0.4298 -0.5179 0.7396
vn 0.2292 -0.0953 0.9687
vn 0.1091 -0.0938 0.9896
vn 0.2211 -0.2211 0.9498
vn 0.1017 -0.2275 0.9684
vn -0.1269 -0.0942 0.9874
vn 0.1912 -0.7293 0.6569
vn -0.1324 -0.2205 0.9664
vn -0.3645 -0.0939 0.9265
vn 0.0669 -0.6272 0.7760
vn 0.1103 -0.8788 0.4642
vn -0.0190 -0.8587 0.5121
vn -0.0651 -0.6338 0.7707
vn -0.3607 -0.2219 0.9059
vn -0.5728 -0.0941 0.8143
vn -0.2524 -0.6105 0.7507
vn -0.2516 -0.8577 0.4484
vn -0.5658 -0.2270 0.7927
vn -0.7515 -0.0936 0.6530
vn -0.4762 -0.6614 0.5795
vn -0.7392 -0.2252 0.6347
vn -0.8840 -0.0939 0.4579
vn -0.5707 -0.6110 0.5486
vn -0.4335 -0.8582 0.2747
vn -0.8704 -0.2241 0.4384
vn -0.9692 -0.0940 0.2278
vn -0.6910 -0.6600 0.2947
vn -0.9500 -0.2247 0.2170
vn -0.9955 -0.0943 -0.0133
vn -0.7607 -0.6102 0.2213
vn -0.5143 -0.8566 0.0425
vn -0.9753 -0.2202 -0.0153
vn -0.9650 -0.0942 -0.2447
vn -0.7500 -0.6587 -0.0599
vn -0.9427 -0.2229 -0.2482
vn -0.8770 -0.0942 -0.4711
vn -0.7766 -0.6093 -0.1604
vn -0.4707 -0.8595 -0.1993
vn -0.8555 -0.2251 -0.4664
vn -0.7377 -0.0938 -0.6686
vn -0.6359 -0.6594 -0.4010
vn -0.7196 -0.2216 -0.6581
vn -0.6508 -0.0944 -0.7534
vn -0.6366 -0.2228 -0.7383
vn -0.6117 -0.6114 -0.5020
vn -0.3649 -0.8310 -0.4200
vn -0.5911 -0.5211 -0.6156
vn 0.7110 -0.0000 -0.7032
vn 0.7106 -0.0006 -0.7036
vn 0.7102 0.0003 -0.7040
vn 0.7105 0.0007 -0.7037
vn -0.4549 0.0937 -0.8856
vn -0.4425 0.2215 -0.8690
vn -0.3474 0.0939 -0.9330
vn -0.3299 0.2264 -0.9165
vn -0.1091 0.0938 -0.9896
vn -0.3392 0.7337 -0.5888
vn -0.1017 0.2275 -0.9684
vn 0.1269 0.0942 -0.9874
vn -0.2526 0.6235 -0.7399
vn -0.2181 0.8797 -0.4227
vn -0.1084 0.8588 -0.5007
vn -0.1218 0.6377 -0.7606
vn 0.1324 0.2205 -0.9664
vn 0.3645 0.0939 -0.9265
vn 0.0691 0.6091 -0.7901
vn 0.1402 0.8562 -0.4972
vn 0.3607 0.2219 -0.9059
vn 0.5728 0.0942 -0.8143
vn 0.3216 0.6615 -0.6774
vn 0.5658 0.2270 -0.7927
vn 0.7515 0.0936 -0.6530
vn 0.4258 0.6116 -0.6668
vn 0.3504 0.8580 -0.3756
vn 0.7392 0.2252 -0.6347
vn 0.8840 0.0939 -0.4579
vn 0.6008 0.6614 -0.4490
vn 0.8704 0.2241 -0.4384
vn 0.9692 0.0940 -0.2277
vn 0.6881 0.6103 -0.3924
vn 0.4877 0.8570 -0.1662
vn 0.9500 0.2247 -0.2169
vn 0.9955 0.0943 0.0133
vn 0.7399 0.6615 -0.1223
vn 0.9753 0.2202 0.0152
vn 0.9650 0.0942 0.2447
vn 0.7900 0.6124 -0.0293
vn 0.5083 0.8574 0.0800
vn 0.9427 0.2229 0.2481
vn 0.8770 0.0942 0.4711
vn 0.7109 0.6625 0.2363
vn 0.8555 0.2251 0.4663
vn 0.7377 0.0939 0.6686
vn 0.7125 0.6123 0.3427
vn 0.4095 0.8593 0.3063
vn 0.7196 0.2216 0.6581
vn 0.5560 0.0937 0.8259
vn 0.5198 0.6621 0.5398
vn 0.5407 0.2259 0.8104
vn 0.4514 0.0972 0.8870
vn 0.4426 0.2217 0.8689
vn 0.4719 0.6117 0.6349
vn 0.2493 0.8338 0.4926
vn 0.4298 0.5179 0.7396
vn 0.2292 0.0953 0.9687
vn 0.2211 0.2211 0.9498
vn 0.1091 0.0938 0.9896
vn 0.1016 0.2276 0.9684
vn -0.1269 0.0942 0.9874
vn 0.1910 0.7295 0.6568
vn -0.1325 0.2205 0.9664
vn -0.3645 0.0939 0.9265
vn 0.0669 0.6272 0.7760
vn 0.1103 0.8788 0.4642
vn -0.0190 0.8587 0.5121
vn -0.0651 0.6338 0.7707
vn -0.3607 0.2219 0.9059
vn -0.5728 0.0942 0.8143
vn -0.2524 0.6105 0.7507
vn -0.2516 0.8577 0.4484
vn -0.5658 0.2270 0.7927
vn -0.7515 0.0936 0.6530
vn -0.4762 0.6614 0.5795
vn -0.7392 0.2252 0.6347
vn -0.8840 0.0939 0.4579
vn -0.5707 0.6110 0.5486
vn -0.4335 0.8582 0.2747
vn -0.8704 0.2241 0.4384
vn -0.9692 0.0940 0.2278
vn -0.6910 0.6600 0.2947
vn -0.9500 0.2247 0.2170
vn -0.9955 0.0943 -0.0133
vn -0.7607 0.6102 0.2213
vn -0.5143 0.8566 0.0425
vn -0.9753 0.2202 -0.0153
vn -0.9650 0.0942 -0.2447
vn -0.7500 0.6587 -0.0599
vn -0.9427 0.2229 -0.2482
vn -0.8770 0.0942 -0.4711
vn -0.7766 0.6093 -0.1604
vn -0.4707 0.8595 -0.1993
vn -0.8555 0.2251 -0.4664
vn -0.7377 0.0938 -0.6686
vn -0.6359 0.6594 -0.4010
vn -0.7196 0.2216 -0.6581
vn -0.6508 0.0944 -0.7534
vn -0.6366 0.2229 -0.7383
vn -0.6117 0.6114 -0.5020
vn -0.3649 0.8310 -0.4200
vn -0.5906 0.5216 -0.6157
vn -0.0234 -0.9997 0.0052
vn -0.0231 -0.9997 -0.0104
vn -0.0208 -0.9997 0.0088
vn -0.0090 -0.9998 0.0155
vn -0.0005 -0.9997 0.0240
vn 0.0046 -0.9997 -0.0249
vn 0.0083 -0.9998 0.0158
vn 0.0143 -0.9997 -0.0175
vn 0.0204 -0.9997 0.0097
vn 0.0235 -0.9997 -0.0094
vn 0.0232 -0.9997 0.0063
vn -0.0234 0.9997 0.0052
vn -0.0231 0.9997 -0.0104
vn -0.0208 0.9997 0.0088
vn -0.0136 0.9997 -0.0181
vn -0.0090 0.9998 0.0155
vn -0.0035 0.9997 -0.0250
vn -0.0005 0.9997 0.0240
vn 0.0046 0.9997 -0.0249
vn 0.0083 0.9998 0.0158
vn 0.0143 0.9997 -0.0175
vn 0.0204 0.9997 0.0097
vn 0.0235 0.9997 -0.0094
vn 0.0232 0.9997 0.0063
vn -0.0377 -0.9967 0.0714
vn 0.0061 -0.9962 0.0868
vn -0.0657 -0.9911 0.1159
vn -0.0670 -0.9969 0.0407
vn -0.0008 -0.9920 0.1266
vn 0.0457 -0.9964 0.0711
vn -0.1086 -0.9923 0.0601
vn -0.0786 -0.9969 0.0095
vn 0.0607 -0.9925 0.1057
vn 0.0727 -0.9965 0.0408
vn 0.0006 -0.9599 0.2803
vn 0.1013 -0.9927 0.0654
vn 0.0802 -0.9968 0.0051
vn 0.1213 -0.9619 0.2449
vn 0.1184 -0.9929 0.0110
vn 0.0755 -0.9966 -0.0327
vn 0.2277 -0.9600 0.1630
vn 0.1099 -0.9927 -0.0489
vn 0.0483 -0.9965 -0.0679
vn 0.2839 -0.9578 0.0450
vn 0.0741 -0.9927 -0.0954
vn 0.0172 -0.9966 -0.0805
vn 0.2661 -0.9597 -0.0901
vn 0.0223 -0.9927 -0.1187
vn -0.0208 -0.9968 -0.0776
vn 0.1993 -0.9586 -0.2036
vn -0.0319 -0.9927 -0.1162
vn -0.0555 -0.9969 -0.0553
vn 0.0816 -0.9577 -0.2759
vn -0.0894 -0.9920 -0.0893
vn -0.0788 -0.9964 -0.0308
vn -0.0560 -0.9594 -0.2766
vn -0.1235 -0.9916 -0.0390
vn -0.1734 -0.9618 -0.2118
vn -0.0640 -0.9824 -0.1753
vn -0.1265 -0.9918 0.0155
vn -0.2551 -0.9604 -0.1120
vn -0.2729 -0.9615 0.0320
vn -0.2281 -0.9620 0.1503
vn -0.1018 -0.9807 -0.1672
vn -0.1702 -0.9805 -0.0982
vn -0.1981 -0.9802 -0.0069
vn -0.1398 -0.9590 0.2465
vn -0.1779 -0.9804 0.0850
vn -0.1210 -0.9802 0.1569
vn 0.0420 -0.9850 0.1676
vn 0.5360 -0.8345 -0.1277
vn 0.1112 -0.9852 0.1308
vn 0.4155 -0.8343 -0.3623
vn 0.1975 -0.8347 -0.5141
vn 0.1709 -0.9831 0.0648
vn -0.3976 -0.8675 -0.2989
vn 0.1434 -0.9895 -0.0197
vn -0.4933 -0.8661 -0.0809
vn 0.1207 -0.9894 -0.0803
vn -0.4707 -0.8680 0.1583
vn 0.0659 -0.9890 -0.1322
vn -0.3408 -0.8684 0.3602
vn 0.0014 -0.9891 -0.1470
vn -0.4905 -0.8350 0.2493
vn -0.3155 -0.8370 0.4471
vn 0.3133 -0.8687 0.3837
vn -0.3580 -0.8262 0.4350
vn 0.4593 -0.8667 0.1947
vn -0.1111 -0.8260 0.5526
vn 0.1613 -0.8262 0.5398
vn 0.4957 -0.8675 -0.0413
vn 0.3492 -0.8273 0.4400
vn 0.4200 -0.8668 -0.2687
vn 0.5355 -0.8262 0.1750
vn 0.5586 -0.8245 -0.0903
vn 0.4780 -0.8280 -0.2930
vn 0.1991 -0.9707 0.1345
vn 0.2848 -0.8298 -0.4800
vn 0.2394 -0.9706 0.0241
vn 0.2256 -0.9703 -0.0871
vn 0.0321 -0.8270 -0.5612
vn 0.0183 -0.9793 -0.2018
vn -0.2297 -0.8303 -0.5078
vn -0.0834 -0.9782 -0.1900
vn -0.4405 -0.8303 -0.3415
vn -0.1555 -0.9792 -0.1305
vn -0.5491 -0.8299 -0.0991
vn -0.2000 -0.9788 -0.0439
vn -0.5369 -0.8266 0.1686
vn -0.2291 -0.9700 -0.0809
vn -0.2429 -0.9696 0.0304
vn -0.0688 -0.9781 0.1966
vn 0.2259 -0.9736 0.0328
vn 0.0315 -0.9794 0.1995
vn 0.2122 -0.9742 -0.0767
vn 0.1541 -0.9729 -0.1724
vn 0.1244 -0.9783 0.1655
vn 0.0514 -0.9754 -0.2146
vn 0.3285 -0.9363 -0.1240
vn 0.3463 -0.9371 0.0446
vn 0.2351 -0.9364 -0.2604
vn 0.2878 -0.9370 0.1981
vn 0.0816 -0.9362 -0.3419
vn 0.1795 -0.9752 0.1294
vn 0.1633 -0.9361 0.3114
vn 0.1032 -0.9749 0.1975
vn 0.0006 -0.9381 0.3465
vn -0.0019 -0.9755 0.2201
vn -0.1656 -0.9373 0.3067
vn -0.1068 -0.9749 0.1954
vn -0.2845 -0.9378 0.1992
vn -0.1857 -0.9745 0.1260
vn -0.3447 -0.9376 0.0453
vn -0.2224 -0.9746 0.0272
vn -0.3281 -0.9369 -0.1209
vn -0.2075 -0.9751 -0.0782
vn -0.2328 -0.9362 -0.2635
vn -0.1495 -0.9743 -0.1684
vn -0.0803 -0.9374 -0.3389
vn 0.1591 -0.9854 0.0610
vn -0.0485 -0.9751 -0.2163
vn -0.0377 0.9967 0.0714
vn -0.0657 0.9911 0.1159
vn 0.0061 0.9962 0.0868
vn -0.0670 0.9969 0.0407
vn -0.0008 0.9920 0.1266
vn 0.0457 0.9964 0.0711
vn -0.1086 0.9923 0.0601
vn -0.0786 0.9969 0.0094
vn 0.0607 0.9925 0.1057
vn 0.0727 0.9965 0.0408
vn 0.0006 0.9599 0.2803
vn 0.1013 0.9927 0.0654
vn 0.0802 0.9968 0.0051
vn 0.1213 0.9619 0.2449
vn 0.1184 0.9929 0.0110
vn 0.0755 0.9966 -0.0327
vn 0.2277 0.9600 0.1630
vn 0.1099 0.9927 -0.0489
vn 0.0483 0.9965 -0.0679
vn 0.2839 0.9578 0.0450
vn 0.0741 0.9927 -0.0954
vn 0.0172 0.9966 -0.0805
vn 0.2661 0.9597 -0.0901
vn 0.0223 0.9927 -0.1187
vn -0.0208 0.9968 -0.0776
vn 0.1993 0.9586 -0.2036
vn -0.0319 0.9927 -0.1162
vn -0.0555 0.9969 -0.0553
vn 0.0816 0.9577 -0.2759
vn -0.0894 0.9920 -0.0893
vn -0.0788 0.9964 -0.0308
vn -0.0560 0.9594 -0.2765
vn -0.1235 0.9916 -0.0390
vn -0.1734 0.9618 -0.2118
vn -0.0640 0.9824 -0.1753
vn -0.1265 0.9918 0.0155
vn -0.2551 0.9604 -0.1120
vn -0.2729 0.9615 0.0320
vn -0.2281 0.9620 0.1503
vn -0.1018 0.9807 -0.1672
vn -0.1702 0.9805 -0.0982
vn -0.1981 0.9802 -0.0069
vn -0.1398 0.9590 0.2465
vn -0.1779 0.9804 0.0850
vn -0.1210 0.9802 0.1569
vn 0.0420 0.9850 0.1676
vn 0.5360 0.8345 -0.1277
vn 0.1112 0.9852 0.1308
vn 0.4155 0.8343 -0.3623
vn 0.1976 0.8347 -0.5140
vn 0.1709 0.9831 0.0648
vn -0.3976 0.8675 -0.2989
vn 0.1434 0.9895 -0.0197
vn -0.4933 0.8661 -0.0809
vn 0.1207 0.9894 -0.0803
vn -0.4707 0.8680 0.1583
vn 0.0659 0.9890 -0.1322
vn -0.3408 0.8684 0.3602
vn 0.0014 0.9891 -0.1470
vn -0.4905 0.8350 0.2493
vn -0.3154 0.8370 0.4471
vn 0.3133 0.8687 0.3837
vn -0.3580 0.8262 0.4350
vn 0.4593 0.8667 0.1947
vn -0.1111 0.8260 0.5526
vn 0.1613 0.8262 0.5398
vn 0.4957 0.8675 -0.0413
vn 0.3492 0.8273 0.4400
vn 0.4200 0.8669 -0.2687
vn 0.5355 0.8262 0.1750
vn 0.5586 0.8245 -0.0903
vn 0.4780 0.8280 -0.2930
vn 0.1991 0.9707 0.1345
vn 0.2848 0.8298 -0.4800
vn 0.2394 0.9706 0.0241
vn 0.2256 0.9703 -0.0871
vn 0.0321 0.8270 -0.5612
vn 0.0183 0.9793 -0.2018
vn -0.2297 0.8303 -0.5079
vn -0.0834 0.9782 -0.1900
vn -0.4405 0.8303 -0.3415
vn -0.1555 0.9792 -0.1305
vn -0.5491 0.8299 -0.0991
vn -0.2000 0.9788 -0.0439
vn -0.5369 0.8266 0.1686
vn -0.2291 0.9700 -0.0809
vn -0.2429 0.9696 0.0304
vn -0.0688 0.9781 0.1966
vn 0.2259 0.9736 0.0328
vn 0.0315 0.9794 0.1995
vn 0.2122 0.9742 -0.0766
vn 0.1541 0.9729 -0.1725
vn 0.1244 0.9783 0.1655
vn 0.0514 0.9754 -0.2146
vn 0.3285 0.9363 -0.1240
vn 0.3463 0.9371 0.0446
vn 0.2351 0.9364 -0.2604
vn 0.2878 0.9370 0.1981
vn 0.0816 0.9362 -0.3419
vn 0.1795 0.9752 0.1294
vn 0.1633 0.9361 0.3114
vn 0.0994 0.9742 0.2024
vn 0.0006 0.9381 0.3465
vn -0.0077 0.9736 0.2280
vn -0.1656 0.9373 0.3067
vn -0.1102 0.9736 0.2001
vn -0.2845 0.9378 0.1992
vn -0.1881 0.9741 0.1251
vn -0.3447 0.9376 0.0453
vn -0.2234 0.9745 0.0218
vn -0.3281 0.9369 -0.1209
vn -0.2079 0.9743 -0.0868
vn -0.2328 0.9362 -0.2635
vn -0.1495 0.9743 -0.1685
vn -0.0803 0.9374 -0.3389
vn 0.1591 0.9854 0.0610
vn -0.0485 0.9751 -0.2163
usemtl /Game/Construction_VOL2/Materials/Instances/MI_WheelBarrow_01a_
s 1
f 1/1/1 3/2/2 2/3/3
f 4/4/4 6/5/5 5/6/3
f 6/5/5 4/4/4 7/7/6
f 8/8/7 6/5/5 7/7/6
f 9/9/8 11/10/9 10/11/10
f 12/12/11 10/11/10 11/10/9
f 13/13/12 12/12/11 11/10/9
f 14/14/13 16/15/14 15/16/15
f 16/15/14 17/17/16 15/16/15
f 16/15/14 18/18/17 17/17/16
f 19/19/3 21/20/18 20/21/3
f 21/20/18 22/22/19 20/21/3
f 22/22/19 21/20/18 23/23/20
f 24/24/21 22/22/19 23/23/20
f 25/25/22 27/26/23 26/27/24
f 28/28/25 26/27/24 27/26/23
f 29/29/22 28/28/25 27/26/23
f 30/30/26 32/31/27 31/32/28
f 32/31/27 33/33/29 31/32/28
f 32/31/27 34/34/30 33/33/29
f 35/35/3 37/36/31 36/37/3
f 37/36/31 38/38/32 36/37/3
f 38/38/32 37/36/31 39/39/33
f 40/40/34 38/38/32 39/39/33
f 41/41/35 43/42/13 42/43/36
f 44/44/37 42/43/36 43/42/13
f 45/45/38 44/44/37 43/42/13
f 46/46/3 48/47/39 47/48/3
f 48/47/39 49/49/40 47/48/3
f 49/49/40 48/47/39 50/50/41
f 51/51/42 49/49/40 50/50/41
f 52/52/43 54/53/44 53/54/45
f 55/55/46 53/54/45 54/53/44
f 56/56/47 55/55/46 54/53/44
f 57/57/48 59/58/49 58/59/50
f 59/58/49 60/60/51 58/59/50
f 59/58/49 61/61/23 60/60/51
f 62/62/52 64/63/8 63/64/53
f 63/64/53 64/63/8 65/65/54
f 66/66/9 65/65/54 64/63/8
f 67/67/55 69/68/56 68/69/57
f 68/69/57 69/68/56 70/70/51
f 71/71/55 70/70/51 69/68/56
f 72/72/13 74/73/38 73/74/15
f 73/74/15 74/73/38 75/75/58
f 76/76/59 75/75/58 74/73/38
f 77/77/26 79/78/43 78/79/28
f 78/79/28 79/78/43 80/80/29
f 81/81/30 80/80/29 79/78/43
f 82/82/60 84/83/61 83/84/62
f 83/84/62 84/83/61 85/85/63
f 84/83/61 86/86/64 85/85/63
f 85/85/63 86/86/64 87/87/65
f 86/86/64 88/88/66 87/87/65
f 87/87/65 88/88/66 89/89/67
f 88/88/66 90/90/68 89/89/67
f 89/89/67 90/90/68 91/91/69
f 90/90/68 92/92/70 91/91/69
f 91/91/69 92/92/70 93/93/71
f 92/92/70 94/94/72 93/93/71
f 93/93/71 94/94/72 95/95/73
f 94/94/72 96/96/74 95/95/73
f 95/95/73 96/96/74 97/97/74
f 96/96/74 98/98/75 97/97/74
f 97/97/74 98/98/75 99/99/76
f 98/98/75 100/100/77 99/99/76
f 99/99/76 100/100/77 101/101/78
f 100/100/77 102/102/79 101/101/78
f 101/101/78 102/102/79 103/103/80
f 102/102/79 104/104/81 103/103/80
f 103/103/80 104/104/81 105/105/82
f 104/104/81 106/106/83 105/105/82
f 105/105/82 106/106/83 107/107/84
f 106/106/83 108/108/85 107/107/84
f 107/107/84 108/108/85 109/109/86
f 110/110/87 112/111/88 111/112/89
f 112/111/88 113/113/90 111/112/89
f 111/112/89 113/113/90 114/114/91
f 113/113/90 115/115/92 114/114/91
f 114/114/91 115/115/92 116/116/93
f 115/115/92 117/117/94 116/116/93
f 116/116/93 117/117/94 118/118/95
f 117/117/94 119/119/96 118/118/95
f 118/118/95 119/119/96 120/120/97
f 119/119/96 121/121/98 120/120/97
f 120/120/97 121/121/98 122/122/99
f 121/121/98 123/123/100 122/122/99
f 122/122/99 123/123/100 124/124/101
f 123/123/100 125/125/101 124/124/101
f 124/124/101 125/125/101 126/126/102
f 125/125/101 127/127/103 126/126/102
f 126/126/102 127/127/103 128/128/104
f 127/127/103 129/129/105 128/128/104
f 128/128/104 129/129/105 130/130/106
f 129/129/105 131/131/107 130/130/106
f 130/130/106 131/131/107 132/132/108
f 131/131/107 133/133/109 132/132/108
f 132/132/108 133/133/109 134/134/110
f 133/133/109 135/135/111 134/134/110
f 134/134/110 135/135/111 136/136/112
f 135/135/111 137/137/113 136/136/112
f 138/138/114 140/139/115 139/140/116
f 138/138/114 141/141/37 140/139/115
f 142/142/38 141/141/37 138/138/114
f 143/143/117 145/144/117 144/145/118
f 144/145/118 145/144/117 146/146/119
f 146/146/119 147/147/120 144/145/118
f 148/148/121 147/147/120 146/146/119
f 149/149/122 151/150/45 150/151/43
f 149/149/122 152/152/123 151/150/45
f 153/153/124 152/152/123 149/149/122
f 154/154/117 156/155/117 155/156/125
f 155/156/125 156/155/117 157/157/126
f 157/157/126 158/158/127 155/156/125
f 159/159/128 158/158/127 157/157/126
f 160/160/117 162/161/117 161/162/129
f 161/162/129 162/161/117 163/163/130
f 163/163/130 164/164/131 161/162/129
f 165/165/132 164/164/131 163/163/130
f 166/166/23 168/167/24 167/168/56
f 166/166/23 169/169/133 168/167/24
f 170/170/56 169/169/133 166/166/23
f 171/171/117 173/172/117 172/173/134
f 172/173/134 173/172/117 174/174/135
f 174/174/135 175/175/136 172/173/134
f 176/176/137 175/175/136 174/174/135
f 177/177/9 179/178/138 178/179/139
f 179/178/138 180/180/140 178/179/139
f 181/181/139 180/180/140 179/178/138
f 178/179/139 180/180/140 182/182/139
f 183/183/139 180/180/140 181/181/139
f 182/182/139 180/180/140 184/184/53
f 180/180/140 185/185/141 184/184/53
f 183/183/139 185/185/141 180/180/140
f 186/186/142 184/184/53 185/185/141
f 186/186/142 185/185/141 183/183/139
f 187/187/9 186/186/142 183/183/139
f 188/188/143 190/189/144 189/190/145
f 190/189/144 191/191/146 189/190/145
f 190/189/144 192/192/147 191/191/146
f 193/193/148 189/190/145 191/191/146
f 192/192/147 194/194/149 191/191/146
f 192/192/147 195/195/150 194/194/149
f 196/196/151 193/193/148 191/191/146
f 196/196/151 191/191/146 194/194/149
f 197/197/152 193/193/148 196/196/151
f 198/198/153 197/197/152 196/196/151
f 199/199/154 196/196/151 194/194/149
f 199/199/154 198/198/153 196/196/151
f 195/195/150 200/200/155 194/194/149
f 199/199/154 194/194/149 200/200/155
f 195/195/150 201/201/156 200/200/155
f 198/198/153 199/199/154 202/202/157
f 202/202/157 199/199/154 200/200/155
f 203/203/158 198/198/153 202/202/157
f 201/201/156 204/204/159 200/200/155
f 202/202/157 200/200/155 204/204/159
f 201/201/156 205/205/160 204/204/159
f 206/206/161 203/203/158 202/202/157
f 206/206/161 202/202/157 204/204/159
f 205/205/160 207/207/162 204/204/159
f 206/206/161 204/204/159 207/207/162
f 205/205/160 208/208/163 207/207/162
f 203/203/158 206/206/161 209/209/164
f 209/209/164 206/206/161 207/207/162
f 210/210/165 203/203/158 209/209/164
f 208/208/163 211/211/166 207/207/162
f 209/209/164 207/207/162 211/211/166
f 208/208/163 212/212/167 211/211/166
f 213/213/168 210/210/165 209/209/164
f 213/213/168 209/209/164 211/211/166
f 212/212/167 214/214/169 211/211/166
f 213/213/168 211/211/166 214/214/169
f 212/212/167 215/215/170 214/214/169
f 210/210/165 213/213/168 216/216/171
f 216/216/171 213/213/168 214/214/169
f 217/217/172 210/210/165 216/216/171
f 215/215/170 218/218/173 214/214/169
f 216/216/171 214/214/169 218/218/173
f 215/215/170 219/219/174 218/218/173
f 220/220/175 217/217/172 216/216/171
f 220/220/175 216/216/171 218/218/173
f 219/219/174 221/221/176 218/218/173
f 220/220/175 218/218/173 221/221/176
f 219/219/174 222/222/177 221/221/176
f 217/217/172 220/220/175 223/223/178
f 223/223/178 220/220/175 221/221/176
f 224/224/179 217/217/172 223/223/178
f 222/222/177 225/225/180 221/221/176
f 223/223/178 221/221/176 225/225/180
f 222/222/177 226/226/181 225/225/180
f 227/227/182 224/224/179 223/223/178
f 227/227/182 223/223/178 225/225/180
f 226/226/181 228/228/183 225/225/180
f 227/227/182 225/225/180 228/228/183
f 226/226/181 229/229/184 228/228/183
f 224/224/179 227/227/182 230/230/185
f 230/230/185 227/227/182 228/228/183
f 231/231/186 224/224/179 230/230/185
f 229/229/184 232/232/187 228/228/183
f 230/230/185 228/228/183 232/232/187
f 229/229/184 233/233/188 232/232/187
f 234/234/189 231/231/186 230/230/185
f 234/234/189 230/230/185 232/232/187
f 233/233/188 235/235/190 232/232/187
f 234/234/189 232/232/187 235/235/190
f 233/233/188 236/236/191 235/235/190
f 236/236/191 237/237/192 235/235/190
f 231/231/186 234/234/189 238/238/193
f 238/238/193 234/234/189 235/235/190
f 238/238/193 235/235/190 237/237/192
f 239/239/194 231/231/186 238/238/193
f 240/240/195 238/238/193 237/237/192
f 240/240/195 239/239/194 238/238/193
f 241/241/196 243/242/197 242/243/198
f 243/242/197 244/244/199 242/243/198
f 243/242/197 245/245/200 244/244/199
f 246/246/201 242/243/198 244/244/199
f 245/245/200 247/247/202 244/244/199
f 245/245/200 248/248/203 247/247/202
f 249/249/204 246/246/201 244/244/199
f 249/249/204 244/244/199 247/247/202
f 250/250/205 246/246/201 249/249/204
f 251/251/206 250/250/205 249/249/204
f 252/252/207 249/249/204 247/247/202
f 252/252/207 251/251/206 249/249/204
f 248/248/203 253/253/208 247/247/202
f 252/252/207 247/247/202 253/253/208
f 248/248/203 254/254/209 253/253/208
f 251/251/206 252/252/207 255/255/210
f 255/255/210 252/252/207 253/253/208
f 256/256/211 251/251/206 255/255/210
f 254/254/209 257/257/212 253/253/208
f 255/255/210 253/253/208 257/257/212
f 254/254/209 258/258/213 257/257/212
f 259/259/214 256/256/211 255/255/210
f 259/259/214 255/255/210 257/257/212
f 258/258/213 260/260/215 257/257/212
f 259/259/214 257/257/212 260/260/215
f 258/258/213 261/261/216 260/260/215
f 256/256/211 259/259/214 262/262/217
f 262/262/217 259/259/214 260/260/215
f 263/263/218 256/256/211 262/262/217
f 261/261/216 264/264/219 260/260/215
f 262/262/217 260/260/215 264/264/219
f 261/261/216 265/265/220 264/264/219
f 266/266/221 263/263/218 262/262/217
f 266/266/221 262/262/217 264/264/219
f 265/265/220 267/267/222 264/264/219
f 266/266/221 264/264/219 267/267/222
f 265/265/220 268/268/223 267/267/222
f 263/263/218 266/266/221 269/269/224
f 269/269/224 266/266/221 267/267/222
f 270/270/225 263/263/218 269/269/224
f 268/268/223 271/271/226 267/267/222
f 269/269/224 267/267/222 271/271/226
f 268/268/223 272/272/227 271/271/226
f 273/273/228 270/270/225 269/269/224
f 273/273/228 269/269/224 271/271/226
f 272/272/227 274/274/229 271/271/226
f 273/273/228 271/271/226 274/274/229
f 272/272/227 275/275/230 274/274/229
f 270/270/225 273/273/228 276/276/231
f 276/276/231 273/273/228 274/274/229
f 277/277/232 270/270/225 276/276/231
f 275/275/230 278/278/233 274/274/229
f 276/276/231 274/274/229 278/278/233
f 275/275/230 279/279/234 278/278/233
f 280/280/235 277/277/232 276/276/231
f 280/280/235 276/276/231 278/278/233
f 279/279/234 281/281/236 278/278/233
f 280/280/235 278/278/233 281/281/236
f 279/279/234 282/282/237 281/281/236
f 282/282/237 283/283/238 281/281/236
f 277/277/232 280/280/235 284/284/239
f 284/284/239 280/280/235 281/281/236
f 284/284/239 281/281/236 283/283/238
f 285/285/240 277/277/232 284/284/239
f 286/286/241 284/284/239 283/283/238
f 286/286/241 285/285/240 284/284/239
f 287/287/8 289/288/242 288/289/243
f 288/289/243 289/288/242 290/290/244
f 289/288/242 291/291/242 290/290/244
f 292/292/139 288/289/243 290/290/244
f 291/291/242 293/293/11 290/290/244
f 294/294/139 292/292/139 290/290/244
f 290/290/244 293/293/11 295/295/245
f 294/294/139 290/290/244 295/295/245
f 296/296/10 295/295/245 293/293/11
f 296/296/10 294/294/139 295/295/245
f 297/297/8 294/294/139 296/296/10
f 298/298/246 300/299/247 299/300/248
f 299/300/248 300/299/247 301/301/249
f 299/300/248 301/301/249 302/302/250
f 303/303/251 301/301/249 300/299/247
f 302/302/250 301/301/249 304/304/252
f 302/302/250 304/304/252 305/305/253
f 306/306/254 301/301/249 303/303/251
f 306/306/254 304/304/252 301/301/249
f 307/307/255 306/306/254 303/303/251
f 308/308/256 306/306/254 307/307/255
f 309/309/257 304/304/252 306/306/254
f 309/309/257 306/306/254 308/308/256
f 305/305/253 304/304/252 310/310/258
f 309/309/257 310/310/258 304/304/252
f 305/305/253 310/310/258 311/311/259
f 308/308/256 312/312/260 309/309/257
f 312/312/260 310/310/258 309/309/257
f 313/313/261 312/312/260 308/308/256
f 311/311/259 310/310/258 314/314/262
f 312/312/260 314/314/262 310/310/258
f 311/311/259 314/314/262 315/315/263
f 316/316/264 312/312/260 313/313/261
f 316/316/264 314/314/262 312/312/260
f 315/315/263 314/314/262 317/317/265
f 316/316/264 317/317/265 314/314/262
f 315/315/263 317/317/265 318/318/266
f 313/313/261 319/319/267 316/316/264
f 319/319/267 317/317/265 316/316/264
f 320/320/268 319/319/267 313/313/261
f 318/318/266 317/317/265 321/321/269
f 319/319/267 321/321/269 317/317/265
f 318/318/266 321/321/269 322/322/270
f 323/323/271 319/319/267 320/320/268
f 323/323/271 321/321/269 319/319/267
f 322/322/270 321/321/269 324/324/272
f 323/323/271 324/324/272 321/321/269
f 322/322/270 324/324/272 325/325/273
f 320/320/268 326/326/274 323/323/271
f 326/326/274 324/324/272 323/323/271
f 327/327/275 326/326/274 320/320/268
f 325/325/273 324/324/272 328/328/276
f 326/326/274 328/328/276 324/324/272
f 325/325/273 328/328/276 329/329/277
f 330/330/278 326/326/274 327/327/275
f 330/330/278 328/328/276 326/326/274
f 329/329/277 328/328/276 331/331/279
f 330/330/278 331/331/279 328/328/276
f 329/329/277 331/331/279 332/332/280
f 327/327/275 333/333/281 330/330/278
f 333/333/281 331/331/279 330/330/278
f 334/334/282 333/333/281 327/327/275
f 332/332/280 331/331/279 335/335/283
f 333/333/281 335/335/283 331/331/279
f 332/332/280 335/335/283 336/336/284
f 337/337/285 333/333/281 334/334/282
f 337/337/285 335/335/283 333/333/281
f 336/336/284 335/335/283 338/338/286
f 337/337/285 338/338/286 335/335/283
f 336/336/284 338/338/286 339/339/287
f 334/334/282 340/340/288 337/337/285
f 340/340/288 338/338/286 337/337/285
f 341/341/289 340/340/288 334/334/282
f 339/339/287 338/338/286 342/342/290
f 340/340/288 342/342/290 338/338/286
f 339/339/287 342/342/290 343/343/291
f 344/344/292 340/340/288 341/341/289
f 344/344/292 342/342/290 340/340/288
f 343/343/291 342/342/290 345/345/293
f 344/344/292 345/345/293 342/342/290
f 343/343/291 345/345/293 346/346/294
f 346/346/294 345/345/293 347/347/295
f 341/341/289 348/348/296 344/344/292
f 348/348/296 345/345/293 344/344/292
f 348/348/296 347/347/295 345/345/293
f 349/349/297 348/348/296 341/341/289
f 350/350/298 347/347/295 348/348/296
f 350/350/298 348/348/296 349/349/297
f 351/351/299 353/352/300 352/353/301
f 352/353/301 353/352/300 354/354/302
f 352/353/301 354/354/302 355/355/303
f 356/356/304 354/354/302 353/352/300
f 355/355/303 354/354/302 357/357/305
f 355/355/303 357/357/305 358/358/306
f 359/359/307 354/354/302 356/356/304
f 359/359/307 357/357/305 354/354/302
f 360/360/308 359/359/307 356/356/304
f 361/361/309 359/359/307 360/360/308
f 362/362/310 357/357/305 359/359/307
f 362/362/310 359/359/307 361/361/309
f 358/358/306 357/357/305 363/363/311
f 362/362/310 363/363/311 357/357/305
f 358/358/306 363/363/311 364/364/312
f 361/361/309 365/365/313 362/362/310
f 365/365/313 363/363/311 362/362/310
f 366/366/314 365/365/313 361/361/309
f 364/364/312 363/363/311 367/367/315
f 365/365/313 367/367/315 363/363/311
f 364/364/312 367/367/315 368/368/316
f 369/369/317 365/365/313 366/366/314
f 369/369/317 367/367/315 365/365/313
f 368/368/316 367/367/315 370/370/318
f 369/369/317 370/370/318 367/367/315
f 368/368/316 370/370/318 371/371/319
f 366/366/314 372/372/320 369/369/317
f 372/372/320 370/370/318 369/369/317
f 373/373/321 372/372/320 366/366/314
f 371/371/319 370/370/318 374/374/322
f 372/372/320 374/374/322 370/370/318
f 371/371/319 374/374/322 375/375/323
f 376/376/324 372/372/320 373/373/321
f 376/376/324 374/374/322 372/372/320
f 375/375/323 374/374/322 377/377/325
f 376/376/324 377/377/325 374/374/322
f 375/375/323 377/377/325 378/378/326
f 373/373/321 379/379/327 376/376/324
f 379/379/327 377/377/325 376/376/324
f 380/380/328 379/379/327 373/373/321
f 378/378/326 377/377/325 381/381/329
f 379/379/327 381/381/329 377/377/325
f 378/378/326 381/381/329 382/382/330
f 383/383/331 379/379/327 380/380/328
f 383/383/331 381/381/329 379/379/327
f 382/382/330 381/381/329 384/384/332
f 383/383/331 384/384/332 381/381/329
f 382/382/330 384/384/332 385/385/333
f 380/380/328 386/386/334 383/383/331
f 386/386/334 384/384/332 383/383/331
f 387/387/335 386/386/334 380/380/328
f 385/385/333 384/384/332 388/388/336
f 386/386/334 388/388/336 384/384/332
f 385/385/333 388/388/336 389/389/337
f 390/390/338 386/386/334 387/387/335
f 390/390/338 388/388/336 386/386/334
f 389/389/337 388/388/336 391/391/339
f 390/390/338 391/391/339 388/388/336
f 389/389/337 391/391/339 392/392/340
f 392/392/340 391/391/339 393/393/341
f 387/387/335 394/394/342 390/390/338
f 394/394/342 391/391/339 390/390/338
f 394/394/342 393/393/341 391/391/339
f 395/395/343 394/394/342 387/387/335
f 396/396/344 393/393/341 394/394/342
f 396/396/344 394/394/342 395/395/343
f 397/397/345 398/398/346 2/3/3
f 397/397/345 2/3/3 399/399/347
f 398/398/346 1/1/1 2/3/3
f 400/400/348 399/399/347 2/3/3
f 401/401/3 4/4/4 5/6/3
f 402/402/349 400/400/348 2/3/3
f 3/2/2 403/403/350 2/3/3
f 404/404/351 402/402/349 2/3/3
f 403/403/350 405/405/352 2/3/3
f 406/406/353 404/404/351 2/3/3
f 405/405/352 407/407/354 2/3/3
f 408/408/355 406/406/353 2/3/3
f 407/407/354 408/408/355 2/3/3
f 409/409/356 411/410/117 410/411/357
f 409/409/356 412/412/358 411/410/117
f 410/411/357 411/410/117 413/413/359
f 414/414/360 411/410/117 412/412/358
f 413/413/359 411/410/117 415/415/361
f 416/416/362 411/410/117 414/414/360
f 415/415/361 411/410/117 417/417/363
f 418/418/364 411/410/117 416/416/362
f 417/417/363 411/410/117 419/419/365
f 420/420/366 411/410/117 418/418/364
f 419/419/365 411/410/117 421/421/367
f 422/422/368 411/410/117 420/420/366
f 421/421/367 411/410/117 422/422/368
f 423/423/369 425/424/370 424/425/371
f 426/426/372 423/423/369 424/425/371
f 425/424/370 427/427/373 424/425/371
f 425/424/370 428/428/374 427/427/373
f 429/429/375 426/426/372 424/425/371
f 430/430/376 426/426/372 429/429/375
f 428/428/374 431/431/377 427/427/373
f 428/428/374 432/432/378 431/431/377
f 424/425/371 427/427/373 433/433/379
f 427/427/373 431/431/377 433/433/379
f 432/432/378 434/434/380 431/431/377
f 432/432/378 435/435/381 434/434/380
f 431/431/377 436/436/382 433/433/379
f 431/431/377 434/434/380 436/436/382
f 435/435/381 437/437/383 434/434/380
f 437/437/383 435/435/381 438/438/384
f 434/434/380 439/439/385 436/436/382
f 439/439/385 434/434/380 437/437/383
f 440/440/386 437/437/383 438/438/384
f 440/440/386 438/438/384 441/441/387
f 442/442/388 439/439/385 437/437/383
f 442/442/388 437/437/383 440/440/386
f 443/443/389 440/440/386 441/441/387
f 441/441/387 444/444/390 443/443/389
f 445/445/391 442/442/388 440/440/386
f 445/445/391 440/440/386 443/443/389
f 444/444/390 446/446/392 443/443/389
f 444/444/390 447/447/393 446/446/392
f 448/448/394 445/445/391 443/443/389
f 448/448/394 443/443/389 446/446/392
f 447/447/393 449/449/395 446/446/392
f 447/447/393 450/450/396 449/449/395
f 451/451/397 448/448/394 446/446/392
f 446/446/392 449/449/395 451/451/397
f 450/450/396 452/452/398 449/449/395
f 450/450/396 453/453/399 452/452/398
f 449/449/395 454/454/400 451/451/397
f 449/449/395 452/452/398 454/454/400
f 453/453/399 455/455/401 452/452/398
f 453/453/399 430/430/376 455/455/401
f 452/452/398 456/456/402 454/454/400
f 452/452/398 455/455/401 456/456/402
f 451/451/397 454/454/400 457/457/403
f 454/454/400 456/456/402 457/457/403
f 430/430/376 458/458/404 455/455/401
f 458/458/404 430/430/376 429/429/375
f 455/455/401 459/459/405 456/456/402
f 455/455/401 458/458/404 460/460/406
f 459/459/405 455/455/401 460/460/406
f 458/458/404 429/429/375 461/461/407
f 460/460/406 458/458/404 461/461/407
f 462/462/408 456/456/402 459/459/405
f 456/456/402 462/462/408 457/457/403
f 463/463/409 459/459/405 460/460/406
f 463/463/409 462/462/408 459/459/405
f 464/464/410 460/460/406 461/461/407
f 464/464/410 463/463/409 460/460/406
f 461/461/407 429/429/375 465/465/411
f 429/429/375 424/425/371 465/465/411
f 465/465/411 424/425/371 433/433/379
f 466/466/412 461/461/407 465/465/411
f 466/466/412 464/464/410 461/461/407
f 467/467/413 465/465/411 433/433/379
f 467/467/413 466/466/412 465/465/411
f 468/468/414 467/467/413 433/433/379
f 433/433/379 436/436/382 468/468/414
f 466/466/412 467/467/413 469/469/415
f 436/436/382 470/470/416 468/468/414
f 436/436/382 439/439/385 470/470/416
f 467/467/413 468/468/414 471/471/417
f 467/467/413 471/471/417 469/469/415
f 468/468/414 470/470/416 472/472/418
f 468/468/414 472/472/418 471/471/417
f 439/439/385 473/473/419 470/470/416
f 470/470/416 474/474/420 472/472/418
f 470/470/416 473/473/419 474/474/420
f 473/473/419 439/439/385 475/475/421
f 439/439/385 442/442/388 475/475/421
f 473/473/419 476/476/422 474/474/420
f 473/473/419 475/475/421 476/476/422
f 475/475/421 442/442/388 477/477/423
f 442/442/388 445/445/391 477/477/423
f 475/475/421 478/478/424 476/476/422
f 475/475/421 477/477/423 478/478/424
f 477/477/423 445/445/391 479/479/425
f 445/445/391 448/448/394 479/479/425
f 477/477/423 480/480/426 478/478/424
f 477/477/423 479/479/425 480/480/426
f 479/479/425 448/448/394 481/481/427
f 448/448/394 451/451/397 481/481/427
f 481/481/427 451/451/397 457/457/403
f 479/479/425 481/481/427 482/482/428
f 479/479/425 482/482/428 480/480/426
f 481/481/427 457/457/403 483/483/429
f 481/481/427 483/483/429 482/482/428
f 457/457/403 484/484/430 483/483/429
f 457/457/403 462/462/408 484/484/430
f 482/482/428 483/483/429 485/485/431
f 462/462/408 486/486/432 484/484/430
f 462/462/408 463/463/409 486/486/432
f 483/483/429 484/484/430 487/487/433
f 483/483/429 487/487/433 485/485/431
f 484/484/430 486/486/432 488/488/434
f 484/484/430 488/488/434 487/487/433
f 463/463/409 489/489/435 486/486/432
f 463/463/409 464/464/410 489/489/435
f 486/486/432 490/490/436 488/488/434
f 486/486/432 489/489/435 490/490/436
f 464/464/410 491/491/437 489/489/435
f 464/464/410 466/466/412 491/491/437
f 466/466/412 469/469/415 491/491/437
f 489/489/435 491/491/437 492/492/438
f 489/489/435 492/492/438 490/490/436
f 491/491/437 469/469/415 493/493/439
f 491/491/437 493/493/439 492/492/438
f 469/469/415 494/494/440 493/493/439
f 469/469/415 471/471/417 494/494/440
f 495/495/441 492/492/438 493/493/439
f 471/471/417 496/496/442 494/494/440
f 471/471/417 472/472/418 496/496/442
f 497/497/443 493/493/439 494/494/440
f 497/497/443 495/495/441 493/493/439
f 498/498/444 494/494/440 496/496/442
f 498/498/444 497/497/443 494/494/440
f 472/472/418 499/499/445 496/496/442
f 472/472/418 474/474/420 499/499/445
f 500/500/446 498/498/444 496/496/442
f 500/500/446 496/496/442 499/499/445
f 474/474/420 501/501/447 499/499/445
f 474/474/420 476/476/422 501/501/447
f 502/502/448 500/500/446 499/499/445
f 502/502/448 499/499/445 501/501/447
f 476/476/422 503/503/449 501/501/447
f 476/476/422 478/478/424 503/503/449
f 504/504/450 502/502/448 501/501/447
f 504/504/450 501/501/447 503/503/449
f 478/478/424 505/505/451 503/503/449
f 478/478/424 480/480/426 505/505/451
f 506/506/452 504/504/450 503/503/449
f 506/506/452 503/503/449 505/505/451
f 480/480/426 507/507/453 505/505/451
f 480/480/426 482/482/428 507/507/453
f 482/482/428 485/485/431 507/507/453
f 508/508/454 505/505/451 507/507/453
f 508/508/454 506/506/452 505/505/451
f 509/509/455 507/507/453 485/485/431
f 509/509/455 508/508/454 507/507/453
f 510/510/456 509/509/455 485/485/431
f 510/510/456 485/485/431 487/487/433
f 508/508/454 509/509/455 511/511/457
f 512/512/458 510/510/456 487/487/433
f 512/512/458 487/487/433 488/488/434
f 509/509/455 510/510/456 513/513/459
f 509/509/455 513/513/459 511/511/457
f 510/510/456 512/512/458 514/514/460
f 510/510/456 514/514/460 513/513/459
f 515/515/461 512/512/458 488/488/434
f 515/515/461 488/488/434 490/490/436
f 512/512/458 516/516/462 514/514/460
f 512/512/458 515/515/461 516/516/462
f 513/513/459 514/514/460 517/517/463
f 513/513/459 517/517/463 518/518/464
f 511/511/457 513/513/459 518/518/464
f 514/514/460 519/519/465 517/517/463
f 514/514/460 516/516/462 519/519/465
f 511/511/457 518/518/464 520/520/466
f 516/516/462 521/521/467 519/519/465
f 522/522/468 511/511/457 520/520/466
f 508/508/454 511/511/457 522/522/468
f 522/522/468 520/520/466 523/523/469
f 506/506/452 508/508/454 522/522/468
f 524/524/470 522/522/468 523/523/469
f 506/506/452 522/522/468 524/524/470
f 524/524/470 523/523/469 525/525/471
f 504/504/450 506/506/452 524/524/470
f 526/526/472 524/524/470 525/525/471
f 504/504/450 524/524/470 526/526/472
f 526/526/472 525/525/471 527/527/473
f 502/502/448 504/504/450 526/526/472
f 528/528/474 526/526/472 527/527/473
f 502/502/448 526/526/472 528/528/474
f 528/528/474 527/527/473 529/529/475
f 500/500/446 502/502/448 528/528/474
f 530/530/476 528/528/474 529/529/475
f 500/500/446 528/528/474 530/530/476
f 530/530/476 529/529/475 531/531/477
f 498/498/444 500/500/446 530/530/476
f 532/532/478 530/530/476 531/531/477
f 498/498/444 530/530/476 532/532/478
f 532/532/478 531/531/477 533/533/479
f 497/497/443 498/498/444 532/532/478
f 534/534/480 532/532/478 533/533/479
f 497/497/443 532/532/478 534/534/480
f 534/534/480 533/533/479 535/535/481
f 495/495/441 497/497/443 534/534/480
f 536/536/482 534/534/480 535/535/481
f 495/495/441 534/534/480 536/536/482
f 536/536/482 535/535/481 537/537/483
f 538/538/484 495/495/441 536/536/482
f 495/495/441 538/538/484 492/492/438
f 538/538/484 490/490/436 492/492/438
f 538/538/484 515/515/461 490/490/436
f 539/539/485 536/536/482 537/537/483
f 538/538/484 536/536/482 539/539/485
f 515/515/461 538/538/484 539/539/485
f 539/539/485 537/537/483 521/521/467
f 515/515/461 539/539/485 516/516/462
f 516/516/462 539/539/485 521/521/467
f 540/540/486 542/541/487 541/542/488
f 543/543/489 542/541/487 540/540/486
f 541/542/488 542/541/487 544/544/490
f 541/542/488 544/544/490 545/545/491
f 546/546/492 542/541/487 543/543/489
f 547/547/493 546/546/492 543/543/489
f 545/545/491 544/544/490 548/548/494
f 545/545/491 548/548/494 549/549/495
f 542/541/487 550/550/496 544/544/490
f 544/544/490 550/550/496 548/548/494
f 549/549/495 548/548/494 551/551/497
f 549/549/495 551/551/497 552/552/498
f 548/548/494 550/550/496 553/553/499
f 548/548/494 553/553/499 551/551/497
f 552/552/498 551/551/497 554/554/500
f 554/554/500 555/555/501 552/552/498
f 551/551/497 553/553/499 556/556/502
f 556/556/502 554/554/500 551/551/497
f 557/557/503 555/555/501 554/554/500
f 557/557/503 558/558/504 555/555/501
f 559/559/505 554/554/500 556/556/502
f 559/559/505 557/557/503 554/554/500
f 560/560/506 558/558/504 557/557/503
f 558/558/504 560/560/506 561/561/507
f 562/562/508 557/557/503 559/559/505
f 562/562/508 560/560/506 557/557/503
f 561/561/507 560/560/506 563/563/509
f 561/561/507 563/563/509 564/564/510
f 565/565/511 560/560/506 562/562/508
f 565/565/511 563/563/509 560/560/506
f 564/564/510 563/563/509 566/566/512
f 564/564/510 566/566/512 567/567/513
f 568/568/514 563/563/509 565/565/511
f 563/563/509 568/568/514 566/566/512
f 567/567/513 566/566/512 569/569/515
f 567/567/513 569/569/515 570/570/516
f 566/566/512 568/568/514 571/571/517
f 566/566/512 571/571/517 569/569/515
f 570/570/516 569/569/515 572/572/518
f 570/570/516 572/572/518 547/547/493
f 569/569/515 571/571/517 573/573/519
f 569/569/515 573/573/519 572/572/518
f 568/568/514 574/574/520 571/571/517
f 571/571/517 574/574/520 573/573/519
f 547/547/493 572/572/518 575/575/521
f 575/575/521 546/546/492 547/547/493
f 572/572/518 573/573/519 576/576/522
f 572/572/518 577/577/523 575/575/521
f 576/576/522 577/577/523 572/572/518
f 575/575/521 578/578/524 546/546/492
f 577/577/523 578/578/524 575/575/521
f 579/579/525 576/576/522 573/573/519
f 573/573/519 574/574/520 579/579/525
f 580/580/526 577/577/523 576/576/522
f 580/580/526 576/576/522 579/579/525
f 581/581/527 578/578/524 577/577/523
f 581/581/527 577/577/523 580/580/526
f 578/578/524 582/582/528 546/546/492
f 546/546/492 582/582/528 542/541/487
f 582/582/528 550/550/496 542/541/487
f 583/583/529 582/582/528 578/578/524
f 583/583/529 578/578/524 581/581/527
f 584/584/530 550/550/496 582/582/528
f 584/584/530 582/582/528 583/583/529
f 585/585/531 550/550/496 584/584/530
f 550/550/496 585/585/531 553/553/499
f 583/583/529 586/586/532 584/584/530
f 553/553/499 585/585/531 587/587/533
f 553/553/499 587/587/533 556/556/502
f 584/584/530 588/588/534 585/585/531
f 584/584/530 586/586/532 588/588/534
f 585/585/531 589/589/535 587/587/533
f 585/585/531 588/588/534 589/589/535
f 556/556/502 587/587/533 590/590/536
f 587/587/533 589/589/535 591/591/537
f 587/587/533 591/591/537 590/590/536
f 590/590/536 592/592/538 556/556/502
f 556/556/502 592/592/538 559/559/505
f 590/590/536 591/591/537 593/593/539
f 590/590/536 593/593/539 592/592/538
f 592/592/538 594/594/540 559/559/505
f 559/559/505 594/594/540 562/562/508
f 592/592/538 593/593/539 595/595/541
f 592/592/538 595/595/541 594/594/540
f 594/594/540 596/596/542 562/562/508
f 562/562/508 596/596/542 565/565/511
f 594/594/540 595/595/541 597/597/543
f 594/594/540 597/597/543 596/596/542
f 596/596/542 598/598/544 565/565/511
f 565/565/511 598/598/544 568/568/514
f 598/598/544 574/574/520 568/568/514
f 596/596/542 599/599/545 598/598/544
f 596/596/542 597/597/543 599/599/545
f 598/598/544 600/600/546 574/574/520
f 598/598/544 599/599/545 600/600/546
f 574/574/520 600/600/546 601/601/547
f 574/574/520 601/601/547 579/579/525
f 599/599/545 602/602/548 600/600/546
f 579/579/525 601/601/547 603/603/549
f 579/579/525 603/603/549 580/580/526
f 600/600/546 604/604/550 601/601/547
f 600/600/546 602/602/548 604/604/550
f 601/601/547 605/605/551 603/603/549
f 601/601/547 604/604/550 605/605/551
f 580/580/526 603/603/549 606/606/552
f 580/580/526 606/606/552 581/581/527
f 603/603/549 605/605/551 607/607/553
f 603/603/549 607/607/553 606/606/552
f 581/581/527 606/606/552 608/608/554
f 581/581/527 608/608/554 583/583/529
f 583/583/529 608/608/554 586/586/532
f 606/606/552 609/609/555 608/608/554
f 606/606/552 607/607/553 609/609/555
f 608/608/554 610/610/556 586/586/532
f 608/608/554 609/609/555 610/610/556
f 586/586/532 610/610/556 611/611/557
f 586/586/532 611/611/557 588/588/534
f 612/612/558 610/610/556 609/609/555
f 588/588/534 611/611/557 613/613/559
f 588/588/534 613/613/559 589/589/535
f 614/614/560 611/611/557 610/610/556
f 614/614/560 610/610/556 612/612/558
f 615/615/561 613/613/559 611/611/557
f 615/615/561 611/611/557 614/614/560
f 589/589/535 613/613/559 616/616/562
f 589/589/535 616/616/562 591/591/537
f 617/617/563 613/613/559 615/615/561
f 617/617/563 616/616/562 613/613/559
f 591/591/537 616/616/562 618/618/564
f 591/591/537 618/618/564 593/593/539
f 619/619/565 616/616/562 617/617/563
f 619/619/565 618/618/564 616/616/562
f 593/593/539 618/618/564 620/620/566
f 593/593/539 620/620/566 595/595/541
f 621/621/567 618/618/564 619/619/565
f 621/621/567 620/620/566 618/618/564
f 595/595/541 620/620/566 622/622/568
f 595/595/541 622/622/568 597/597/543
f 623/623/569 620/620/566 621/621/567
f 623/623/569 622/622/568 620/620/566
f 597/597/543 622/622/568 624/624/570
f 597/597/543 624/624/570 599/599/545
f 599/599/545 624/624/570 602/602/548
f 625/625/571 624/624/570 622/622/568
f 625/625/571 622/622/568 623/623/569
f 626/626/572 602/602/548 624/624/570
f 626/626/572 624/624/570 625/625/571
f 627/627/573 602/602/548 626/626/572
f 627/627/573 604/604/550 602/602/548
f 625/625/571 628/628/574 626/626/572
f 629/629/575 604/604/550 627/627/573
f 629/629/575 605/605/551 604/604/550
f 626/626/572 630/630/576 627/627/573
f 626/626/572 628/628/574 630/630/576
f 627/627/573 631/631/577 629/629/575
f 627/627/573 630/630/576 631/631/577
f 632/632/578 605/605/551 629/629/575
f 632/632/578 607/607/553 605/605/551
f 629/629/575 631/631/577 633/633/579
f 629/629/575 633/633/579 632/632/578
f 630/630/576 634/634/580 631/631/577
f 630/630/576 635/635/581 634/634/580
f 628/628/574 635/635/581 630/630/576
f 631/631/577 634/634/580 636/636/582
f 631/631/577 636/636/582 633/633/579
f 628/628/574 637/637/583 635/635/581
f 633/633/579 636/636/582 638/638/584
f 639/639/585 637/637/583 628/628/574
f 625/625/571 639/639/585 628/628/574
f 623/623/569 639/639/585 625/625/571
f 639/639/585 640/640/586 637/637/583
f 623/623/569 641/641/587 639/639/585
f 641/641/587 640/640/586 639/639/585
f 621/621/567 641/641/587 623/623/569
f 641/641/587 642/642/588 640/640/586
f 621/621/567 643/643/589 641/641/587
f 643/643/589 642/642/588 641/641/587
f 619/619/565 643/643/589 621/621/567
f 643/643/589 644/644/590 642/642/588
f 619/619/565 645/645/591 643/643/589
f 645/645/591 644/644/590 643/643/589
f 617/617/563 645/645/591 619/619/565
f 645/645/591 646/646/592 644/644/590
f 617/617/563 647/647/593 645/645/591
f 647/647/593 646/646/592 645/645/591
f 615/615/561 647/647/593 617/617/563
f 647/647/593 648/648/594 646/646/592
f 615/615/561 649/649/595 647/647/593
f 649/649/595 648/648/594 647/647/593
f 614/614/560 649/649/595 615/615/561
f 649/649/595 650/650/596 648/648/594
f 614/614/560 651/651/597 649/649/595
f 651/651/597 650/650/596 649/649/595
f 612/612/558 651/651/597 614/614/560
f 651/651/597 652/652/598 650/650/596
f 653/653/599 652/652/598 651/651/597
f 612/612/558 653/653/599 651/651/597
f 653/653/599 654/654/600 652/652/598
f 655/655/601 653/653/599 612/612/558
f 612/612/558 609/609/555 655/655/601
f 655/655/601 609/609/555 607/607/553
f 655/655/601 607/607/553 632/632/578
f 656/656/602 654/654/600 653/653/599
f 655/655/601 656/656/602 653/653/599
f 632/632/578 656/656/602 655/655/601
f 656/656/602 638/638/584 654/654/600
f 632/632/578 633/633/579 656/656/602
f 633/633/579 638/638/584 656/656/602
