# 
# 
mtllib Office_Chair.mtl
o OfficeChair
v 0.511528 0.949540 0.052368
v 0.411468 0.876970 0.200108
v 0.511156 0.855730 0.698330
v 0.518814 0.987660 0.663654
v 0.401658 1.355422 -0.243830
v -0.013100 1.143810 -0.139664
v 0.201386 1.149122 -0.122404
v 0.400452 1.326526 -0.182370
v 0.401610 1.156262 -0.087114
v 0.199580 1.030888 -0.015372
v 0.399428 1.030000 0.045390
v 0.353824 0.983596 0.055644
v 0.348104 0.904676 0.224482
v 0.207020 0.874618 0.315776
v 0.199570 0.882592 0.447782
v 0.205906 0.947400 0.656766
v -0.013098 0.866280 0.448850
v -0.013098 0.851200 0.316000
v -0.013098 0.853024 0.213746
v -0.013098 0.947216 0.037332
v -0.013098 1.015194 -0.032850
v -0.227586 1.149122 -0.122406
v -0.225780 1.030888 -0.015372
v -0.380024 0.983596 0.055642
v -0.374304 0.904674 0.224482
v -0.233220 0.874618 0.315776
v -0.225772 0.882592 0.447782
v -0.426134 0.974742 0.609642
v -0.425944 0.916708 0.429458
v -0.433832 0.915086 0.278552
v -0.427810 1.156262 -0.087114
v -0.235790 1.346810 -0.253998
v -0.426652 1.326526 -0.182370
v 0.306714 2.051640 -0.339418
v 0.397452 2.052740 -0.341454
v 0.297458 2.240300 -0.420810
v 0.295478 2.212500 -0.421048
v 0.301046 2.183580 -0.324034
v 0.396970 2.217520 -0.322356
v 0.115178 2.249820 -0.578058
v 0.243632 2.235500 -0.510130
v 0.304284 1.622668 -0.245626
v 0.300974 1.601078 -0.342160
v 0.120674 1.523158 -0.483474
v 0.400386 1.777096 -0.306372
v 0.401232 1.623062 -0.245958
v 0.325780 2.571680 -0.225760
v 0.330258 2.571740 -0.258134
v 0.114756 2.453320 -0.604186
v 0.104478 2.431140 -0.511164
v -0.016050 2.404920 -0.418778
v 0.077392 2.474900 -0.687866
v -0.431694 0.952194 0.057218
v -0.437668 0.876970 0.200106
v -0.537728 0.949540 0.052368
v -0.330880 2.217420 -0.322226
v -0.327582 2.212480 -0.421048
v -0.429074 2.217520 -0.322356
v -0.275736 2.235500 -0.510130
v -0.329562 2.240300 -0.420810
v -0.276588 2.259700 -0.508890
v -0.327174 1.601078 -0.342162
v -0.329262 1.574262 -0.334484
v -0.330484 1.622668 -0.245626
v -0.332738 1.654776 -0.255828
v -0.275326 1.555120 -0.421846
v -0.361788 2.439440 -0.377822
v -0.360982 2.497000 -0.288486
v -0.357788 2.470400 -0.265124
v -0.357658 2.421780 -0.276344
v -0.109496 2.474900 -0.687866
v -0.016050 2.433960 -0.540892
v 0.517552 0.869642 0.201804
v 0.405494 0.952194 0.057218
v 0.250198 1.531834 -0.414274
v 0.249128 1.555120 -0.421846
v 0.398400 2.453440 -0.399276
v 0.307732 2.479780 -0.512406
v 0.310830 2.712180 -0.422466
v 0.400980 2.571260 -0.225268
v 0.400790 2.422140 -0.277906
v 0.325684 2.470400 -0.265124
v 0.401536 2.470300 -0.265714
v 0.387128 2.496860 -0.285072
v 0.329298 2.497000 -0.288486
v 0.325672 2.614200 -0.205964
v -0.536272 1.029522 0.042800
v -0.333150 2.183580 -0.324034
v -0.337060 1.778044 -0.305366
v -0.428248 1.800642 -0.354382
v -0.357884 2.571680 -0.225762
v -0.433084 2.571260 -0.225268
v -0.362780 2.571740 -0.258136
v -0.419232 2.496860 -0.285074
v -0.432894 2.422140 -0.277906
v -0.432354 2.613660 -0.205268
v -0.357776 2.614200 -0.205964
v -0.044220 0.007128 0.836254
v -0.008008 0.007528 -0.104372
v -0.641612 0.007128 -0.331868
v 0.402048 1.800644 -0.354382
v 0.311320 1.800964 -0.351970
v 0.084108 1.583024 -0.424158
v -0.013098 1.625706 -0.343040
v -0.013098 1.686654 -0.323402
v -0.013098 1.755638 -0.343878
v -0.337520 1.800964 -0.351970
v 0.310860 1.778044 -0.305366
v 0.306538 1.654778 -0.255826
v 0.088718 1.312690 -0.300082
v 0.209590 1.346810 -0.253996
v 0.519330 1.365166 -0.223006
v -0.136560 1.205104 -0.503274
v -0.224082 1.255366 -0.396612
v -0.156116 1.270508 -0.377682
v -0.427858 1.355422 -0.243830
v -0.016050 2.199060 -0.472728
v -0.016052 2.188540 -0.415328
v -0.110744 2.207980 -0.504896
v -0.016050 2.025200 -0.411142
v -0.016050 2.062000 -0.381734
v -0.016050 2.135040 -0.380118
v -0.340580 2.018720 -0.384546
v -0.338818 2.051640 -0.339418
v 0.098270 2.621820 -0.572740
v 0.164932 0.697880 -0.056884
v 0.206990 0.785240 -0.031946
v -0.191130 0.697880 -0.056884
v -0.156810 0.809512 -0.190134
v -0.013098 0.707468 -0.160936
v -0.013098 0.720908 -0.191692
v 0.206880 0.688740 0.159350
v 0.162242 0.613484 0.158818
v 0.111188 0.583830 0.429208
v 0.203438 0.782208 0.709090
v 0.110236 0.689470 0.724798
v -0.013098 0.561230 0.429060
v -0.136436 0.689470 0.724798
v -0.137386 0.583832 0.429208
v -0.230924 0.679886 0.435692
v -0.188440 0.613484 0.158818
v -0.013098 0.562420 0.244946
v 0.125632 0.426666 0.146158
v -0.013098 0.427324 -0.096830
v -0.130372 2.621820 -0.572740
v -0.342934 2.712180 -0.422468
v -0.013098 1.681500 -0.782526
v -0.100792 1.688190 -0.752432
v -0.144372 1.422874 -0.525140
v -0.140466 1.712600 -0.683404
v -0.148220 2.051020 -0.721348
v -0.108526 2.060800 -0.789506
v -0.016050 2.066620 -0.820870
v 0.076422 2.060800 -0.789506
v 0.074592 1.688190 -0.752432
v 0.116118 2.051020 -0.721348
v 0.114268 1.712600 -0.683404
v 0.066882 1.384178 -0.607634
v -0.339422 2.033360 -0.615178
v 0.310306 1.734478 -0.574894
v 0.115052 2.286680 -0.661386
v 0.119420 1.474726 -0.556060
v 0.311640 1.510348 -0.480670
v -0.537528 0.912100 0.431452
v -0.542166 0.909422 0.281658
v 0.516594 1.154782 -0.089224
v 0.399746 0.916708 0.429460
v 0.407634 0.915086 0.278552
v -0.425628 1.030000 0.045390
v -0.147282 2.249820 -0.578058
v -0.145006 2.335160 -0.644506
v 0.078012 2.297060 -0.488658
v 0.078640 2.207980 -0.504896
v 0.122732 2.319500 -0.569270
v 0.128138 1.457286 -0.460364
v -0.013098 1.600254 -0.395514
v -0.109638 1.501456 -0.384698
v -0.110308 1.583024 -0.424158
v -0.146872 1.523158 -0.483476
v -0.154832 1.499700 -0.477172
v -0.145620 1.474726 -0.556060
v 0.074338 2.653420 -0.640552
v 0.067720 2.791640 -0.547456
v 0.083500 2.755860 -0.483782
v -0.016050 2.665080 -0.668804
v -0.016050 2.484380 -0.719862
v -0.106442 2.653420 -0.640552
v -0.099824 2.791640 -0.547456
v -0.016052 2.805660 -0.575126
v 0.051626 2.450460 -0.425172
v 0.050306 2.411800 -0.434824
v -0.082408 2.411800 -0.434824
v -0.136582 2.431140 -0.511164
v -0.137996 2.465920 -0.502212
v -0.146858 2.453340 -0.604186
v -0.115604 2.755860 -0.483782
v 0.307318 2.033360 -0.615178
v 0.397664 2.239560 -0.432374
v 0.308044 2.267740 -0.578088
v -0.276398 1.531834 -0.414274
v -0.337840 1.510348 -0.480672
v 0.298776 2.217420 -0.322226
v 0.244484 2.259700 -0.508890
v 0.122994 2.279280 -0.575028
v 0.303062 1.574262 -0.334482
v 0.402252 1.574598 -0.345242
v 0.128634 1.499700 -0.477170
v 0.387230 2.571040 -0.257350
v -0.429766 2.239560 -0.432374
v -0.155098 2.279280 -0.575028
v -0.147156 2.286680 -0.661386
v -0.336506 1.734478 -0.574894
v -0.340148 2.267740 -0.578090
v -0.433640 2.470300 -0.265716
v -0.430504 2.453440 -0.399276
v -0.419334 2.571040 -0.257350
v -0.431386 2.660560 -0.321492
v -0.339836 2.479780 -0.512406
v -0.146960 2.491780 -0.598882
v 0.325554 2.421780 -0.276344
v 0.261506 2.456880 -0.466400
v 0.114856 2.491780 -0.598880
v 0.105894 2.465900 -0.502212
v 0.126260 0.426868 -0.022972
v -0.013098 0.420260 0.064482
v -0.013098 0.427680 0.224772
v -0.151830 0.426666 0.146158
v -0.152460 0.426868 -0.022972
v -0.120188 0.644910 -0.602066
v -0.106814 0.685388 -0.639920
v -0.102064 0.603662 -0.566864
v -0.013098 0.621710 -0.626312
v -0.013098 0.566130 -0.535744
v -0.064702 0.575010 -0.541872
v -0.080528 0.821642 -0.599624
v -0.013098 0.961034 -0.559442
v -0.013098 0.820382 -0.617584
v 0.054328 0.821642 -0.599624
v -0.013098 0.722620 -0.678170
v -0.068584 0.714712 -0.668122
v -0.128874 0.785072 -0.567696
v -0.139056 0.738802 -0.519786
v -0.117750 0.689576 -0.474556
v -0.071628 0.653922 -0.447244
v -0.013098 0.639488 -0.438068
v 0.045428 0.653922 -0.447244
v 0.038504 0.575010 -0.541872
v 0.075866 0.603662 -0.566862
v 0.141100 0.938212 -0.481722
v 0.102676 0.785072 -0.567696
v 0.080614 0.685388 -0.639920
v 0.112858 0.738802 -0.519786
v 0.124732 0.791464 -0.340342
v 0.091550 0.689576 -0.474556
v -0.013098 0.699812 -0.299626
v -0.150930 0.791464 -0.340342
v -0.167298 0.938212 -0.481722
v 0.093988 0.644910 -0.602066
v 0.197882 1.255366 -0.396612
v 0.226510 0.988174 -0.258314
v 0.130610 0.809512 -0.190134
v -0.252708 0.988174 -0.258314
v 0.110360 1.205104 -0.503274
v 0.042386 0.714712 -0.668122
v 0.401172 2.037320 -0.462396
v 0.399186 2.018460 -0.386896
v 0.404426 1.767986 -0.425574
v -0.428452 1.574598 -0.345244
v -0.427432 1.623062 -0.245960
v -0.430626 1.767986 -0.425574
v -0.426584 1.777096 -0.306374
v -0.431290 2.018460 -0.386898
v -0.433276 2.037320 -0.462396
v -0.429556 2.052740 -0.341454
v 0.105644 1.281916 -0.519648
v -0.013100 1.334730 -0.428784
v -0.154686 1.340130 -0.411752
v 0.084618 1.379956 -0.337204
v 0.128488 1.340130 -0.411752
v -0.113688 2.321500 -0.644694
v -0.113688 2.485780 -0.591498
v -0.014924 2.340080 -0.714004
v -0.014924 2.504360 -0.660808
v 0.083836 2.321500 -0.644694
v 0.083836 2.485780 -0.591498
v 0.046112 2.291460 -0.532548
v 0.046112 2.455740 -0.479352
v -0.075964 2.291460 -0.532548
v -0.075964 2.455740 -0.479352
v -0.077220 0.162362 0.157674
v -0.117500 0.162362 0.033702
v -0.117500 0.475666 0.034018
v -0.012044 0.162362 -0.042916
v -0.012044 0.475666 -0.042600
v 0.093412 0.162362 0.033702
v 0.093412 0.475666 0.034018
v 0.053130 0.162362 0.157674
v 0.053130 0.475666 0.157990
v -0.077220 0.475666 0.157990
v -0.073804 1.497056 -0.429894
v -0.111122 1.263332 -0.447634
v -0.111122 1.448516 -0.533986
v -0.013422 1.233334 -0.511966
v -0.013422 1.418516 -0.598320
v 0.084278 1.263332 -0.447634
v 0.084278 1.448516 -0.533986
v 0.046960 1.311872 -0.343542
v 0.046960 1.497056 -0.429894
v -0.073804 1.311872 -0.343542
v -0.233190 0.785240 -0.031946
v -0.233080 0.688740 0.159350
v -0.229638 0.782208 0.709090
v 0.516852 0.860634 0.006998
v 0.204724 0.679886 0.435692
v 0.515554 0.769706 0.440658
v 0.327942 2.653440 -0.295510
v 0.293890 2.597260 -0.294330
v 0.230326 2.627440 -0.332188
v 0.291188 2.470880 -0.346424
v 0.238462 2.490060 -0.388304
v 0.329684 2.439440 -0.377822
v 0.090292 2.647480 -0.358676
v -0.016052 2.689480 -0.336594
v -0.016052 2.607160 -0.302736
v 0.057742 2.622120 -0.318490
v -0.016052 2.475160 -0.363130
v 0.054068 2.481820 -0.378824
v 0.098724 2.493980 -0.410108
v -0.016050 2.443580 -0.408508
v -0.083730 2.450460 -0.425172
v -0.086172 2.481820 -0.378824
v -0.130828 2.493980 -0.410108
v -0.293610 2.456880 -0.466400
v -0.270566 2.490060 -0.388304
v -0.323292 2.470880 -0.346426
v -0.325994 2.597260 -0.294332
v -0.262432 2.627440 -0.332188
v -0.122398 2.647480 -0.358676
v -0.089846 2.622120 -0.318490
v -0.097580 2.731660 -0.407442
v -0.016050 2.284500 -0.455812
v -0.016050 2.332480 -0.615094
v 0.112902 2.335160 -0.644504
v 0.076160 2.355880 -0.718532
v -0.016050 2.364640 -0.757704
v -0.108264 2.355880 -0.718532
v -0.154836 2.319500 -0.569270
v -0.110116 2.297060 -0.488658
v -0.013098 1.375670 -0.629652
v -0.013100 1.441998 -0.490902
v 0.118172 1.422874 -0.525140
v 0.083438 1.501456 -0.384698
v -0.013098 1.522284 -0.356410
v -0.154338 1.457286 -0.460364
v -0.093082 1.384178 -0.607634
v 0.514290 1.304578 -0.324576
v 0.514970 1.059626 -0.190214
v 0.510072 1.029522 0.042802
v 0.516574 0.775002 0.178460
v 0.515966 0.909422 0.281658
v 0.511330 0.912100 0.431452
v -0.541752 0.769706 0.440658
v -0.542772 0.775002 0.178460
v -0.543752 0.869642 0.201804
v -0.543052 0.860634 0.006996
v -0.541168 1.059626 -0.190214
v -0.542794 1.154782 -0.089224
v -0.540490 1.304578 -0.324578
v 0.151366 0.185214 0.170428
v -0.005706 0.185214 -0.101632
v -0.162782 0.185214 0.170428
v -0.656786 0.066366 -0.249494
v -0.164004 0.007528 0.173792
v -0.683478 0.007128 -0.259354
v -0.617408 0.066366 -0.317696
v 0.154890 0.007528 0.169804
v 0.034704 0.066368 0.808208
v 0.039510 0.007128 0.836254
v -0.044048 0.066368 0.808208
v 0.644332 0.066368 -0.251288
v 0.668706 0.007130 -0.265162
v 0.626842 0.007130 -0.337676
v 0.604956 0.066368 -0.319490
v -0.425640 1.036896 0.499068
v -0.423644 1.180158 0.416422
v -0.425628 1.150572 0.383986
v -0.425270 1.293650 0.282204
v -0.424584 1.449386 0.196312
v -0.424824 1.428500 0.052776
v -0.424962 1.400368 -0.061422
v 0.398288 1.479982 0.047870
v 0.519314 1.482354 0.052610
v 0.398384 1.449384 0.196312
v 0.519572 1.333438 0.312428
v 0.397444 1.180160 0.416422
v 0.519966 1.182954 0.420618
v 0.402718 0.979440 0.661524
v -0.545532 1.365164 -0.223008
v -0.424434 1.449646 -0.081794
v -0.424488 1.479982 0.047870
v -0.545514 1.482354 0.052610
v -0.545242 1.451896 0.201074
v -0.424028 1.330788 0.308194
v -0.545772 1.333438 0.312428
v -0.423666 1.061806 0.538204
v -0.546338 1.428916 0.052932
v -0.424572 1.402454 0.183646
v -0.546602 1.402800 0.183952
v -0.548676 0.968660 0.612600
v 0.521184 1.323436 -0.186156
v 0.520138 1.428916 0.052932
v 0.398372 1.402454 0.183646
v 0.519322 1.037130 0.499404
v 0.399934 0.974742 0.609642
v 0.398234 1.449646 -0.081794
v 0.398762 1.400366 -0.061422
v 0.398624 1.428500 0.052776
v 0.397826 1.330788 0.308194
v 0.399070 1.293650 0.282204
v 0.399428 1.150572 0.383986
v 0.399440 1.036896 0.499068
v 0.397466 1.061806 0.538204
v -0.547384 1.323434 -0.186156
v -0.546204 1.400802 -0.061442
v -0.545720 1.451990 -0.077500
v -0.545906 1.293916 0.282524
v -0.545542 1.150814 0.384306
v -0.546166 1.182954 0.420616
v -0.545522 1.037128 0.499402
v -0.546212 1.064774 0.542112
v -0.013100 0.923992 0.668974
v -0.013100 0.781198 0.716634
v -0.013100 0.667886 0.737550
v -0.232106 0.947400 0.656766
v -0.537356 0.855730 0.698330
v -0.428918 0.979440 0.661522
v -0.545014 0.987660 0.663654
v 0.522476 0.968660 0.612602
v 0.520012 1.064774 0.542112
v 0.519342 1.150814 0.384306
v 0.519706 1.293918 0.282524
v 0.519040 1.451896 0.201074
v 0.520402 1.402800 0.183952
v 0.519520 1.451990 -0.077498
v 0.520004 1.400802 -0.061442
v -0.013098 1.250678 -0.573556
v -0.131844 1.281916 -0.519648
v -0.114918 1.312690 -0.300082
v -0.110818 1.379956 -0.337204
v -0.013100 1.332228 -0.255382
v -0.013100 1.404006 -0.291638
v 0.129918 1.270508 -0.377682
v -0.013098 1.176442 -0.559686
v -0.360046 2.653440 -0.295510
v -0.296836 2.699920 -0.375140
v -0.016052 2.735140 -0.404468
v 0.065476 2.731660 -0.407442
v 0.264732 2.699920 -0.375140
v 0.399282 2.660560 -0.321492
v 0.400248 2.613660 -0.205268
v -0.013098 1.797966 -0.381384
v 0.280104 1.863490 -0.315650
v 0.308476 2.018720 -0.384544
v 0.278278 1.973136 -0.333502
v -0.016050 1.963730 -0.371722
v -0.013098 1.859584 -0.356192
v -0.306304 1.863490 -0.315650
v -0.310384 1.973136 -0.333504
vt 0.804199 0.841919
vt 0.898926 0.734375
vt 0.804199 0.733643
vt 0.896484 0.642578
vt 0.804199 0.643066
vt 0.834473 0.590820
vt 0.893555 0.378906
vt 0.991211 0.377930
vt 0.887207 0.241211
vt 0.990723 0.443848
vt 0.888672 0.444336
vt 0.990723 0.494141
vt 0.835449 0.493164
vt 0.990723 0.597900
vt 0.990723 0.649658
vt 0.989258 0.748535
vt 0.804199 0.270996
vt 0.804199 0.377930
vt 0.804199 0.448730
vt 0.874512 0.880615
vt 0.038879 0.167480
vt 0.178467 0.204590
vt 0.038879 0.195801
vt 0.177979 0.146484
vt 0.038879 0.135742
vt 0.921387 0.993187
vt 0.878906 0.945557
vt 0.916992 0.929505
vt 0.073974 0.459473
vt 0.038879 0.405762
vt 0.033538 0.433594
vt 0.179321 0.322266
vt 0.038879 0.319824
vt 0.179199 0.336914
vt 0.038879 0.337402
vt 0.038879 0.368652
vt 0.546875 0.566162
vt 0.544434 0.637695
vt 0.490479 0.615479
vt 0.490479 0.630859
vt 0.600586 0.494629
vt 0.600586 0.581055
vt 0.547363 0.490723
vt 0.551270 0.378418
vt 0.553223 0.270996
vt 0.601563 0.270996
vt 0.490234 0.377930
vt 0.490234 0.436523
vt 0.438232 0.498535
vt 0.271484 0.838623
vt 0.310547 0.676758
vt 0.271240 0.686279
vt 0.310547 0.842407
vt 0.355713 0.675781
vt 0.355957 0.842529
vt 0.311035 0.530518
vt 0.172974 0.832886
vt 0.272461 0.951294
vt 0.272461 0.564941
vt 0.173096 0.684814
vt 0.172241 0.577393
vt 0.035705 0.493652
vt 0.063171 0.523437
vt 0.075500 0.095215
vt 0.052948 0.057617
vt 0.036590 0.112305
vt 0.109070 0.057129
vt 0.105591 0.033691
vt 0.535645 0.699707
vt 0.538574 0.784790
vt 0.479736 0.785645
vt 0.485107 0.698730
vt 0.649902 0.873901
vt 0.650879 0.852661
vt 0.595703 0.872314
vt 0.172241 0.932435
vt 0.101135 0.924073
vt 0.917480 0.016113
vt 0.950195 0.101074
vt 0.917969 0.138672
vt 0.548828 0.033203
vt 0.548828 0.004395
vt 0.620605 0.038574
vt 0.792969 0.944886
vt 0.822754 0.996617
vt 0.752930 0.994359
vt 0.852539 0.946778
vt 0.269775 0.112793
vt 0.258301 0.145508
vt 0.267822 0.077637
vt 0.197388 0.100586
vt 0.226685 0.016602
vt 0.257324 0.048828
vt 0.284180 0.189941
vt 0.300537 0.221191
vt 0.251221 0.203613
vt 0.201782 0.185547
vt 0.238525 0.168945
vt 0.311523 0.165527
vt 0.324707 0.125488
vt 0.323975 0.082031
vt 0.309082 0.047852
vt 0.287598 0.017578
vt 0.384521 0.196777
vt 0.397705 0.086914
vt 0.348389 0.019043
vt 0.482666 0.304199
vt 0.488770 0.155762
vt 0.446045 0.054687
vt 0.407471 0.309082
vt 0.101135 0.828125
vt 0.066528 0.823120
vt 0.101135 0.688721
vt 0.101135 0.592041
vt 0.045105 0.608887
vt 0.045105 0.689453
vt 0.045135 0.840454
vt 0.839844 0.939301
vt 0.822754 0.996605
vt 0.875488 0.957550
vt 0.784180 0.950287
vt 0.365479 0.637451
vt 0.478516 0.637451
vt 0.365479 0.662598
vt 0.478516 0.662598
vt 0.365479 0.687988
vt 0.478516 0.687988
vt 0.365479 0.713379
vt 0.478516 0.713379
vt 0.365479 0.738770
vt 0.478516 0.738770
vt 0.417480 0.578125
vt 0.365234 0.578125
vt 0.417480 0.550537
vt 0.365234 0.550537
vt 0.417480 0.523193
vt 0.365234 0.523193
vt 0.417480 0.495605
vt 0.365234 0.495605
vt 0.364258 0.857666
vt 0.477051 0.857666
vt 0.364258 0.886047
vt 0.477051 0.829224
vt 0.364258 0.829224
vt 0.477051 0.800903
vt 0.364258 0.800903
vt 0.477051 0.772461
vt 0.364258 0.772461
vt 0.477051 0.744141
vt 0.635742 0.131836
vt 0.607910 0.146484
vt 0.635254 0.066406
vt 0.611816 0.067871
vt 0.651855 0.049805
vt 0.651855 0.153809
vt 0.492676 0.136719
vt 0.543457 0.156738
vt 0.492676 0.174316
vt 0.520996 0.143066
vt 0.492676 0.057617
vt 0.519043 0.061035
vt 0.546875 0.063477
vt 0.492676 0.025391
vt 0.517578 0.027832
vt 0.875488 0.957520
vt 0.823242 0.996674
vt 0.839355 0.939728
vt 0.888672 0.998408
vt 0.769043 0.958771
vt 0.805176 0.941010
vt 0.752930 0.994366
vt 0.888672 0.998352
vt 0.824219 0.996289
vt 0.769531 0.958100
vt 0.753418 0.994370
vt 0.709961 0.497559
vt 0.738770 0.503418
vt 0.710449 0.581055
vt 0.262207 0.387695
vt 0.319336 0.363281
vt 0.304688 0.423340
vt 0.427002 0.414551
vt 0.317139 0.475586
vt 0.452881 0.421875
vt 0.430664 0.399414
vt 0.208496 0.381836
vt 0.193726 0.499023
vt 0.173340 0.519531
vt 0.204346 0.508057
vt 0.250977 0.266602
vt 0.240234 0.241699
vt 0.258057 0.234375
vt 0.265381 0.260254
vt 0.474121 0.979813
vt 0.474121 0.993554
vt 0.408936 0.979752
vt 0.531738 0.979828
vt 0.586914 0.889221
vt 0.636230 0.923279
vt 0.636719 0.889282
vt 0.531250 0.922730
vt 0.474121 0.888428
vt 0.474121 0.922547
vt 0.531738 0.888672
vt 0.586426 0.923218
vt 0.636230 0.938416
vt 0.586426 0.979599
vt 0.586914 0.938569
vt 0.408936 0.939270
vt 0.474121 0.939698
vt 0.408936 0.922425
vt 0.804688 0.253906
vt 0.759766 0.207520
vt 0.760254 0.253906
vt 0.531738 0.939332
vt 0.003316 0.360840
vt 0.033935 0.318359
vt 0.003520 0.317871
vt 0.034179 0.360352
vt 0.150146 0.246094
vt 0.150513 0.294922
vt 0.038879 0.291016
vt 0.038879 0.244629
vt 0.038879 0.215820
vt 0.759277 0.583008
vt 0.804199 0.496094
vt 0.759766 0.500244
vt 0.804199 0.583496
vt 0.743652 0.254395
vt 0.804199 0.870850
vt 0.873535 0.879089
vt 0.991211 0.230957
vt 0.988770 0.882446
vt 0.805176 0.872437
vt 0.006229 0.840454
vt 0.045410 0.823120
vt 0.006397 0.823975
vt 0.016677 0.609863
vt 0.004856 0.622803
vt 0.170288 0.446777
vt 0.195068 0.411621
vt 0.185059 0.453125
vt 0.178955 0.394043
vt 0.005950 0.905823
vt 0.045105 0.924012
vt 0.024368 0.930420
vt 0.156372 0.492187
vt 0.147095 0.477539
vt 0.090271 0.500732
vt 0.093444 0.517822
vt 0.077636 0.509033
vt 0.177246 0.115723
vt 0.195923 0.131348
vt 0.186157 0.099609
vt 0.153320 0.065430
vt 0.153076 0.088379
vt 0.005470 0.689697
vt 0.687500 0.135742
vt 0.687500 0.150391
vt 0.673828 0.125488
vt 0.673828 0.081055
vt 0.687500 0.071777
vt 0.687500 0.057617
vt 0.839844 0.939881
vt 0.823242 0.996703
vt 0.805664 0.941071
vt 0.769043 0.958680
vt 0.888672 0.998396
vt 0.759766 0.456055
vt 0.759277 0.640381
vt 0.854492 0.011719
vt 0.856445 0.150391
vt 0.963379 0.109863
vt 0.996094 0.109863
vt 0.963379 0.102051
vt 0.996094 0.102051
vt 0.963379 0.049805
vt 0.996094 0.049805
vt 0.963379 0.023926
vt 0.963379 0.040039
vt 0.996094 0.023926
vt 0.996094 0.040039
vt 0.996094 0.126953
vt 0.963379 0.126953
vt 0.004917 0.702148
vt 0.045684 0.702881
vt 0.685059 0.181641
vt 0.541992 0.249023
vt 0.704102 0.255859
vt 0.547852 0.268555
vt 0.759766 0.201660
vt 0.177979 0.215820
vt 0.941895 0.897156
vt 0.758301 0.871338
vt 0.760742 0.918885
vt 0.877930 0.944031
vt 0.761719 0.920472
vt 0.706055 0.167480
vt 0.721680 0.080566
vt 0.721680 0.007324
vt 0.601074 0.727051
vt 0.601074 0.378418
vt 0.489990 0.270996
vt 0.438232 0.553711
vt 0.422607 0.592773
vt 0.422852 0.458496
vt 0.356689 0.528564
vt 0.272705 0.542236
vt 0.311035 0.986039
vt 0.356689 0.992402
vt 0.272705 0.973008
vt 0.759766 0.270996
vt 0.759766 0.379395
vt 0.759277 0.725830
vt 0.758789 0.842285
vt 0.103760 0.531738
vt 0.084838 0.547852
vt 0.006568 0.463379
vt 0.086914 0.019531
vt 0.120667 0.015625
vt 0.099365 0.000977
vt 0.017013 0.076172
vt 0.542480 0.874390
vt 0.593750 0.849243
vt 0.581543 0.784912
vt 0.579590 0.698486
vt 0.488281 0.878357
vt 0.705566 0.856689
vt 0.703613 0.879822
vt 0.742676 0.863892
vt 0.739746 0.886536
vt 0.045166 0.567139
vt 0.100830 0.552002
vt 0.172852 0.537354
vt 0.271484 0.524902
vt 0.045105 0.962952
vt 0.101135 0.960541
vt 0.172119 0.963501
vt 0.272949 0.983887
vt 0.949707 0.049805
vt 0.695801 0.038086
vt 0.659668 0.026855
vt 0.625977 0.016113
vt 0.889160 0.998454
vt 0.382568 0.008301
vt 0.345947 0.303223
vt 0.066833 0.702881
vt 0.752930 0.994355
vt 0.889160 0.998430
vt 0.365479 0.612061
vt 0.478516 0.612061
vt 0.417480 0.605713
vt 0.365234 0.605713
vt 0.417480 0.468262
vt 0.365234 0.468262
vt 0.477051 0.886047
vt 0.364258 0.744141
vt 0.601563 0.842896
vt 0.710449 0.842896
vt 0.710449 0.726562
vt 0.709473 0.379395
vt 0.709961 0.270996
vt 0.622070 0.178711
vt 0.533203 0.195801
vt 0.492676 0.197266
vt 0.805664 0.940979
vt 0.839844 0.940003
vt 0.739746 0.581787
vt 0.457520 0.403320
vt 0.357178 0.320801
vt 0.186523 0.530518
vt 0.372803 0.995430
vt 0.362793 0.979752
vt 0.407959 0.994042
vt 0.531250 0.994046
vt 0.587402 0.994526
vt 0.636230 0.979874
vt 0.636719 0.994282
vt 0.681152 0.979737
vt 0.681152 0.994069
vt 0.738770 0.979889
vt 0.748047 0.993519
vt 0.744629 0.889038
vt 0.681152 0.889343
vt 0.738770 0.923279
vt 0.681152 0.923279
vt 0.408936 0.888550
vt 0.361816 0.888611
vt 0.363037 0.922669
vt 0.738770 0.938935
vt 0.681152 0.938477
vt 0.363281 0.938599
vt 0.774902 0.923768
vt 0.890137 0.177734
vt 0.990723 0.174805
vt 0.934570 0.141602
vt 0.990723 0.132324
vt 0.034088 0.167969
vt 0.002830 0.221191
vt 0.033752 0.221680
vt 0.003410 0.280273
vt 0.034057 0.281738
vt 0.003751 0.164062
vt 0.693359 0.175781
vt 0.661133 0.179199
vt 0.633301 0.201172
vt 0.540527 0.224609
vt 0.536621 0.251465
vt 0.492676 0.263672
vn -0.501236 0.278695 0.819178
vn -0.134526 0.598468 0.789758
vn -0.078127 0.608020 0.790033
vn -0.133885 0.681509 0.719443
vn -0.067171 0.488723 0.869839
vn 0.000244 0.652150 0.758080
vn -0.134007 0.972930 -0.188116
vn 0.000000 0.981109 -0.193426
vn -0.114292 0.872524 0.474960
vn 0.000000 0.999207 -0.039216
vn -0.147099 0.989074 0.007080
vn 0.000000 0.965361 0.260811
vn 0.052278 0.988769 0.139866
vn 0.000000 0.813196 0.581957
vn 0.000000 0.685995 0.727561
vn 0.000000 0.589984 0.807398
vn 0.134526 0.598468 0.789758
vn 0.133854 0.681509 0.719443
vn -0.000244 0.652120 0.758080
vn -0.052278 0.988769 0.139836
vn 0.147099 0.989074 0.007080
vn 0.134007 0.972930 -0.188116
vn 0.642659 0.663198 -0.383526
vn 0.076022 0.983398 -0.164678
vn 0.010193 0.984375 -0.175634
vn 0.078127 0.608020 0.790033
vn 0.105411 0.979797 0.169897
vn 0.000000 0.020447 0.999786
vn -0.062227 0.675069 0.735099
vn 0.000000 0.502060 0.864803
vn -0.298410 0.111698 0.947844
vn 0.000000 -0.701956 0.712210
vn -0.677267 0.043489 -0.734397
vn -0.371471 0.492264 -0.787164
vn -0.624622 0.710196 -0.324686
vn -0.276406 0.715140 0.641987
vn 0.000000 0.866543 0.499069
vn 0.000000 0.671224 0.741203
vn -0.113712 -0.280740 0.953001
vn 0.000000 -0.051027 0.998688
vn 0.048097 -0.491836 0.869350
vn 0.000000 -0.344035 0.938932
vn 0.000000 0.244758 0.969573
vn -0.796289 -0.360027 -0.486068
vn -0.702780 -0.634938 -0.320841
vn 0.000000 -0.634205 -0.773156
vn 0.000000 -0.989319 -0.145695
vn 0.628285 -0.761589 -0.158696
vn 0.796289 -0.359996 -0.486068
vn 0.622364 -0.627430 -0.467910
vn 0.861995 -0.488784 0.134098
vn 0.452193 -0.880245 0.143742
vn 0.365886 -0.509323 0.778893
vn 0.290597 -0.296365 0.909757
vn 0.000000 -0.986572 0.163213
vn -0.365886 -0.509323 0.778893
vn -0.452193 -0.880245 0.143742
vn 0.000000 -0.837733 0.546037
vn 0.640889 -0.666738 0.380352
vn -0.861995 -0.488784 0.134098
vn -0.709372 0.033113 -0.704031
vn -0.627857 -0.227607 -0.744285
vn -0.728477 -0.206946 -0.653035
vn -0.620502 0.050081 -0.782586
vn 0.000824 -0.277200 -0.960784
vn -0.000671 0.069460 -0.997559
vn 0.619617 0.054537 -0.782983
vn 0.628986 -0.222816 -0.744774
vn 0.710227 0.039247 -0.702841
vn 0.727805 -0.200537 -0.655782
vn 0.463851 -0.843165 -0.271859
vn -0.682821 0.003876 -0.730552
vn 0.814142 0.324656 -0.481338
vn 0.803552 -0.414899 -0.426740
vn 0.675130 -0.202063 -0.709464
vn 0.526658 -0.798761 -0.290780
vn 0.489486 0.489303 0.721763
vn 0.276376 0.715171 0.641957
vn 0.739982 0.608142 0.287240
vn -0.274178 -0.521317 0.808100
vn -0.491745 -0.289285 0.821253
vn 0.000000 -0.446059 0.894986
vn -0.387738 -0.066500 0.919340
vn -0.710196 -0.282418 0.644826
vn 0.584613 0.795556 -0.158910
vn 0.683126 0.329203 -0.651845
vn 0.000000 0.419324 -0.907834
vn -0.584613 0.795556 -0.158910
vn -0.683126 0.329234 -0.651845
vn 0.000000 0.927000 -0.375011
vn -0.705771 -0.701529 0.098605
vn -0.605976 -0.759728 0.235664
vn -0.746788 -0.611072 -0.262368
vn 0.535966 0.717612 -0.444685
vn 0.738853 0.668874 -0.081576
vn 0.681875 0.010346 -0.731346
vn -0.769250 -0.505478 -0.390790
vn -0.735771 -0.650624 0.187872
vn -0.770074 0.637593 0.020325
vn 0.606037 -0.759697 0.235694
vn 0.864803 -0.086825 -0.494522
vn -0.039521 -0.995636 -0.084475
vn -0.640889 -0.666738 0.380352
vn 0.000000 -0.999969 0.000855
vn 0.000000 -0.652211 0.758019
vn -0.645375 -0.667348 -0.371624
vn -0.737510 -0.484603 -0.470260
vn -0.670644 -0.195532 -0.715506
vn -0.673788 -0.717185 -0.177679
vn 0.000000 -0.678915 -0.734184
vn 0.000000 -0.997467 0.070803
vn -0.365062 -0.929594 -0.050447
vn -0.468642 0.386914 -0.794092
vn 0.000000 0.227729 -0.973693
vn 0.000000 0.462142 -0.886776
vn 0.468642 0.386914 -0.794092
vn 0.000000 0.052980 -0.998566
vn -0.357646 -0.069247 -0.931272
vn -0.861599 0.112186 -0.495010
vn -0.980499 -0.178961 -0.080905
vn -0.843196 -0.486404 0.228858
vn -0.517258 -0.726127 0.452956
vn 0.000000 -0.864437 0.502670
vn 0.517258 -0.726096 0.452956
vn 0.365062 -0.929594 -0.050478
vn 0.673818 -0.717185 -0.177648
vn 0.844203 -0.032838 -0.534959
vn 0.861568 0.112186 -0.495041
vn 0.670675 -0.195532 -0.715506
vn 0.980499 -0.178961 -0.080905
vn 0.887173 -0.449049 0.106021
vn 0.843196 -0.486435 0.228889
vn 0.000000 -0.935942 0.352123
vn -0.887173 -0.449049 0.106021
vn -0.844203 -0.032838 -0.534959
vn 0.737510 -0.484634 -0.470290
vn 0.371471 0.492264 -0.787164
vn 0.642933 -0.511734 -0.569872
vn 0.702780 -0.634938 -0.320841
vn 0.677267 0.043489 -0.734397
vn 0.357677 -0.069247 -0.931242
vn 0.959044 0.014435 -0.282876
vn 0.840938 -0.181310 0.509842
vn 0.960540 -0.069704 -0.269143
vn -0.747887 -0.657949 0.087893
vn -0.586535 -0.288491 0.756798
vn -0.960387 -0.079958 -0.266915
vn -0.625751 0.525895 0.576067
vn -0.842097 -0.191443 0.504166
vn -0.959075 0.005280 -0.283029
vn -0.626759 -0.380902 0.679739
vn 0.758293 0.617878 -0.207801
vn 0.000000 0.880184 -0.474563
vn 0.527665 0.831690 0.172643
vn 0.613758 0.420057 -0.668447
vn -0.945172 0.100605 -0.310689
vn -0.956486 0.089886 -0.277587
vn 0.000009 0.308064 -0.951365
vn 0.000010 0.308064 -0.951366
vn 0.945176 0.100602 -0.310680
vn 0.956489 0.089883 -0.277578
vn 0.596597 -0.247234 0.763509
vn 0.578292 -0.251328 0.776152
vn -0.596597 -0.247234 0.763510
vn -0.578292 -0.251328 0.776152
vn -0.950944 0.000312 -0.309362
vn -0.951166 0.000311 -0.308679
vn -0.000000 0.001009 -0.999999
vn -0.000000 0.001009 -1.000000
vn 0.950946 0.000312 -0.309356
vn 0.951168 0.000311 -0.308673
vn 0.587962 -0.000816 0.808888
vn 0.587603 -0.000816 0.809149
vn -0.951059 -0.130597 -0.280057
vn -0.951055 -0.130598 -0.280070
vn -0.587783 0.341903 0.733221
vn -0.000003 -0.422623 -0.906305
vn 0.951056 -0.130600 -0.280066
vn 0.951059 -0.130591 -0.280057
vn 0.587788 0.341902 0.733218
vn 0.587783 0.341903 0.733221
vn -0.587787 0.341902 0.733218
vn -0.103824 -0.106510 0.988861
vn -0.299234 0.157872 0.941008
vn -0.214759 -0.622517 0.752525
vn -0.401105 -0.695120 0.596545
vn -0.237526 -0.971221 0.016541
vn -0.358318 0.706931 0.609760
vn 0.000000 -0.007294 0.999969
vn 0.198737 0.260445 0.944792
vn 0.000000 0.652760 0.757530
vn 0.413526 0.292001 0.862362
vn 0.000000 -0.631428 0.775414
vn 0.436750 -0.580187 0.687460
vn 0.245003 -0.718741 0.650624
vn 0.000000 -0.583880 0.811823
vn -0.574023 -0.514786 0.636738
vn -0.436750 -0.580187 0.687429
vn 0.401074 -0.695120 0.596545
vn 0.039552 -0.995636 -0.084475
vn -0.244972 -0.718833 0.650533
vn 0.214759 -0.622517 0.752525
vn 0.299234 0.157872 0.941008
vn 0.103824 -0.106510 0.988861
vn -0.198706 0.260445 0.944792
vn -0.413526 0.292001 0.862362
vn 0.525895 0.752342 -0.396710
vn 0.000000 0.969176 0.246345
vn 0.705008 0.708213 -0.036592
vn 0.000000 0.779229 -0.626698
vn -0.525895 0.752342 -0.396710
vn -0.489486 0.489303 0.721763
vn -0.739982 0.608142 0.287240
vn 0.000000 0.423444 0.905911
vn 0.000000 -0.178655 0.983886
vn 0.000000 -0.882565 0.470138
vn 0.491745 -0.289285 0.821253
vn -0.463820 -0.843165 -0.271859
vn 0.000000 -0.912259 -0.409589
vn -0.758232 -0.633320 -0.154851
vn -0.847652 0.530290 0.015961
vn -0.782067 -0.506485 -0.363018
vn 0.520493 0.800073 0.298196
vn -0.001984 0.800073 -0.599841
vn -0.518479 0.800104 0.301645
vn -0.720847 0.668691 0.182165
vn -0.536485 -0.785485 0.308451
vn -0.896237 -0.433790 0.092349
vn -0.195502 0.646779 -0.737144
vn 0.535386 -0.785485 0.310373
vn 0.518204 0.668691 0.533189
vn 0.528123 -0.433790 0.729972
vn -0.540605 0.646779 0.537919
vn 0.736137 0.646779 0.199225
vn 0.891964 -0.446486 0.070894
vn 0.368114 -0.433790 -0.822352
vn 0.202643 0.668691 -0.715354
vn 0.670980 -0.480972 -0.564287
vn 0.756828 0.426221 0.495468
vn 0.661946 -0.598773 -0.450850
vn 0.708274 -0.442701 -0.549821
vn -0.658895 0.659261 0.362194
vn 0.649159 0.760613 -0.005860
vn -0.671102 0.741203 -0.013733
vn 0.677572 0.468032 0.567278
vn -0.756828 0.426221 0.495468
vn 0.718284 0.454939 0.526353
vn -0.677572 0.468001 0.567309
vn 0.715842 0.443525 0.539262
vn -0.622608 0.681295 0.384899
vn -0.765801 -0.642903 0.013764
vn 0.783471 -0.539567 -0.308237
vn -0.796655 -0.527818 -0.294504
vn -0.673421 -0.583300 -0.454115
vn -0.718284 0.454939 0.526353
vn -0.685141 -0.471664 -0.555040
vn -0.716056 0.550462 0.429182
vn 0.220832 0.669485 0.709220
vn -0.594409 -0.322764 0.736534
vn 0.114292 0.872524 0.474960
vn -0.598773 0.464003 0.652760
vn 0.796655 -0.527787 -0.294473
vn 0.622578 0.681295 0.384899
vn 0.723319 -0.432844 -0.537980
vn 0.000000 0.630970 0.775780
vn -0.527665 0.831690 0.172643
vn -0.393994 0.918882 -0.020264
vn 0.000000 0.905911 0.423444
vn 0.337199 -0.106204 0.935392
vn 0.114994 -0.276131 0.954192
vn 0.329081 0.389630 0.860134
vn 0.001190 0.355083 0.934812
vn -0.001251 -0.124882 0.992157
vn 0.000000 0.153417 0.988159
vn -0.323069 -0.112796 0.939604
vn -0.355205 0.374523 0.856441
vn 0.818354 0.336222 0.466048
vn 0.233009 0.971129 0.050783
vn 0.847652 0.530290 0.015961
vn 0.200232 0.611805 0.765191
vn 0.594409 -0.322764 0.736534
vn 0.982513 0.025056 -0.184332
vn 0.598773 0.464003 0.652760
vn -0.180731 0.933256 -0.310343
vn -0.105411 0.979797 0.169897
vn -0.010193 0.984375 -0.175634
vn -0.076022 0.983398 -0.164678
vn -0.642659 0.663198 -0.383557
vn -0.220801 0.669485 0.709220
vn 0.000000 0.855220 0.518204
vn -0.232978 0.971129 0.050813
vn -0.200232 0.611805 0.765191
vn 0.067171 0.488693 0.869839
vn 0.501267 0.278695 0.819178
vn 0.180731 0.933256 -0.310312
vn -0.048097 -0.491836 0.869350
vn 0.626759 -0.380902 0.679739
vn -0.592334 -0.284921 0.753594
vn 0.586505 -0.288491 0.756798
vn -0.724387 0.600940 0.337779
vn -0.592883 0.469466 0.654256
vn -0.549760 0.762963 0.340007
vn -0.300577 0.136387 0.943937
vn 0.582232 0.478072 0.657582
vn -0.371288 0.729637 0.574206
vn -0.550371 0.501877 0.667226
vn 0.358531 0.288522 0.887783
vn 0.723380 0.377148 0.578295
vn -0.723045 -0.493728 0.483077
vn -0.543352 -0.653768 0.526597
vn -0.362865 -0.585955 0.724509
vn 0.387707 -0.066500 0.919340
vn 0.710166 -0.282449 0.644856
vn -0.544053 -0.310892 0.779321
vn 0.625751 0.525895 0.576037
vn -0.625446 -0.671621 0.397107
vn -0.583026 0.300150 0.754936
vn -0.845119 -0.478286 0.238746
vn -0.860836 0.136784 0.490097
vn -0.642323 0.200293 0.739769
vn -0.582842 -0.690695 0.427992
vn 0.527543 -0.454726 -0.717551
vn 0.746727 -0.611133 -0.262398
vn 0.000000 -0.970641 -0.240455
vn 0.705741 -0.701529 0.098666
vn 0.452223 -0.762902 0.461989
vn 0.000000 -0.826807 0.562426
vn 0.000000 -0.404431 -0.914548
vn -0.818354 0.336222 0.466048
vn -0.982513 0.025056 -0.184332
vn 0.298441 0.111728 0.947844
vn 0.592334 -0.284890 0.753624
vn 0.724357 0.601001 0.337748
vn 0.592883 0.469466 0.654256
vn 0.300607 0.136387 0.943937
vn 0.549760 0.762963 0.340007
vn -0.582232 0.478072 0.657582
vn 0.371288 0.729637 0.574206
vn 0.550371 0.501785 0.667257
vn -0.358531 0.288522 0.887783
vn -0.723411 0.377148 0.578265
vn 0.723045 -0.493728 0.483108
vn 0.543352 -0.653768 0.526597
vn 0.362865 -0.585986 0.724509
vn 0.544023 -0.310892 0.779321
vn 0.062227 0.675069 0.735099
vn 0.358501 0.706381 0.610309
vn 0.842250 -0.484298 0.236702
vn 0.237526 -0.971221 0.016358
vn 0.626484 -0.672140 0.394574
vn 0.583026 0.300119 0.754936
vn 0.864528 0.141331 0.482253
vn 0.641011 0.197821 0.741569
vn 0.582842 -0.690695 0.428022
vn -0.527573 -0.454756 -0.717521
vn -0.452193 -0.762902 0.461989
vn 0.681539 0.713614 -0.161962
vn 0.632801 0.354534 0.688345
vn 0.769250 -0.505478 -0.390790
vn 0.525163 -0.402997 -0.749504
vn 0.770074 0.637593 0.020325
vn 0.507736 0.801691 -0.315348
vn 0.632862 -0.684652 0.361522
vn 0.735801 -0.650563 0.187872
vn 0.737632 0.256905 0.624378
vn 0.583728 -0.703848 0.404736
vn 0.668935 0.235145 0.705100
vn 0.569659 0.299142 0.765465
vn -0.681539 0.713614 -0.161962
vn -0.632832 0.354534 0.688314
vn -0.083621 0.486343 0.869747
vn -0.825007 0.311991 0.471145
vn -0.507736 0.801691 -0.315378
vn -0.525163 -0.402997 -0.749504
vn -0.632862 -0.684652 0.361522
vn -0.737663 0.256905 0.624348
vn -0.668935 0.235176 0.705100
vn -0.583728 -0.703848 0.404767
vn -0.569659 0.299142 0.765465
vn 0.826441 0.321238 0.462325
vn 0.083102 0.488998 0.868313
vn -0.507370 -0.446486 0.736991
vn 0.001099 -0.785485 -0.618854
vn -0.384564 -0.446486 -0.807917
vn 0.274178 -0.521317 0.808100
vn 0.624622 0.710196 -0.324686
vn 0.393994 0.918882 -0.020234
vn 0.707175 0.600787 -0.372723
vn 0.628437 0.272439 -0.728538
vn -0.707205 0.600757 -0.372723
vn -0.628437 0.272439 -0.728538
vn 0.448958 0.892361 0.045808
vn 0.772057 0.300455 -0.559984
vn 0.518021 -0.842311 0.148778
vn 0.000000 -0.534715 0.844997
vn -0.290597 -0.296365 0.909757
vn -0.518021 -0.842311 0.148778
vn -0.628285 -0.761589 -0.158696
vn -0.622364 -0.627430 -0.467910
vn -0.642933 -0.511704 -0.569872
vn 0.645344 -0.667348 -0.371624
vn 0.000000 -0.685934 -0.727622
vn -0.864803 -0.086856 -0.494491
vn -0.772088 0.300455 -0.559984
vn -0.448958 0.892361 0.045808
vn -0.686209 -0.719047 0.109622
vn -0.803552 -0.414899 -0.426740
vn -0.705008 0.708213 -0.036592
vn -0.814142 0.324656 -0.481338
vn -0.535966 0.717612 -0.444685
vn -0.673910 -0.208899 -0.708640
vn -0.526658 -0.798761 -0.290780
vn 0.686209 -0.719047 0.109622
vn -0.734611 0.667104 -0.123630
vn 0.753777 0.385144 0.532395
vn 0.915738 -0.098697 0.389447
vn 0.734611 0.667104 -0.123630
vn -0.753777 0.385113 0.532395
vn -0.915708 -0.098727 0.389447
vn 0.737877 -0.522538 0.427137
vn -0.737877 -0.522538 0.427137
vn 0.573962 -0.514817 0.636769
vn 0.747887 -0.657949 0.087893
vn -0.738853 0.668874 -0.081576
vn 0.000000 -0.082583 -0.996582
vn 0.000000 0.303140 -0.952940
vn -0.613758 0.420057 -0.668447
vn -0.758293 0.617878 -0.207801
vn -0.587967 -0.000816 0.808884
vn -0.587608 -0.000816 0.809145
vn -0.786431 -0.372631 -0.492538
vn -0.765923 -0.634053 0.106265
vn 0.786431 -0.372631 -0.492538
vn 0.782067 -0.506485 -0.363018
vn 0.758232 -0.633290 -0.154851
vn 0.765923 -0.634053 0.106265
vn -0.023682 0.816584 0.576708
vn 0.045351 0.789727 0.611744
vn 0.000000 0.832362 0.554186
vn 0.023682 0.816584 0.576708
vn -0.045351 0.789727 0.611713
vn 0.758324 0.502426 0.415296
vn 0.658895 0.659261 0.362194
vn 0.756005 -0.654378 0.014313
vn 0.671102 0.741203 -0.013733
vn 0.740318 -0.621845 0.255348
vn 0.680654 0.677236 -0.279275
vn -0.680654 0.677267 -0.279275
vn 0.669301 0.689840 -0.275887
vn -0.715873 0.443495 0.539232
vn 0.716056 0.550462 0.429182
vn -0.758324 0.502426 0.415296
vn -0.669301 0.689840 -0.275887
vn -0.649159 0.760613 -0.005860
vn -0.748497 -0.611316 0.256844
vn -0.723319 -0.432844 -0.537980
vn -0.740318 -0.621845 0.255348
vn 0.748497 -0.611316 0.256844
vn -0.756005 -0.654378 0.014313
vn 0.765801 -0.642903 0.013764
vn -0.783471 -0.539567 -0.308237
vn -0.708274 -0.442732 -0.549821
vn -0.670980 -0.480972 -0.564287
vn 0.685141 -0.471694 -0.555040
vn -0.661916 -0.598773 -0.450850
vn 0.673421 -0.583300 -0.454115
vn 0.000000 0.239387 0.970916
usemtl OfficeChair
s 1
f 8/1/1 7/2/2 9/3/3
f 10/4/4 9/3/3 7/2/2
f 9/3/3 10/4/4 11/5/5
f 12/6/6 11/5/5 10/4/4
f 15/7/7 17/8/8 16/9/9
f 17/8/8 15/7/7 18/10/10
f 14/11/11 18/10/10 15/7/7
f 18/10/10 14/11/11 19/12/12
f 13/13/13 19/12/12 14/11/11
f 19/12/12 13/13/13 20/14/14
f 12/6/6 20/14/14 13/13/13
f 10/4/4 20/14/14 12/6/6
f 20/14/14 10/4/4 21/15/15
f 7/2/2 21/15/15 10/4/4
f 6/16/16 21/15/15 7/2/2
f 22/2/17 21/15/15 6/16/16
f 23/4/18 21/15/15 22/2/17
f 21/15/15 23/4/18 20/14/14
f 24/6/19 20/14/14 23/4/18
f 25/13/20 20/14/14 24/6/19
f 20/14/14 25/13/20 19/12/12
f 25/13/20 26/11/21 19/12/12
f 19/12/12 26/11/21 18/10/10
f 27/7/22 18/10/10 26/11/21
f 18/10/10 27/7/22 17/8/8
f 28/17/23 27/7/22 29/18/24
f 26/11/21 29/18/24 27/7/22
f 29/18/24 26/11/21 30/19/25
f 25/13/20 30/19/25 26/11/21
f 22/2/17 31/3/26 23/4/18
f 6/16/16 32/20/27 22/2/17
f 105/21/28 108/22/29 106/23/30
f 108/22/29 105/21/28 109/24/31
f 104/25/32 109/24/31 105/21/28
f 113/26/33 114/27/34 115/28/35
f 119/29/36 118/30/37 117/31/38
f 123/32/39 120/33/40 124/34/41
f 121/35/42 124/34/41 120/33/40
f 122/36/43 124/34/41 121/35/42
f 128/37/44 129/38/45 130/39/46
f 131/40/47 130/39/46 129/38/45
f 132/41/48 126/37/49 127/42/50
f 126/37/49 132/41/48 133/43/51
f 133/43/51 132/41/48 134/44/52
f 136/45/53 134/44/52 135/46/54
f 134/44/52 136/45/53 137/47/55
f 137/47/55 138/45/56 139/44/57
f 142/48/58 134/44/52 137/47/55
f 134/44/52 142/48/58 133/43/51
f 143/49/59 133/43/51 142/48/58
f 133/43/51 143/49/59 126/37/49
f 141/43/60 142/48/58 139/44/57
f 137/47/55 139/44/57 142/48/58
f 151/50/61 148/51/62 150/52/63
f 152/53/64 148/51/62 151/50/61
f 148/51/62 152/53/64 147/54/65
f 147/54/65 152/53/64 153/55/66
f 153/55/66 154/53/67 147/54/65
f 147/54/65 154/53/67 155/51/68
f 156/50/69 155/51/68 154/53/67
f 157/52/70 155/51/68 156/50/69
f 158/56/71 155/51/68 157/52/70
f 150/52/63 159/57/72 151/50/61
f 154/53/67 161/58/73 156/50/69
f 157/52/70 162/59/74 158/56/71
f 160/60/75 162/59/74 157/52/70
f 162/59/74 160/60/75 163/61/76
f 172/62/77 173/29/78 174/63/79
f 178/64/80 177/65/81 176/66/82
f 179/67/83 180/68/84 178/64/80
f 183/69/85 182/70/86 185/71/87
f 188/69/88 185/71/87 187/70/89
f 189/72/90 185/71/87 188/69/88
f 185/71/87 189/72/90 183/69/85
f 193/73/91 194/74/92 195/75/93
f 199/76/94 198/77/95 197/57/96
f 215/78/97 216/79/98 217/80/99
f 223/81/100 222/82/101 221/83/102
f 227/84/103 225/85/104 226/86/105
f 228/87/106 225/85/104 227/84/103
f 229/88/107 230/89/108 231/90/109
f 232/91/110 231/90/109 230/89/108
f 233/92/111 231/90/109 232/91/110
f 231/90/109 233/92/111 234/93/112
f 235/94/113 236/95/114 237/96/115
f 238/94/116 237/96/115 236/95/114
f 239/97/117 237/96/115 238/94/116
f 237/96/115 239/97/117 235/94/113
f 240/98/118 235/94/113 239/97/117
f 230/89/108 235/94/113 240/98/118
f 235/94/113 230/89/108 241/99/119
f 241/99/119 230/89/108 242/100/120
f 229/88/107 242/100/120 230/89/108
f 231/90/109 242/100/120 229/88/107
f 242/100/120 231/90/109 243/101/121
f 243/101/121 231/90/109 244/102/122
f 234/93/112 244/102/122 231/90/109
f 233/92/111 244/102/122 234/93/112
f 244/102/122 233/92/111 245/103/123
f 245/103/123 233/92/111 246/102/124
f 247/93/125 246/102/124 233/92/111
f 246/102/124 247/93/125 248/90/126
f 236/95/114 249/104/127 238/94/116
f 250/99/128 238/94/116 249/104/127
f 238/94/116 250/99/128 251/89/129
f 251/89/129 250/99/128 252/100/130
f 249/104/127 252/100/130 250/99/128
f 253/105/131 252/100/130 249/104/127
f 252/100/130 253/105/131 254/101/132
f 254/101/132 253/105/131 246/102/124
f 255/106/133 246/102/124 253/105/131
f 246/102/124 255/106/133 245/103/123
f 245/103/123 255/106/133 244/102/122
f 256/105/134 244/102/122 255/106/133
f 244/102/122 256/105/134 243/101/121
f 243/101/121 256/105/134 242/100/120
f 257/104/135 242/100/120 256/105/134
f 242/100/120 257/104/135 241/99/119
f 241/99/119 257/104/135 235/94/113
f 236/95/114 235/94/113 257/104/135
f 246/102/124 248/90/126 254/101/132
f 254/101/132 248/90/126 252/100/130
f 258/88/136 252/100/130 248/90/126
f 252/100/130 258/88/136 251/89/129
f 248/90/126 251/89/129 258/88/136
f 251/89/129 248/90/126 232/91/110
f 232/91/110 248/90/126 233/92/111
f 247/93/125 233/92/111 248/90/126
f 259/107/137 260/108/138 249/104/127
f 261/109/139 249/104/127 260/108/138
f 249/104/127 261/109/139 253/105/131
f 236/95/114 263/110/140 249/104/127
f 259/107/137 249/104/127 263/110/140
f 240/98/118 239/97/117 230/89/108
f 230/89/108 239/97/117 232/91/110
f 232/91/110 239/97/117 251/89/129
f 264/98/141 251/89/129 239/97/117
f 251/89/129 264/98/141 238/94/116
f 239/97/117 238/94/116 264/98/141
f 265/111/142 266/112/143 267/113/144
f 268/114/145 269/115/146 270/113/147
f 271/116/148 270/113/147 269/115/146
f 270/113/147 272/112/149 273/111/150
f 274/117/151 273/111/150 272/112/149
f 279/118/152 276/119/153 278/120/154
f 276/119/153 279/118/152 275/121/155
f 280/122/156 281/123/157 282/124/158
f 283/125/159 282/124/158 281/123/157
f 282/124/158 283/125/159 284/126/160
f 285/127/161 284/126/160 283/125/159
f 284/126/160 285/127/161 286/128/162
f 287/129/163 286/128/162 285/127/161
f 286/128/162 287/129/163 288/130/164
f 289/131/165 288/130/164 287/129/163
f 291/132/166 292/133/167 293/134/168
f 294/135/169 293/134/168 292/133/167
f 293/134/168 294/135/169 295/136/170
f 296/137/171 295/136/170 294/135/169
f 295/136/170 296/137/171 297/138/172
f 298/139/173 297/138/172 296/137/171
f 302/140/174 301/141/175 300/142/176
f 301/141/175 302/140/174 303/143/177
f 304/144/177 303/143/177 302/140/174
f 303/143/177 304/144/177 305/145/178
f 306/146/179 305/145/178 304/144/177
f 305/145/178 306/146/179 307/147/180
f 308/148/181 307/147/180 306/146/179
f 307/147/180 308/148/181 309/149/182
f 317/150/183 318/151/184 319/152/185
f 320/153/186 319/152/185 318/151/184
f 321/154/187 319/152/185 320/153/186
f 319/152/185 321/154/187 317/150/183
f 316/155/188 317/150/183 321/154/187
f 324/156/189 322/157/190 323/158/191
f 322/157/190 324/156/189 325/159/192
f 326/160/193 325/159/192 324/156/189
f 327/161/194 325/159/192 326/160/193
f 325/159/192 327/161/194 322/157/190
f 328/162/195 322/157/190 327/161/194
f 320/153/186 322/157/190 328/162/195
f 318/151/184 322/157/190 320/153/186
f 329/163/196 326/160/193 330/164/197
f 331/161/198 330/164/197 326/160/193
f 334/153/199 333/83/200 332/162/201
f 335/152/202 337/151/203 336/150/204
f 334/153/199 337/151/203 335/152/202
f 337/151/203 334/153/199 338/157/205
f 332/162/201 338/157/205 334/153/199
f 331/161/198 338/157/205 332/162/201
f 338/157/205 331/161/198 339/159/206
f 326/160/193 339/159/206 331/161/198
f 324/156/189 339/159/206 326/160/193
f 339/159/206 324/156/189 338/157/205
f 323/158/191 338/157/205 324/156/189
f 344/165/207 342/166/208 343/167/209
f 345/168/210 342/166/208 344/165/207
f 346/165/211 342/166/208 345/168/210
f 348/169/212 342/166/208 347/170/213
f 342/166/208 348/169/212 341/171/214
f 353/172/215 350/173/216 352/120/217
f 350/173/216 355/174/218 349/175/219
f 363/176/220 364/177/221 365/178/222
f 369/179/223 370/180/224 371/181/225
f 372/182/226 371/181/225 370/180/224
f 371/181/225 372/182/226 373/183/227
f 373/183/227 372/182/226 374/184/228
f 375/185/229 374/184/228 372/182/226
f 372/182/226 370/180/224 375/185/229
f 376/186/230 377/187/231 378/188/232
f 379/189/233 378/188/232 377/187/231
f 373/183/227 379/189/233 371/181/225
f 377/187/231 371/181/225 379/189/233
f 371/181/225 377/187/231 369/179/223
f 376/186/230 369/179/223 377/187/231
f 369/179/223 376/186/230 380/190/234
f 381/191/235 380/190/234 376/186/230
f 382/192/236 380/190/234 381/191/235
f 380/190/234 382/192/236 383/193/237
f 369/179/223 383/193/237 370/180/224
f 383/193/237 369/179/223 380/190/234
f 386/194/238 385/195/239 384/196/240
f 387/197/241 385/195/239 386/194/238
f 393/198/242 392/199/243 391/200/244
f 394/201/245 395/202/246 396/203/247
f 404/201/248 403/204/249 402/205/250
f 406/206/251 407/207/252 408/208/253
f 429/209/254 428/203/255 427/210/256
f 428/203/255 429/209/254 430/211/257
f 436/212/258 435/213/259 434/9/260
f 435/213/259 436/212/258 437/214/261
f 443/208/262 442/205/263 441/215/264
f 450/216/265 449/217/266 448/218/267
f 449/217/266 450/216/265 451/219/268
f 462/220/269 463/32/270 464/221/271
f 464/221/271 465/222/272 462/220/269
f 466/223/273 462/220/269 465/222/272
f 462/220/269 466/223/273 461/224/274
f 467/220/275 461/224/274 466/223/273
f 467/220/275 465/222/272 468/221/276
f 465/222/272 467/220/275 466/223/273
f 1/225/277 2/226/278 73/227/279
f 2/226/278 1/225/277 74/228/280
f 3/213/281 438/229/282 4/214/283
f 5/230/284 111/231/285 8/1/1
f 6/16/16 7/2/2 111/231/285
f 111/231/285 7/2/2 8/1/1
f 11/5/5 12/6/6 74/228/280
f 74/228/280 12/6/6 2/226/278
f 13/13/13 2/226/278 12/6/6
f 2/226/278 13/13/13 168/19/286
f 14/11/11 168/19/286 13/13/13
f 168/19/286 14/11/11 167/18/287
f 15/7/7 167/18/287 14/11/11
f 167/18/287 15/7/7 414/17/288
f 16/9/9 414/17/288 15/7/7
f 414/17/288 16/9/9 397/212/289
f 431/232/290 16/9/9 17/8/8
f 434/9/260 17/8/8 27/7/22
f 17/8/8 434/9/260 431/232/290
f 436/212/258 434/9/260 28/17/23
f 27/7/22 28/17/23 434/9/260
f 30/19/25 25/13/20 54/226/291
f 24/6/19 54/226/291 25/13/20
f 54/226/291 24/6/19 53/228/292
f 53/228/292 24/6/19 169/5/293
f 23/4/18 169/5/293 24/6/19
f 169/5/293 23/4/18 31/3/26
f 31/3/26 22/2/17 33/1/294
f 33/1/294 22/2/17 32/20/27
f 32/20/27 6/16/16 450/233/265
f 111/231/285 450/233/265 6/16/16
f 33/1/294 32/20/27 116/234/295
f 34/235/296 266/236/143 35/117/297
f 266/236/143 34/235/296 463/237/270
f 42/238/298 46/115/299 109/239/31
f 37/240/300 202/241/301 36/242/302
f 202/241/301 37/240/300 38/243/303
f 38/244/303 39/245/304 202/246/301
f 203/247/305 37/240/300 36/242/302
f 37/240/300 203/247/305 41/248/306
f 203/247/305 40/249/307 41/248/306
f 40/249/307 203/247/305 204/250/308
f 204/251/308 173/29/78 40/249/307
f 43/252/309 42/253/298 109/24/31
f 42/253/298 43/252/309 205/254/310
f 75/255/311 44/67/312 207/68/313
f 44/67/312 75/255/311 76/256/314
f 109/239/31 45/116/315 108/257/29
f 45/116/315 109/239/31 46/115/299
f 316/155/188 47/258/316 86/259/317
f 316/155/188 48/260/318 47/258/316
f 321/154/187 48/260/318 316/155/188
f 321/154/187 85/261/319 48/260/318
f 82/262/320 321/154/187 220/263/321
f 321/154/187 82/262/320 85/261/319
f 52/120/322 49/264/323 72/265/324
f 49/264/323 50/266/325 72/265/324
f 50/266/325 191/267/326 72/265/324
f 191/267/326 51/86/327 72/265/324
f 186/268/328 52/120/322 72/265/324
f 55/225/329 54/226/291 53/228/292
f 54/226/291 55/225/329 364/227/221
f 437/214/261 409/229/330 435/213/259
f 124/235/41 272/236/149 123/237/39
f 272/236/149 124/235/41 274/117/151
f 65/239/331 269/115/146 64/238/332
f 57/240/333 56/241/334 88/243/335
f 56/241/334 57/240/333 60/242/336
f 56/246/334 58/245/337 88/244/335
f 61/247/338 57/240/333 59/248/339
f 57/240/333 61/247/338 60/242/336
f 61/247/338 170/249/340 210/250/341
f 170/249/340 61/247/338 59/248/339
f 62/252/342 64/253/332 63/254/343
f 64/253/332 62/252/342 65/24/331
f 200/255/344 179/67/83 66/256/345
f 179/67/83 200/255/344 180/68/84
f 65/239/331 271/116/148 269/115/146
f 271/116/148 65/239/331 89/257/346
f 454/155/347 93/260/348 67/154/349
f 91/258/350 454/155/347 97/259/351
f 91/258/350 93/260/348 454/155/347
f 93/260/348 68/261/352 67/154/349
f 69/262/353 67/154/349 68/261/352
f 67/154/349 69/262/353 70/263/354
f 72/265/324 195/264/93 71/120/355
f 72/265/324 193/266/91 195/264/93
f 72/265/324 192/267/356 193/266/91
f 72/265/324 51/86/327 192/267/356
f 72/265/324 71/120/355 186/268/328
f 39/245/304 38/244/303 35/117/297
f 34/235/296 35/117/297 38/244/303
f 360/269/357 73/227/279 168/19/286
f 2/226/278 168/19/286 73/227/279
f 1/225/277 358/270/358 74/228/280
f 11/5/5 74/228/280 358/270/358
f 75/255/311 205/254/310 76/256/314
f 43/252/309 76/256/314 205/254/310
f 77/78/359 78/271/360 459/80/361
f 79/272/362 459/80/361 78/271/360
f 80/273/363 47/274/316 208/275/364
f 48/276/318 208/275/364 47/274/316
f 208/275/364 48/276/318 84/277/365
f 85/278/319 84/277/365 48/276/318
f 81/279/366 83/280/367 220/281/321
f 82/282/320 220/281/321 83/280/367
f 83/280/367 84/277/365 82/282/320
f 85/278/319 82/282/320 84/277/365
f 47/274/316 80/273/363 86/283/317
f 460/284/368 86/283/317 80/273/363
f 54/226/291 364/227/221 30/19/25
f 165/269/369 30/19/25 364/227/221
f 169/5/293 87/270/370 53/228/292
f 55/225/329 53/228/292 87/270/370
f 124/235/41 88/244/335 274/117/151
f 58/245/337 274/117/151 88/244/335
f 89/257/346 107/285/371 271/116/148
f 90/286/372 271/116/148 107/285/371
f 107/285/371 123/237/39 90/286/372
f 272/236/149 90/286/372 123/237/39
f 62/252/342 63/254/343 66/256/345
f 200/255/344 66/256/345 63/254/343
f 146/272/373 218/271/374 217/80/99
f 215/78/97 217/80/99 218/271/374
f 93/276/348 91/274/350 216/275/98
f 92/273/375 216/275/98 91/274/350
f 68/278/352 93/276/348 94/277/376
f 216/275/98 94/277/376 93/276/348
f 69/282/353 214/280/377 70/281/354
f 95/279/378 70/281/354 214/280/377
f 68/278/352 94/277/376 69/282/353
f 214/280/377 69/282/353 94/277/376
f 96/284/379 92/273/375 97/283/351
f 91/274/350 97/283/351 92/273/375
f 266/236/143 463/237/270 101/286/380
f 102/285/381 101/286/380 463/237/270
f 376/287/230 378/288/232 373/289/227
f 98/290/382 373/289/227 378/288/232
f 99/289/383 382/290/236 376/287/230
f 381/288/235 376/287/230 382/290/236
f 376/291/230 373/289/227 99/287/383
f 374/290/228 99/287/383 373/289/227
f 99/287/383 374/290/228 100/288/384
f 101/286/380 102/285/381 45/116/315
f 108/257/29 45/116/315 102/285/381
f 62/252/342 66/256/345 178/64/80
f 179/67/83 178/64/80 66/256/345
f 44/67/312 76/256/314 103/64/385
f 43/252/309 103/64/385 76/256/314
f 104/25/32 103/64/385 43/252/309
f 103/64/385 104/25/32 176/66/82
f 176/66/82 104/25/32 178/64/80
f 178/64/80 104/25/32 62/252/342
f 62/252/342 104/25/32 65/24/331
f 105/21/28 65/24/331 104/25/32
f 65/24/331 105/21/28 89/22/346
f 106/23/30 89/22/346 105/21/28
f 89/22/346 106/23/30 107/292/371
f 107/292/371 106/23/30 461/224/274
f 461/224/274 106/23/30 102/292/381
f 102/292/381 106/23/30 108/22/29
f 109/24/31 104/25/32 43/252/309
f 452/28/386 110/293/387 111/231/285
f 450/233/265 111/231/285 110/293/387
f 112/294/388 356/295/389 5/230/284
f 5/230/284 356/295/389 111/231/285
f 259/296/137 111/231/285 356/295/389
f 111/231/285 259/296/137 452/28/386
f 263/26/140 452/28/386 259/296/137
f 32/20/27 115/28/35 114/27/34
f 115/28/35 32/20/27 448/293/267
f 450/233/265 448/293/267 32/20/27
f 398/294/390 116/234/295 368/297/391
f 32/20/27 368/297/391 116/234/295
f 368/297/391 32/20/27 114/27/34
f 173/29/78 117/31/38 118/30/37
f 463/32/270 34/34/296 120/33/40
f 120/33/40 34/34/296 121/35/42
f 121/35/42 34/34/296 122/36/43
f 38/243/303 122/36/43 34/34/296
f 122/36/43 38/243/303 118/30/37
f 37/240/300 118/30/37 38/243/303
f 118/30/37 37/240/300 173/29/78
f 41/248/306 173/29/78 37/240/300
f 173/29/78 41/248/306 40/249/307
f 124/34/41 122/36/43 88/243/335
f 118/30/37 88/243/335 122/36/43
f 88/243/335 118/30/37 57/240/333
f 119/29/36 57/240/333 118/30/37
f 57/240/333 119/29/36 59/248/339
f 170/249/340 59/248/339 119/29/36
f 184/298/392 79/272/362 125/299/393
f 78/271/360 125/299/393 79/272/362
f 125/299/393 78/271/360 222/300/101
f 126/37/49 261/38/139 127/42/50
f 260/301/138 127/42/50 261/38/139
f 261/38/139 130/39/46 131/40/47
f 130/39/46 261/38/139 126/37/49
f 314/302/394 134/44/52 132/41/48
f 135/46/54 134/44/52 314/302/394
f 433/303/395 137/47/55 136/45/53
f 138/45/56 137/47/55 433/303/395
f 312/46/396 139/44/57 138/45/56
f 140/302/397 139/44/57 312/46/396
f 311/41/398 139/44/57 140/302/397
f 139/44/57 311/41/398 141/43/60
f 141/43/60 311/41/398 128/37/44
f 310/42/399 128/37/44 311/41/398
f 128/37/44 310/42/399 129/38/45
f 262/301/400 129/38/45 310/42/399
f 224/304/401 126/37/49 143/49/59
f 126/37/49 224/304/401 130/39/46
f 144/305/402 130/39/46 224/304/401
f 228/304/106 130/39/46 144/305/402
f 130/39/46 228/304/106 128/37/44
f 227/49/103 128/37/44 228/304/106
f 128/37/44 227/49/103 141/43/60
f 142/48/58 141/43/60 227/49/103
f 143/49/59 142/48/58 226/306/105
f 227/49/103 226/306/105 142/48/58
f 219/300/403 218/271/374 145/299/404
f 146/272/373 145/299/404 218/271/374
f 145/299/404 146/272/373 196/298/405
f 147/54/65 349/307/219 148/51/62
f 355/56/218 148/51/62 349/307/219
f 149/308/406 181/59/407 355/56/218
f 150/52/63 355/56/218 181/59/407
f 355/56/218 150/52/63 148/51/62
f 346/309/211 153/55/66 152/53/64
f 345/310/210 153/55/66 346/309/211
f 344/309/207 153/55/66 345/310/210
f 154/53/67 153/55/66 344/309/207
f 349/307/219 155/51/68 158/56/71
f 155/51/68 349/307/219 147/54/65
f 171/311/408 346/309/211 211/58/409
f 152/53/64 211/58/409 346/309/211
f 151/50/61 211/58/409 152/53/64
f 211/58/409 151/50/61 213/76/410
f 213/76/410 151/50/61 159/57/72
f 159/57/72 150/52/63 212/60/411
f 181/59/407 212/60/411 150/52/63
f 212/60/411 181/59/407 201/61/412
f 160/60/75 157/52/70 197/57/96
f 156/50/69 197/57/96 157/52/70
f 197/57/96 156/50/69 199/76/94
f 199/76/94 156/50/69 161/58/73
f 344/309/207 161/58/73 154/53/67
f 161/58/73 344/309/207 343/311/209
f 351/308/413 158/56/71 162/59/74
f 409/312/330 28/17/23 164/313/414
f 29/18/24 164/313/414 28/17/23
f 164/313/414 29/18/24 165/269/369
f 30/19/25 165/269/369 29/18/24
f 11/5/5 358/270/358 9/3/3
f 166/314/415 9/3/3 358/270/358
f 9/3/3 166/314/415 8/1/1
f 410/315/416 8/1/1 166/314/415
f 438/312/282 361/313/417 414/17/288
f 414/17/288 361/313/417 167/18/287
f 360/269/357 167/18/287 361/313/417
f 167/18/287 360/269/357 168/19/286
f 169/5/293 31/3/26 87/270/370
f 87/270/370 31/3/26 367/314/418
f 33/1/294 367/314/418 31/3/26
f 367/314/418 33/1/294 423/315/419
f 170/249/340 119/29/36 210/251/341
f 347/63/213 210/251/341 119/29/36
f 210/251/341 347/63/213 211/316/409
f 171/317/408 211/316/409 347/63/213
f 347/63/213 119/29/36 348/62/212
f 117/31/38 348/62/212 119/29/36
f 348/62/212 117/31/38 341/318/214
f 341/318/214 117/31/38 172/62/77
f 173/29/78 172/62/77 117/31/38
f 204/251/308 174/63/79 173/29/78
f 161/316/73 174/63/79 204/251/308
f 174/63/79 161/316/73 343/317/209
f 44/67/312 103/64/385 207/68/313
f 175/319/420 207/68/313 103/64/385
f 207/68/313 175/319/420 162/320/74
f 351/321/413 162/320/74 175/319/420
f 175/319/420 103/64/385 352/65/217
f 176/66/82 352/65/217 103/64/385
f 352/65/217 176/66/82 353/322/215
f 353/322/215 176/66/82 177/65/81
f 177/65/81 178/64/80 354/319/421
f 178/64/80 180/68/84 354/319/421
f 181/320/407 354/319/421 180/68/84
f 354/319/421 181/320/407 149/321/406
f 52/323/322 182/70/86 222/324/101
f 222/324/101 182/70/86 125/325/393
f 183/69/85 125/325/393 182/70/86
f 125/325/393 183/69/85 184/326/392
f 52/323/322 185/71/87 182/70/86
f 186/327/328 185/71/87 52/323/322
f 71/323/355 185/71/87 186/327/328
f 187/70/89 185/71/87 71/323/355
f 52/323/322 222/324/101 49/75/323
f 223/74/100 49/75/323 222/324/101
f 49/75/323 223/74/100 50/73/325
f 190/328/422 50/73/325 223/74/100
f 50/73/325 190/328/422 191/329/326
f 329/330/196 191/329/326 190/328/422
f 191/329/326 329/330/196 51/331/327
f 51/331/327 329/330/196 192/329/356
f 330/328/197 192/329/356 329/330/196
f 192/329/356 330/328/197 193/73/91
f 194/74/92 193/73/91 330/328/197
f 219/324/403 195/75/93 194/74/92
f 195/75/93 219/324/403 71/323/355
f 71/323/355 219/324/403 187/70/89
f 145/325/404 187/70/89 219/324/403
f 187/70/89 145/325/404 188/69/88
f 196/326/405 188/69/88 145/325/404
f 206/114/423 163/61/76 267/113/144
f 160/60/75 267/113/144 163/61/76
f 267/113/144 160/60/75 265/111/142
f 197/57/96 265/111/142 160/60/75
f 265/111/142 197/57/96 198/77/95
f 64/332/332 269/115/146 63/333/343
f 268/114/145 63/333/343 269/115/146
f 63/333/343 268/114/145 200/334/344
f 201/61/412 200/334/344 268/114/145
f 200/334/344 201/61/412 180/335/84
f 181/59/407 180/335/84 201/61/412
f 202/336/301 39/245/304 36/337/302
f 198/77/95 36/337/302 39/245/304
f 36/337/302 198/77/95 203/338/305
f 199/76/94 203/338/305 198/77/95
f 203/338/305 199/76/94 204/339/308
f 161/58/73 204/339/308 199/76/94
f 42/332/298 205/333/310 46/115/299
f 46/115/299 205/333/310 206/114/423
f 75/334/311 206/114/423 205/333/310
f 206/114/423 75/334/311 163/61/76
f 207/335/313 163/61/76 75/334/311
f 163/61/76 207/335/313 162/59/74
f 460/284/368 80/273/363 459/80/361
f 208/79/364 459/80/361 80/273/363
f 459/80/361 208/79/364 77/78/359
f 84/340/365 77/78/359 208/79/364
f 83/280/367 77/78/359 84/340/365
f 77/78/359 83/280/367 81/279/366
f 56/336/334 60/337/336 58/245/337
f 58/245/337 60/337/336 209/77/424
f 61/338/338 209/77/424 60/337/336
f 209/77/424 61/338/338 213/76/410
f 210/339/341 213/76/410 61/338/338
f 213/76/410 210/339/341 211/58/409
f 268/114/145 270/113/147 201/61/412
f 201/61/412 270/113/147 212/60/411
f 273/111/150 212/60/411 270/113/147
f 212/60/411 273/111/150 159/57/72
f 209/77/424 159/57/72 273/111/150
f 159/57/72 209/77/424 213/76/410
f 95/279/378 214/280/377 215/78/97
f 94/340/376 215/78/97 214/280/377
f 216/79/98 215/78/97 94/340/376
f 92/273/375 217/80/99 216/79/98
f 217/80/99 92/273/375 96/284/379
f 95/341/378 215/342/97 70/263/354
f 70/263/354 215/342/97 67/154/349
f 218/343/374 67/154/349 215/342/97
f 67/154/349 218/343/374 333/83/200
f 219/82/403 333/83/200 218/343/374
f 333/83/200 219/82/403 194/81/92
f 81/341/366 220/263/321 77/342/359
f 321/154/187 77/342/359 220/263/321
f 77/342/359 321/154/187 78/343/360
f 221/83/102 78/343/360 321/154/187
f 78/343/360 221/83/102 222/82/101
f 144/344/402 224/87/401 225/85/104
f 143/84/59 225/85/104 224/87/401
f 226/86/105 225/85/104 143/84/59
f 225/85/104 228/87/106 144/344/402
f 131/345/47 253/105/131 261/109/139
f 253/105/131 131/345/47 255/106/133
f 255/106/133 131/345/47 256/105/134
f 129/109/45 256/105/134 131/345/47
f 256/105/134 129/109/45 257/104/135
f 262/108/400 257/104/135 129/109/45
f 114/107/34 257/104/135 262/108/400
f 113/110/33 257/104/135 114/107/34
f 257/104/135 113/110/33 236/95/114
f 453/346/425 236/95/114 113/110/33
f 263/110/140 236/95/114 453/346/425
f 198/77/95 39/245/304 265/111/142
f 35/117/297 265/111/142 39/245/304
f 266/112/143 265/111/142 35/117/297
f 101/347/380 267/113/144 266/112/143
f 45/116/315 267/113/144 101/347/380
f 46/115/299 267/113/144 45/116/315
f 267/113/144 46/115/299 206/114/423
f 90/347/372 270/113/147 271/116/148
f 272/112/149 270/113/147 90/347/372
f 58/245/337 273/111/150 274/117/151
f 273/111/150 58/245/337 209/77/424
f 275/121/155 446/348/426 276/119/153
f 447/121/427 276/119/153 446/348/426
f 277/118/428 276/119/153 447/121/427
f 449/120/266 276/119/153 277/118/428
f 451/349/268 276/119/153 449/120/266
f 278/120/154 276/119/153 451/349/268
f 288/350/164 289/351/165 280/122/156
f 281/123/157 280/122/156 289/351/165
f 290/352/429 299/353/430 291/132/166
f 292/133/167 291/132/166 299/353/430
f 297/138/172 298/139/173 290/354/429
f 299/355/430 290/354/429 298/139/173
f 309/356/182 300/142/176 301/141/175
f 300/357/176 309/149/182 308/148/181
f 114/358/34 262/301/400 368/359/391
f 368/359/391 262/301/400 366/360/431
f 366/360/431 262/301/400 365/178/222
f 310/42/399 365/178/222 262/301/400
f 311/41/398 365/178/222 310/42/399
f 365/178/222 311/41/398 363/176/220
f 140/302/397 363/176/220 311/41/398
f 363/176/220 140/302/397 362/361/432
f 312/46/396 362/361/432 140/302/397
f 362/361/432 312/46/396 435/362/259
f 259/358/137 356/359/389 260/301/138
f 357/360/433 260/301/138 356/359/389
f 313/178/434 260/301/138 357/360/433
f 260/301/138 313/178/434 127/42/50
f 127/42/50 313/178/434 132/41/48
f 359/176/435 132/41/48 313/178/434
f 132/41/48 359/176/435 314/302/394
f 315/361/436 314/302/394 359/176/435
f 314/302/394 315/361/436 135/46/54
f 3/362/281 135/46/54 315/361/436
f 316/155/188 458/363/437 317/150/183
f 318/151/184 317/150/183 458/363/437
f 458/363/437 457/364/438 322/157/190
f 456/365/439 322/157/190 457/364/438
f 323/158/191 322/157/190 456/365/439
f 322/157/190 318/151/184 458/363/437
f 321/154/187 320/153/186 221/83/102
f 328/162/195 221/83/102 320/153/186
f 221/83/102 328/162/195 223/81/100
f 327/161/194 223/81/100 328/162/195
f 223/81/100 327/161/194 190/164/422
f 326/160/193 190/164/422 327/161/194
f 190/164/422 326/160/193 329/163/196
f 330/164/197 331/161/198 194/81/92
f 332/162/201 194/81/92 331/161/198
f 194/81/92 332/162/201 333/83/200
f 333/83/200 334/153/199 67/154/349
f 335/152/202 67/154/349 334/153/199
f 336/150/204 67/154/349 335/152/202
f 67/154/349 336/150/204 454/155/347
f 455/363/440 454/155/347 336/150/204
f 455/363/440 336/150/204 337/151/203
f 456/365/439 338/157/205 323/158/191
f 340/364/441 338/157/205 456/365/439
f 455/363/440 338/157/205 340/364/441
f 338/157/205 455/363/440 337/151/203
f 341/171/214 172/169/77 342/166/208
f 174/170/79 342/166/208 172/169/77
f 343/167/209 342/166/208 174/170/79
f 171/167/408 342/166/208 346/165/211
f 347/170/213 342/166/208 171/167/408
f 349/175/219 158/174/71 350/173/216
f 351/366/413 350/173/216 158/174/71
f 175/367/420 350/173/216 351/366/413
f 352/120/217 350/173/216 175/367/420
f 177/120/81 350/173/216 353/172/215
f 354/367/421 350/173/216 177/120/81
f 149/366/406 350/173/216 354/367/421
f 355/174/218 350/173/216 149/366/406
f 356/359/389 410/315/416 357/360/433
f 166/314/415 357/360/433 410/315/416
f 358/270/358 357/360/433 166/314/415
f 357/360/433 358/270/358 313/178/434
f 1/368/277 313/178/434 358/270/358
f 73/177/279 313/178/434 1/368/277
f 313/178/434 73/177/279 359/176/435
f 360/269/357 359/176/435 73/177/279
f 359/176/435 360/269/357 315/361/436
f 361/313/417 315/361/436 360/269/357
f 438/312/282 315/361/436 361/313/417
f 315/361/436 438/312/282 3/362/281
f 435/362/259 409/312/330 362/361/432
f 164/313/414 362/361/432 409/312/330
f 165/269/369 362/361/432 164/313/414
f 362/361/432 165/269/369 363/176/220
f 364/177/221 363/176/220 165/269/369
f 55/368/329 365/178/222 364/177/221
f 87/270/370 365/178/222 55/368/329
f 365/178/222 87/270/370 366/360/431
f 367/314/418 366/360/431 87/270/370
f 423/315/419 366/360/431 367/314/418
f 366/360/431 423/315/419 368/359/391
f 374/184/228 375/185/229 100/369/384
f 100/369/384 375/185/229 99/370/383
f 99/370/383 375/185/229 370/180/224
f 378/188/232 379/189/233 98/371/382
f 98/371/382 379/189/233 373/183/227
f 99/370/383 383/193/237 382/192/236
f 370/180/224 383/193/237 99/370/383
f 436/372/258 28/373/23 405/374/442
f 384/196/240 405/374/442 28/373/23
f 405/374/442 384/196/240 385/195/239
f 385/195/239 387/197/241 403/375/249
f 407/207/252 403/375/249 387/197/241
f 403/375/249 407/207/252 388/376/443
f 389/377/444 388/376/443 407/207/252
f 388/376/443 389/377/444 400/378/445
f 390/379/446 400/378/445 389/377/444
f 400/378/445 390/379/446 399/380/447
f 33/381/294 399/380/447 390/379/446
f 399/380/447 33/381/294 116/382/295
f 5/383/284 415/384/448 112/385/388
f 112/385/388 415/384/448 444/386/449
f 391/200/244 444/386/449 415/384/448
f 444/386/449 391/200/244 392/199/243
f 392/199/243 393/198/242 442/205/263
f 418/204/450 442/205/263 393/198/242
f 442/205/263 418/204/450 394/201/245
f 395/202/246 394/201/245 418/204/450
f 396/203/247 395/202/246 439/211/451
f 422/387/452 439/211/451 395/202/246
f 397/388/289 439/211/451 422/387/452
f 439/211/451 397/388/289 4/389/283
f 116/383/295 398/385/390 399/384/447
f 425/386/453 399/384/447 398/385/390
f 399/384/447 425/386/453 400/200/445
f 401/199/454 400/200/445 425/386/453
f 400/200/445 401/199/454 388/198/443
f 402/205/250 388/198/443 401/199/454
f 388/198/443 402/205/250 403/204/249
f 403/204/249 404/201/248 385/202/239
f 428/203/255 385/202/239 404/201/248
f 430/211/257 385/202/239 428/203/255
f 385/202/239 430/211/257 405/387/442
f 405/387/442 430/211/257 436/388/258
f 437/389/261 436/388/258 430/211/257
f 33/381/294 390/379/446 423/390/419
f 423/390/419 390/379/446 424/391/455
f 389/377/444 424/391/455 390/379/446
f 424/391/455 389/377/444 406/206/251
f 407/207/252 406/206/251 389/377/444
f 387/197/241 408/208/253 407/207/252
f 408/208/253 387/197/241 426/215/456
f 386/194/238 426/215/456 387/197/241
f 426/215/456 386/194/238 427/210/256
f 384/196/240 427/210/256 386/194/238
f 427/210/256 384/196/240 429/209/254
f 28/373/23 429/209/254 384/196/240
f 429/209/254 28/373/23 409/392/330
f 8/381/1 410/390/416 416/379/457
f 445/391/458 416/379/457 410/390/416
f 416/379/457 445/391/458 417/377/459
f 411/206/460 417/377/459 445/391/458
f 417/377/459 411/206/460 412/207/461
f 443/208/262 412/207/461 411/206/460
f 412/207/461 443/208/262 419/197/462
f 441/215/264 419/197/462 443/208/262
f 419/197/462 441/215/264 420/194/463
f 440/210/464 420/194/463 441/215/264
f 420/194/463 440/210/464 421/196/465
f 413/209/466 421/196/465 440/210/464
f 421/196/465 413/209/466 414/373/288
f 438/392/282 414/373/288 413/209/466
f 5/382/284 8/381/1 415/380/448
f 416/379/457 415/380/448 8/381/1
f 415/380/448 416/379/457 391/378/244
f 417/377/459 391/378/244 416/379/457
f 391/378/244 417/377/459 393/376/242
f 412/207/461 393/376/242 417/377/459
f 393/376/242 412/207/461 418/375/450
f 419/197/462 418/375/450 412/207/461
f 418/375/450 419/197/462 395/195/246
f 420/194/463 395/195/246 419/197/462
f 421/196/465 395/195/246 420/194/463
f 395/195/246 421/196/465 422/374/452
f 414/373/288 422/374/452 421/196/465
f 422/374/452 414/373/288 397/372/289
f 368/393/391 423/390/419 398/385/390
f 424/391/455 398/385/390 423/390/419
f 398/385/390 424/391/455 425/386/453
f 406/206/251 425/386/453 424/391/455
f 425/386/453 406/206/251 401/199/454
f 408/208/253 401/199/454 406/206/251
f 401/199/454 408/208/253 402/205/250
f 426/215/456 402/205/250 408/208/253
f 402/205/250 426/215/456 404/201/248
f 427/210/256 404/201/248 426/215/456
f 404/201/248 427/210/256 428/203/255
f 409/392/330 430/211/257 429/209/254
f 430/211/257 409/392/330 437/389/261
f 4/214/283 397/212/289 3/213/281
f 16/9/9 3/213/281 397/212/289
f 3/213/281 16/9/9 135/394/54
f 431/232/290 135/394/54 16/9/9
f 432/395/467 135/394/54 431/232/290
f 135/394/54 432/395/467 136/396/53
f 136/396/53 432/395/467 433/397/395
f 433/397/395 432/395/467 138/396/56
f 138/396/56 432/395/467 312/394/396
f 431/232/290 312/394/396 432/395/467
f 434/9/260 312/394/396 431/232/290
f 312/394/396 434/9/260 435/213/259
f 4/389/283 438/392/282 439/211/451
f 413/209/466 439/211/451 438/392/282
f 439/211/451 413/209/466 396/203/247
f 440/210/464 396/203/247 413/209/466
f 396/203/247 440/210/464 394/201/245
f 441/215/264 394/201/245 440/210/464
f 394/201/245 441/215/264 442/205/263
f 442/205/263 443/208/262 392/199/243
f 411/206/460 392/199/243 443/208/262
f 392/199/243 411/206/460 444/386/449
f 445/391/458 444/386/449 411/206/460
f 444/386/449 445/391/458 112/385/388
f 410/390/416 112/385/388 445/391/458
f 112/385/388 410/390/416 356/393/389
f 446/398/426 113/399/33 447/400/427
f 115/401/35 447/400/427 113/399/33
f 447/400/427 115/401/35 277/402/428
f 448/218/267 277/402/428 115/401/35
f 277/402/428 448/218/267 449/217/266
f 451/219/268 450/216/265 278/217/154
f 110/218/387 278/217/154 450/216/265
f 278/217/154 110/218/387 279/402/152
f 452/401/386 279/402/152 110/218/387
f 279/402/152 452/401/386 275/400/155
f 263/399/140 275/400/155 452/401/386
f 275/400/155 263/399/140 446/398/426
f 453/403/425 446/398/426 263/399/140
f 446/398/426 453/403/425 113/399/33
f 96/404/379 97/259/351 217/405/99
f 454/155/347 217/405/99 97/259/351
f 455/363/440 217/405/99 454/155/347
f 217/405/99 455/363/440 146/406/373
f 340/364/441 146/406/373 455/363/440
f 146/406/373 340/364/441 196/407/405
f 456/365/439 196/407/405 340/364/441
f 196/407/405 456/365/439 188/408/88
f 188/408/88 456/365/439 189/409/90
f 189/409/90 456/365/439 183/408/85
f 183/408/85 456/365/439 184/407/392
f 457/364/438 184/407/392 456/365/439
f 184/407/392 457/364/438 79/406/362
f 458/363/437 79/406/362 457/364/438
f 79/406/362 458/363/437 459/405/361
f 316/155/188 459/405/361 458/363/437
f 86/259/317 459/405/361 316/155/188
f 459/405/361 86/259/317 460/404/368
f 461/224/274 102/292/381 462/220/269
f 463/32/270 462/220/269 102/292/381
f 120/33/40 464/221/271 463/32/270
f 465/222/272 464/221/271 120/33/40
f 461/224/274 467/220/275 107/292/371
f 107/292/371 467/220/275 123/32/39
f 468/221/276 123/32/39 467/220/275
f 123/32/39 468/221/276 120/33/40
f 120/33/40 468/221/276 465/222/272
