# Blender v2.82 (sub 7) OBJ File: ''
# www.blender.org
mtllib Cont4-fixed.mtl
o Cube.003_meshId19_name.001
v 1.104020 0.949680 -0.863420
v 1.110700 0.900890 0.913700
v 1.131390 0.900890 -0.887960
v -1.083890 0.949680 -0.888540
v -1.131380 0.900890 0.887960
v -1.104000 0.949680 0.863420
v 1.110700 0.900890 0.913700
v 1.083900 0.949680 0.888540
v -1.110690 0.900890 -0.913710
v 1.131390 0.900890 -0.887960
v 1.083050 0.876040 0.962180
v 1.110700 -0.900890 0.913700
v 1.110700 0.900890 0.913700
v -1.104850 0.876040 0.937060
v -1.131380 -0.900890 0.887960
v -1.104850 -0.876040 0.937060
v 1.110700 -0.900890 0.913700
v 1.083050 -0.876040 0.962180
v -1.131380 0.900890 0.887960
v 1.110700 0.900890 0.913700
v -1.083040 0.876040 -0.962180
v -1.110690 -0.900890 -0.913710
v -1.110690 0.900890 -0.913710
v 1.104860 0.876040 -0.937060
v 1.131390 -0.900890 -0.887960
v 1.104860 -0.876040 -0.937060
v -1.110690 -0.900890 -0.913710
v -1.083040 -0.876040 -0.962180
v 1.131390 0.900890 -0.887960
v -1.110690 0.900890 -0.913710
v -1.179850 0.876040 0.860310
v -1.131380 -0.900890 0.887960
v -1.131380 0.900890 0.887960
v -1.159790 0.876040 -0.887180
v -1.110690 -0.900890 -0.913710
v -1.159790 -0.876040 -0.887180
v -1.179850 -0.876040 0.860310
v -1.110690 -0.900890 -0.913710
v -1.131380 -0.900890 0.887960
v -1.110690 0.900890 -0.913710
v -1.131380 0.900890 0.887960
v 1.179870 0.876040 -0.860310
v 1.131390 -0.900890 -0.887960
v 1.131390 0.900890 -0.887960
v 1.159800 0.876040 0.887180
v 1.110700 -0.900890 0.913700
v 1.159800 -0.876040 0.887180
v 1.179870 -0.876040 -0.860310
v 1.110700 -0.900890 0.913700
v 1.131390 -0.900890 -0.887960
v 1.110700 0.900890 0.913700
v 1.131390 0.900890 -0.887960
v 1.104020 -0.949680 -0.863420
v 1.110700 -0.900890 0.913700
v 1.083900 -0.949680 0.888540
v -1.104000 -0.949680 0.863420
v -1.110690 -0.900890 -0.913710
v -1.083890 -0.949680 -0.888540
v 1.131390 -0.900890 -0.887960
v -1.131380 -0.900890 0.887960
v 1.110700 -0.900890 0.913700
v -1.110690 0.900890 -0.913710
v -1.131380 0.900890 0.887960
v -1.131380 0.900890 0.887960
v -1.131380 -0.900890 0.887960
v 1.131390 0.900890 -0.887960
v 1.131390 -0.900890 -0.887960
v -1.110690 0.900890 -0.913710
v 1.110700 0.900890 0.913700
v 1.131390 -0.900890 -0.887960
v -1.131380 -0.900890 0.887960
v -1.110690 -0.900890 -0.913710
vt 0.439593 0.494393
vt 0.610399 0.499757
vt 0.437204 0.499758
vt 0.439592 0.284069
vt 0.610399 0.278704
vt 0.608010 0.284069
vt 0.613274 0.496997
vt 0.608011 0.494393
vt 0.434329 0.281465
vt 0.434330 0.496997
vt 0.439593 0.494393
vt 0.610399 0.499757
vt 0.437204 0.499758
vt 0.439592 0.284069
vt 0.610399 0.278704
vt 0.608010 0.284069
vt 0.613274 0.496997
vt 0.608011 0.494393
vt 0.434329 0.281465
vt 0.434330 0.496997
vt 0.439593 0.494393
vt 0.610399 0.499757
vt 0.437204 0.499758
vt 0.439592 0.284069
vt 0.610399 0.278704
vt 0.608010 0.284069
vt 0.613274 0.496997
vt 0.608011 0.494393
vt 0.434329 0.281465
vt 0.434330 0.496997
vt 0.439593 0.494393
vt 0.610399 0.499757
vt 0.437204 0.499758
vt 0.439592 0.284069
vt 0.610399 0.278704
vt 0.608010 0.284069
vt 0.608011 0.494393
vt 0.613273 0.281465
vt 0.613274 0.496997
vt 0.434329 0.281465
vt 0.434330 0.496997
vt 0.439593 0.494393
vt 0.610399 0.499757
vt 0.437204 0.499758
vt 0.439592 0.284069
vt 0.610399 0.278704
vt 0.608010 0.284069
vt 0.608011 0.494393
vt 0.613273 0.281465
vt 0.613274 0.496997
vt 0.434329 0.281465
vt 0.434330 0.496997
vt 0.608011 0.494393
vt 0.437204 0.499758
vt 0.439593 0.494393
vt 0.439592 0.284069
vt 0.610399 0.278704
vt 0.608010 0.284069
vt 0.613274 0.496997
vt 0.434329 0.281465
vt 0.434330 0.496997
vt 0.437204 0.278705
vt 0.613273 0.281465
vt 0.437204 0.278705
vt 0.613273 0.281465
vt 0.437204 0.278705
vt 0.613273 0.281465
vt 0.437204 0.278705
vt 0.437204 0.278705
vt 0.610399 0.499757
vt 0.437204 0.278705
vt 0.613273 0.281465
vn 0.8742 0.4854 0.0100
vn -0.8742 0.4854 -0.0100
vn -0.8742 0.4855 -0.0100
vn -0.0102 0.4539 0.8910
vn -0.0000 1.0000 0.0000
vn 0.0102 0.4540 -0.8909
vn 0.0102 0.4539 -0.8910
vn 0.8687 -0.0000 0.4954
vn -0.8798 -0.0000 0.4754
vn -0.0052 -0.8911 0.4538
vn -0.0115 -0.0000 0.9999
vn -0.0052 0.8911 0.4538
vn -0.8686 0.0000 -0.4955
vn 0.8798 0.0000 -0.4754
vn 0.0052 -0.8911 -0.4538
vn 0.0052 -0.8911 -0.4539
vn 0.0115 0.0000 -0.9999
vn 0.0052 0.8911 -0.4538
vn 0.0052 0.8911 -0.4539
vn -0.4955 -0.0000 0.8686
vn -0.4754 0.0000 -0.8798
vn -0.4539 -0.8911 -0.0052
vn -0.9999 -0.0000 -0.0115
vn -0.4538 0.8911 -0.0052
vn -0.4539 0.8911 -0.0052
vn 0.4954 0.0000 -0.8687
vn 0.4752 -0.0000 0.8799
vn 0.4538 -0.8911 0.0052
vn 0.9999 0.0000 0.0115
vn 0.4538 0.8911 0.0052
vn 0.8742 -0.4854 0.0100
vn -0.8742 -0.4855 -0.0100
vn -0.8742 -0.4854 -0.0100
vn 0.0102 -0.4540 -0.8909
vn 0.0102 -0.4539 -0.8910
vn 0.0000 -1.0000 -0.0000
vn -0.0102 -0.4539 0.8910
vn -0.4538 -0.8911 -0.0052
usemtl Default_OBJ.005
s 1
f 1/1/1 2/2/1 3/3/1
f 4/4/2 5/5/3 6/6/3
f 6/6/4 7/7/4 8/8/4
f 8/8/5 4/4/5 6/6/5
f 9/9/6 1/1/7 10/10/7
f 11/11/8 12/12/8 13/13/8
f 14/14/9 15/15/9 16/16/9
f 16/16/10 17/17/10 18/18/10
f 18/18/11 14/14/11 16/16/11
f 19/19/12 11/11/12 20/20/12
f 21/21/13 22/22/13 23/23/13
f 24/24/14 25/25/14 26/26/14
f 26/26/15 27/27/16 28/28/16
f 28/28/17 24/24/17 26/26/17
f 29/29/18 21/21/19 30/30/19
f 31/31/20 32/32/20 33/33/20
f 34/34/21 35/35/21 36/36/21
f 37/37/22 38/38/22 39/39/22
f 37/37/23 34/34/23 36/36/23
f 40/40/24 31/31/25 41/41/25
f 42/42/26 43/43/26 44/44/26
f 45/45/27 46/46/27 47/47/27
f 48/48/28 49/49/28 50/50/28
f 48/48/29 45/45/29 47/47/29
f 51/51/30 42/42/30 52/52/30
f 53/53/31 54/54/31 55/55/31
f 56/56/32 57/57/33 58/58/33
f 58/58/34 59/59/35 53/53/35
f 53/53/36 56/56/36 58/58/36
f 60/60/37 55/55/37 61/61/37
f 1/1/1 8/8/1 2/2/1
f 4/4/2 62/62/2 5/5/3
f 6/6/4 63/63/4 7/7/4
f 8/8/5 1/1/5 4/4/5
f 9/9/6 4/4/6 1/1/7
f 11/11/8 18/18/8 12/12/8
f 14/14/9 64/64/9 15/15/9
f 16/16/10 65/65/10 17/17/10
f 18/18/11 11/11/11 14/14/11
f 19/19/12 14/14/12 11/11/12
f 21/21/13 28/28/13 22/22/13
f 24/24/14 66/66/14 25/25/14
f 26/26/15 67/67/15 27/27/16
f 28/28/17 21/21/17 24/24/17
f 29/29/18 24/24/18 21/21/19
f 31/31/20 37/37/20 32/32/20
f 34/34/21 68/68/21 35/35/21
f 37/37/38 36/36/38 38/38/38
f 37/37/23 31/31/23 34/34/23
f 40/40/24 34/34/24 31/31/25
f 42/42/26 48/48/26 43/43/26
f 45/45/27 69/69/27 46/46/27
f 48/48/28 47/47/28 49/49/28
f 48/48/29 42/42/29 45/45/29
f 51/51/30 45/45/30 42/42/30
f 53/53/31 70/70/31 54/54/31
f 56/56/32 71/71/32 57/57/33
f 58/58/34 72/72/34 59/59/35
f 53/53/36 55/55/36 56/56/36
f 60/60/37 56/56/37 55/55/37
