# Blender v2.83.0 OBJ File: ''
# www.blender.org
mtllib tv_1.mtl
v 0.011141 0.832988 -0.728865
v -0.001874 0.832988 -0.728865
v -0.001874 0.832988 0.728865
v 0.011141 0.832988 0.728865
v 0.011141 -0.000000 0.728865
v 0.011141 -0.000000 -0.728865
v 0.011141 0.071585 -0.670295
v 0.011141 0.774419 -0.670295
v 0.011141 0.832988 -0.728865
v 0.011141 0.774419 0.670295
v 0.011141 0.832988 0.728865
v 0.011141 0.071585 0.670295
v -0.001874 0.000000 0.728865
v -0.001874 0.000000 -0.728865
v 0.011141 -0.000000 -0.728865
v 0.011141 -0.000000 0.728865
v 0.010321 0.045199 0.024275
v 0.010321 0.033457 0.024275
v 0.014890 0.033457 0.024276
v 0.014890 0.045199 0.024276
v 0.010321 0.045199 -0.024275
v 0.010321 0.045199 0.024275
v 0.014890 0.045199 0.024276
v 0.014890 0.045199 -0.024275
v 0.010321 0.033457 -0.024275
v 0.010321 0.045199 -0.024275
v 0.014890 0.045199 -0.024275
v 0.014890 0.033457 -0.024275
v 0.010321 0.033457 0.024275
v 0.010321 0.033457 -0.024275
v 0.014890 0.033457 -0.024275
v 0.014890 0.033457 0.024276
v 0.014890 0.033457 0.024276
v 0.014890 0.033457 -0.024275
v 0.014890 0.045199 -0.024275
v 0.014890 0.045199 0.024276
v 0.011141 0.774419 0.670295
v 0.011141 0.071585 0.670295
v 0.004633 0.071585 0.670295
v 0.004634 0.774419 0.670295
v 0.011141 0.774419 -0.670295
v 0.011141 0.774419 0.670295
v 0.004634 0.774419 0.670295
v 0.004634 0.774419 -0.670295
v 0.011141 0.071585 -0.670295
v 0.011141 0.774419 -0.670295
v 0.004634 0.774419 -0.670295
v 0.004634 0.071585 -0.670295
v 0.011141 0.071585 0.670295
v 0.011141 0.071585 -0.670295
v 0.004634 0.071585 -0.670295
v 0.004633 0.071585 0.670295
v 0.011141 -0.000000 0.728865
v 0.011141 0.832988 0.728865
v -0.001874 0.832988 0.728865
v -0.001874 0.000000 0.728865
v -0.001874 0.000000 -0.728865
v -0.001874 0.832988 -0.728865
v 0.011141 0.832988 -0.728865
v 0.011141 -0.000000 -0.728865
v 0.004633 0.071585 0.670295
v 0.004634 0.071585 -0.670295
v 0.004634 0.774419 -0.670295
v 0.004634 0.774419 0.670295
v -0.014890 0.806957 0.702834
v -0.014889 0.806957 -0.702834
v -0.014890 0.026031 -0.702834
v -0.014890 0.026031 0.702834
v -0.001874 0.000000 -0.728865
v -0.001874 0.000000 0.728865
v -0.001874 0.832988 0.728865
v -0.001874 0.832988 -0.728865
vt 0.986328 0.990303
vt 0.986328 0.997702
vt 0.155029 0.997702
vt 0.155029 0.990303
vt 0.155029 0.511719
vt 0.986328 0.511719
vt 0.953125 0.552490
vt 0.953125 0.953430
vt 0.986328 0.986801
vt 0.188477 0.953430
vt 0.155029 0.986801
vt 0.188477 0.552490
vt 0.155029 0.501221
vt 0.986328 0.501221
vt 0.986328 0.508545
vt 0.155029 0.508545
vt 0.001599 0.795166
vt 0.001599 0.766602
vt 0.012695 0.766602
vt 0.012695 0.795166
vt 0.130737 0.806274
vt 0.012695 0.806274
vt 0.012695 0.795166
vt 0.130737 0.795166
vt 0.141846 0.766602
vt 0.141846 0.795166
vt 0.130737 0.795166
vt 0.130737 0.766602
vt 0.012695 0.755493
vt 0.130737 0.755493
vt 0.130737 0.766602
vt 0.012695 0.766602
vt 0.012695 0.766602
vt 0.130737 0.766602
vt 0.130737 0.795166
vt 0.012695 0.795166
vt 0.189087 0.952728
vt 0.189087 0.553223
vt 0.191895 0.555908
vt 0.191895 0.949921
vt 0.952637 0.952728
vt 0.189087 0.952728
vt 0.191895 0.949921
vt 0.949707 0.949921
vt 0.952637 0.553223
vt 0.952637 0.952728
vt 0.949707 0.949921
vt 0.949707 0.555908
vt 0.189087 0.553223
vt 0.952637 0.553223
vt 0.949707 0.555908
vt 0.191895 0.555908
vt 0.152100 0.511719
vt 0.152100 0.986801
vt 0.144775 0.986801
vt 0.144775 0.511719
vt 0.997070 0.511719
vt 0.997070 0.986801
vt 0.989746 0.986801
vt 0.989746 0.511719
vt 0.209839 0.563721
vt 0.931641 0.563721
vt 0.931641 0.942230
vt 0.209839 0.942230
vt 0.980957 0.479004
vt 0.179077 0.479004
vt 0.179077 0.018555
vt 0.980957 0.018555
vt 0.164185 0.003906
vt 0.995605 0.003906
vt 0.995605 0.493652
vt 0.164185 0.493652
vn 0.0000 1.0000 0.0000
vn 1.0000 0.0000 0.0000
vn 0.0000 -1.0000 0.0000
vn -0.0003 0.0000 1.0000
vn 0.0000 0.0000 -1.0000
vn 0.0000 0.0000 1.0000
vn -0.9688 0.1753 0.1753
vn -0.9688 0.1753 -0.1753
vn -0.9688 -0.1753 -0.1753
vn -0.9688 -0.1753 0.1753
vn -0.9428 -0.2357 -0.2357
vn -0.9428 -0.2357 0.2357
vn -0.9428 0.2357 0.2357
vn -0.9428 0.2357 -0.2357
usemtl Material__40
s 1
f 1/1/1 2/2/1 3/3/1
f 3/3/1 4/4/1 1/1/1
f 5/5/2 6/6/2 7/7/2
f 8/8/2 7/7/2 6/6/2
f 6/6/2 9/9/2 8/8/2
f 10/10/2 8/8/2 9/9/2
f 9/9/2 11/11/2 10/10/2
f 12/12/2 10/10/2 11/11/2
f 11/11/2 5/5/2 12/12/2
f 7/7/2 12/12/2 5/5/2
f 13/13/3 14/14/3 15/15/3
f 15/15/3 16/16/3 13/13/3
f 17/17/4 18/18/4 19/19/4
f 19/19/4 20/20/4 17/17/4
f 21/21/1 22/22/1 23/23/1
f 23/23/1 24/24/1 21/21/1
f 25/25/5 26/26/5 27/27/5
f 27/27/5 28/28/5 25/25/5
f 29/29/3 30/30/3 31/31/3
f 31/31/3 32/32/3 29/29/3
f 33/33/2 34/34/2 35/35/2
f 35/35/2 36/36/2 33/33/2
f 37/37/5 38/38/5 39/39/5
f 39/39/5 40/40/5 37/37/5
f 41/41/3 42/42/3 43/43/3
f 43/43/3 44/44/3 41/41/3
f 45/45/6 46/46/6 47/47/6
f 47/47/6 48/48/6 45/45/6
f 49/49/1 50/50/1 51/51/1
f 51/51/1 52/52/1 49/49/1
f 53/53/6 54/54/6 55/55/6
f 55/55/6 56/56/6 53/53/6
f 57/57/5 58/58/5 59/59/5
f 59/59/5 60/60/5 57/57/5
f 61/61/2 62/62/2 63/63/2
f 63/63/2 64/64/2 61/61/2
f 65/65/7 66/66/8 67/67/9
f 67/67/9 68/68/10 65/65/7
f 68/68/10 67/67/9 69/69/11
f 69/69/11 70/70/12 68/68/10
f 68/68/10 70/70/12 71/71/13
f 71/71/13 65/65/7 68/68/10
f 66/66/8 65/65/7 71/71/13
f 71/71/13 72/72/14 66/66/8
f 66/66/8 72/72/14 69/69/11
f 69/69/11 67/67/9 66/66/8
